mean_fit_time;std_fit_time;mean_score_time;std_score_time;param_C;param_class_weight;param_gamma;param_kernel;params;split0_test_tp;split1_test_tp;split2_test_tp;split3_test_tp;split4_test_tp;mean_test_tp;std_test_tp;rank_test_tp;split0_test_tn;split1_test_tn;split2_test_tn;split3_test_tn;split4_test_tn;mean_test_tn;std_test_tn;rank_test_tn;split0_test_fp;split1_test_fp;split2_test_fp;split3_test_fp;split4_test_fp;mean_test_fp;std_test_fp;rank_test_fp;split0_test_fn;split1_test_fn;split2_test_fn;split3_test_fn;split4_test_fn;mean_test_fn;std_test_fn;rank_test_fn;split0_test_AUC;split1_test_AUC;split2_test_AUC;split3_test_AUC;split4_test_AUC;mean_test_AUC;std_test_AUC;rank_test_AUC;split0_test_Accuracy;split1_test_Accuracy;split2_test_Accuracy;split3_test_Accuracy;split4_test_Accuracy;mean_test_Accuracy;std_test_Accuracy;rank_test_Accuracy;split0_test_Average_Precision;split1_test_Average_Precision;split2_test_Average_Precision;split3_test_Average_Precision;split4_test_Average_Precision;mean_test_Average_Precision;std_test_Average_Precision;rank_test_Average_Precision;split0_test_Recall;split1_test_Recall;split2_test_Recall;split3_test_Recall;split4_test_Recall;mean_test_Recall;std_test_Recall;rank_test_Recall;split0_test_Precision;split1_test_Precision;split2_test_Precision;split3_test_Precision;split4_test_Precision;mean_test_Precision;std_test_Precision;rank_test_Precision;split0_test_F1;split1_test_F1;split2_test_F1;split3_test_F1;split4_test_F1;mean_test_F1;std_test_F1;rank_test_F1
14,7953369140625;0,0328586164006678;7,364733028411865;0,011493149203786876;1;{0.0: 1.0, 1.0: 4.202312138728324};0.1;poly;{'C': 1, 'class_weight': {0.0: 1.0, 1.0: 4.202312138728324}, 'gamma': 0.1, 'kernel': 'poly'};34,0;34,0;0,0;0,0;0,0;13,6;16,65653025092561;5;0,0;0,0;145,0;145,0;145,0;87,0;71,03520254071216;12;146,0;146,0;0,0;0,0;0,0;58,4;71,5251004892688;1;0,0;0,0;35,0;35,0;35,0;21,0;17,146428199482248;8;0,7876712328767124;0,6633763094278807;0,7314285714285714;0,6823645320197045;0,7757635467980295;0,7281208385101797;0,04921892288339738;26;0,18888888888888888;0,18888888888888888;0,8055555555555556;0,8055555555555556;0,8055555555555556;0,5588888888888889;0,30210373494325865;12;0,42000050259820115;0,312669664688114;0,5047077931721682;0,3051987029748356;0,46533984927247185;0,4015833025411581;0,08029243688763125;27;1,0;1,0;0,0;0,0;0,0;0,4;0,48989794855663565;5;0,18888888888888888;0,18888888888888888;0,0;0,0;0,0;0,07555555555555556;0,09253627917180894;11;0,3177570093457944;0,3177570093457944;0,0;0,0;0,0;0,12710280373831775;0,15566850701799634;11
14,431988525390626;0,03257153248113434;7,252887105941772;0,02538251919318301;1;{0.0: 1.0, 1.0: 4.202312138728324};0.1;rbf;{'C': 1, 'class_weight': {0.0: 1.0, 1.0: 4.202312138728324}, 'gamma': 0.1, 'kernel': 'rbf'};19,0;14,0;21,0;17,0;20,0;18,2;2,481934729198171;1;124,0;117,0;130,0;119,0;115,0;121,0;5,403702434442518;11;22,0;29,0;15,0;26,0;30,0;24,4;5,4626001134990645;22;15,0;20,0;14,0;18,0;15,0;16,4;2,244994432064365;29;0,8090249798549557;0,7211925866236906;0,7923152709359604;0,7261083743842365;0,7970443349753694;0,7691371093548425;0,0375692212382365;3;0,7944444444444444;0,7277777777777777;0,8388888888888889;0,7555555555555555;0,75;0,7733333333333333;0,039189315752329784;11;0,5509619909202078;0,40531606472351644;0,622379691804307;0,40747852278211794;0,5975610756906247;0,5167394691841547;0,09296913377865189;10;0,5588235294117647;0,4117647058823529;0,6;0,4857142857142857;0,5714285714285714;0,5255462184873949;0,06824771174835889;1;0,4634146341463415;0,32558139534883723;0,5833333333333334;0,3953488372093023;0,4;0,43353564000756295;0,0866822856355009;10;0,5066666666666667;0,36363636363636365;0,591549295774648;0,43589743589743585;0,47058823529411764;0,4736675994538464;0,07553538688404877;4
14,752868795394898;0,023501343079220475;7,368625497817993;0,01655518784559906;1;{0.0: 1.0, 1.0: 4.202312138728324};0.01;poly;{'C': 1, 'class_weight': {0.0: 1.0, 1.0: 4.202312138728324}, 'gamma': 0.01, 'kernel': 'poly'};34,0;34,0;0,0;0,0;0,0;13,6;16,65653025092561;5;0,0;0,0;145,0;145,0;145,0;87,0;71,03520254071216;12;146,0;146,0;0,0;0,0;0,0;58,4;71,5251004892688;1;0,0;0,0;35,0;35,0;35,0;21,0;17,146428199482248;8;0,7874697824335213;0,6645850120870266;0,7314285714285714;0,6815763546798029;0,7765517241379309;0,7283222889533707;0,049156436460483205;18;0,18888888888888888;0,18888888888888888;0,8055555555555556;0,8055555555555556;0,8055555555555556;0,5588888888888889;0,30210373494325865;12;0,42053383298609653;0,31487667185209367;0,5048154463184142;0,3049382515516046;0,46562619718638737;0,40215807997891934;0,07996767385417805;18;1,0;1,0;0,0;0,0;0,0;0,4;0,48989794855663565;5;0,18888888888888888;0,18888888888888888;0,0;0,0;0,0;0,07555555555555556;0,09253627917180894;11;0,3177570093457944;0,3177570093457944;0,0;0,0;0,0;0,12710280373831775;0,15566850701799634;11
14,994814395904541;0,027260543980857477;7,546333265304566;0,011643430348121132;1;{0.0: 1.0, 1.0: 4.202312138728324};0.01;rbf;{'C': 1, 'class_weight': {0.0: 1.0, 1.0: 4.202312138728324}, 'gamma': 0.01, 'kernel': 'rbf'};34,0;34,0;0,0;0,0;0,0;13,6;16,65653025092561;5;0,0;0,0;145,0;145,0;145,0;87,0;71,03520254071216;12;146,0;146,0;0,0;0,0;0,0;58,4;71,5251004892688;1;0,0;0,0;35,0;35,0;35,0;21,0;17,146428199482248;8;0,8029814665592264;0,7185737308622079;0,7832512315270936;0,7144827586206897;0,8076847290640394;0,7653947833266515;0,040753640874824595;11;0,18888888888888888;0,18888888888888888;0,8055555555555556;0,8055555555555556;0,8055555555555556;0,5588888888888889;0,30210373494325865;12;0,5402452112657357;0,4045930739118824;0,5993706100177503;0,39789250680534877;0,5848638100706307;0,5053930424142695;0,08726861819061457;11;1,0;1,0;0,0;0,0;0,0;0,4;0,48989794855663565;5;0,18888888888888888;0,18888888888888888;0,0;0,0;0,0;0,07555555555555556;0,09253627917180894;11;0,3177570093457944;0,3177570093457944;0,0;0,0;0,0;0,12710280373831775;0,15566850701799634;11
14,762685060501099;0,020408225415904778;7,3666369915008545;0,00971232571018162;1;{0.0: 1.0, 1.0: 4.202312138728324};0.001;poly;{'C': 1, 'class_weight': {0.0: 1.0, 1.0: 4.202312138728324}, 'gamma': 0.001, 'kernel': 'poly'};34,0;34,0;0,0;0,0;0,0;13,6;16,65653025092561;5;0,0;0,0;145,0;145,0;145,0;87,0;71,03520254071216;12;146,0;146,0;0,0;0,0;0,0;58,4;71,5251004892688;1;0,0;0,0;35,0;35,0;35,0;21,0;17,146428199482248;8;0,7878726833199032;0,6629734085414988;0,7314285714285713;0,6813793103448275;0,7773399014778324;0,7281987750225266;0,04986515402742736;22;0,18888888888888888;0,18888888888888888;0,8055555555555556;0,8055555555555556;0,8055555555555556;0,5588888888888889;0,30210373494325865;12;0,41995476750540933;0,313083650556417;0,5048011725739914;0,3047357995362799;0,4665300530663389;0,4018210886476873;0,0805243619675009;22;1,0;1,0;0,0;0,0;0,0;0,4;0,48989794855663565;5;0,18888888888888888;0,18888888888888888;0,0;0,0;0,0;0,07555555555555556;0,09253627917180894;11;0,3177570093457944;0,3177570093457944;0,0;0,0;0,0;0,12710280373831775;0,15566850701799634;11
14,966168212890626;0,01807103326179927;7,533137035369873;0,011537306615740683;1;{0.0: 1.0, 1.0: 4.202312138728324};0.001;rbf;{'C': 1, 'class_weight': {0.0: 1.0, 1.0: 4.202312138728324}, 'gamma': 0.001, 'kernel': 'rbf'};34,0;34,0;0,0;0,0;0,0;13,6;16,65653025092561;5;0,0;0,0;145,0;145,0;145,0;87,0;71,03520254071216;12;146,0;146,0;0,0;0,0;0,0;58,4;71,5251004892688;1;0,0;0,0;35,0;35,0;35,0;21,0;17,146428199482248;8;0,8021756647864625;0,7181708299758259;0,7836453201970444;0,7142857142857142;0,8076847290640394;0,7651924516618174;0,04078330262567936;16;0,18888888888888888;0,18888888888888888;0,8055555555555556;0,8055555555555556;0,8055555555555556;0,5588888888888889;0,30210373494325865;12;0,5391903802179405;0,40424982866971315;0,5995190558473247;0,3978441472520702;0,5848638100706307;0,5051334444115358;0,08730858713881254;16;1,0;1,0;0,0;0,0;0,0;0,4;0,48989794855663565;5;0,18888888888888888;0,18888888888888888;0,0;0,0;0,0;0,07555555555555556;0,09253627917180894;11;0,3177570093457944;0,3177570093457944;0,0;0,0;0,0;0,12710280373831775;0,15566850701799634;11
14,767604112625122;0,02837522846363111;7,368849182128907;0,014937400214784565;1;{0.0: 1.0, 1.0: 4.202312138728324};0.0001;poly;{'C': 1, 'class_weight': {0.0: 1.0, 1.0: 4.202312138728324}, 'gamma': 0.0001, 'kernel': 'poly'};34,0;34,0;0,0;0,0;0,0;13,6;16,65653025092561;5;0,0;0,0;145,0;145,0;145,0;87,0;71,03520254071216;12;146,0;146,0;0,0;0,0;0,0;58,4;71,5251004892688;1;0,0;0,0;35,0;35,0;35,0;21,0;17,146428199482248;8;0,7879734085414989;0,6625705076551168;0,7314285714285714;0,6815763546798029;0,7755665024630541;0,7278230689536088;0,04961280838864653;31;0,18888888888888888;0,18888888888888888;0,8055555555555556;0,8055555555555556;0,8055555555555556;0,5588888888888889;0,30210373494325865;12;0,4199602376803823;0,31214505355421496;0,5038959463240321;0,3047825439488504;0,46346372919528134;0,40084950214055226;0,08000208866849148;32;1,0;1,0;0,0;0,0;0,0;0,4;0,48989794855663565;5;0,18888888888888888;0,18888888888888888;0,0;0,0;0,0;0,07555555555555556;0,09253627917180894;11;0,3177570093457944;0,3177570093457944;0,0;0,0;0,0;0,12710280373831775;0,15566850701799634;11
14,976934480667115;0,030021787623500724;7,522326374053955;0,02005659502556328;1;{0.0: 1.0, 1.0: 4.202312138728324};0.0001;rbf;{'C': 1, 'class_weight': {0.0: 1.0, 1.0: 4.202312138728324}, 'gamma': 0.0001, 'kernel': 'rbf'};34,0;34,0;0,0;0,0;0,0;13,6;16,65653025092561;5;0,0;0,0;145,0;145,0;145,0;87,0;71,03520254071216;12;146,0;146,0;0,0;0,0;0,0;58,4;71,5251004892688;1;0,0;0,0;35,0;35,0;35,0;21,0;17,146428199482248;8;0,8031829170024174;0,7181708299758259;0,7838423645320197;0,7140886699507388;0,8076847290640394;0,7653939021050082;0,0410344120109881;12;0,18888888888888888;0,18888888888888888;0,8055555555555556;0,8055555555555556;0,8055555555555556;0,5588888888888889;0,30210373494325865;12;0,5404810269526376;0,4041960408614427;0,5995800972130234;0,397224215120109;0,5848638100706307;0,5052690380435687;0,0875890658684936;14;1,0;1,0;0,0;0,0;0,0;0,4;0,48989794855663565;5;0,18888888888888888;0,18888888888888888;0,0;0,0;0,0;0,07555555555555556;0,09253627917180894;11;0,3177570093457944;0,3177570093457944;0,0;0,0;0,0;0,12710280373831775;0,15566850701799634;11
14,773436546325684;0,031166048745909742;7,366365051269531;0,01671187438766649;10;{0.0: 1.0, 1.0: 4.202312138728324};0.1;poly;{'C': 10, 'class_weight': {0.0: 1.0, 1.0: 4.202312138728324}, 'gamma': 0.1, 'kernel': 'poly'};34,0;34,0;0,0;0,0;0,0;13,6;16,65653025092561;5;0,0;0,0;145,0;145,0;145,0;87,0;71,03520254071216;12;146,0;146,0;0,0;0,0;0,0;58,4;71,5251004892688;1;0,0;0,0;35,0;35,0;35,0;21,0;17,146428199482248;8;0,7878726833199033;0,6627719580983078;0,7316256157635468;0,6819704433497538;0,7755665024630541;0,7279614405989132;0,049464867443000646;29;0,18888888888888888;0,18888888888888888;0,8055555555555556;0,8055555555555556;0,8055555555555556;0,5588888888888889;0,30210373494325865;12;0,4201297349802943;0,3124212395678009;0,504840934544305;0,3050951142967026;0,4652989770177104;0,40155720008136264;0,08040601524113615;29;1,0;1,0;0,0;0,0;0,0;0,4;0,48989794855663565;5;0,18888888888888888;0,18888888888888888;0,0;0,0;0,0;0,07555555555555556;0,09253627917180894;11;0,3177570093457944;0,3177570093457944;0,0;0,0;0,0;0,12710280373831775;0,15566850701799634;11
14,385204315185547;0,03119151064588695;6,264367628097534;0,07193804309146314;10;{0.0: 1.0, 1.0: 4.202312138728324};0.1;rbf;{'C': 10, 'class_weight': {0.0: 1.0, 1.0: 4.202312138728324}, 'gamma': 0.1, 'kernel': 'rbf'};6,0;8,0;10,0;12,0;9,0;9,0;2,0;31;144,0;142,0;145,0;137,0;140,0;141,6;2,8705400188814645;2;2,0;4,0;0,0;8,0;5,0;3,8;2,7129319932501073;29;28,0;26,0;25,0;23,0;26,0;25,6;1,624807680927192;2;0,8084206285253828;0,7203867848509266;0,7883743842364532;0,7436453201970443;0,7771428571428571;0,7675939949905327;0,03159708551412363;7;0,8333333333333334;0,8333333333333334;0,8611111111111112;0,8277777777777777;0,8277777777777777;0,8366666666666666;0,012472191289246502;3;0,5384699712131311;0,41254906241666045;0,6281097136273689;0,4713687361102742;0,5647366192309242;0,5230468205196718;0,07469203887439908;3;0,17647058823529413;0,23529411764705882;0,2857142857142857;0,34285714285714286;0,2571428571428571;0,2594957983193277;0,054992665026296385;31;0,75;0,6666666666666666;1,0;0,6;0,6428571428571429;0,7319047619047618;0,14267925432420955;3;0,2857142857142857;0,3478260869565218;0,4444444444444445;0,43636363636363634;0,36734693877551017;0,37633907845087966;0,058903294896276534;10
14,754068088531493;0,02843244087217826;7,365751171112061;0,014974279054481449;10;{0.0: 1.0, 1.0: 4.202312138728324};0.01;poly;{'C': 10, 'class_weight': {0.0: 1.0, 1.0: 4.202312138728324}, 'gamma': 0.01, 'kernel': 'poly'};34,0;34,0;0,0;0,0;0,0;13,6;16,65653025092561;5;0,0;0,0;145,0;145,0;145,0;87,0;71,03520254071216;12;146,0;146,0;0,0;0,0;0,0;58,4;71,5251004892688;1;0,0;0,0;35,0;35,0;35,0;21,0;17,146428199482248;8;0,7872683319903304;0,6635777598710717;0,7314285714285715;0,6821674876847291;0,7763546798029557;0,7281593661555317;0,04922069190554786;25;0,18888888888888888;0,18888888888888888;0,8055555555555556;0,8055555555555556;0,8055555555555556;0,5588888888888889;0,30210373494325865;12;0,41912903556506;0,31315697214924193;0,504384868741886;0,3052769578683012;0,46570086222004764;0,40152973930890734;0,08010142296560384;30;1,0;1,0;0,0;0,0;0,0;0,4;0,48989794855663565;5;0,18888888888888888;0,18888888888888888;0,0;0,0;0,0;0,07555555555555556;0,09253627917180894;11;0,3177570093457944;0,3177570093457944;0,0;0,0;0,0;0,12710280373831775;0,15566850701799634;11
14,095435380935669;0,07640291494402565;7,0954296588897705;0,036243622606619716;10;{0.0: 1.0, 1.0: 4.202312138728324};0.01;rbf;{'C': 10, 'class_weight': {0.0: 1.0, 1.0: 4.202312138728324}, 'gamma': 0.01, 'kernel': 'rbf'};19,0;14,0;21,0;17,0;20,0;18,2;2,481934729198171;1;124,0;116,0;130,0;119,0;118,0;121,4;5,043808085167397;9;22,0;30,0;15,0;26,0;27,0;24,0;5,176871642217914;23;15,0;20,0;14,0;18,0;15,0;16,4;2,244994432064365;29;0,8080177276390008;0,7197824335213537;0,7940886699507389;0,7280788177339901;0,7954679802955665;0,7690871258281299;0,037280698664357646;4;0,7944444444444444;0,7222222222222222;0,8388888888888889;0,7555555555555555;0,7666666666666667;0,7755555555555556;0,03922080576605065;9;0,5488914297168869;0,413795593951393;0,6254644310389554;0,41144421740046644;0,594209474562563;0,518761029334053;0,09002284776509493;7;0,5588235294117647;0,4117647058823529;0,6;0,4857142857142857;0,5714285714285714;0,5255462184873949;0,06824771174835889;1;0,4634146341463415;0,3181818181818182;0,5833333333333334;0,3953488372093023;0,425531914893617;0,43716210755288254;0,08728704670870584;8;0,5066666666666667;0,358974358974359;0,591549295774648;0,43589743589743585;0,4878048780487805;0,476178527072378;0,07711614135794492;2
14,78307147026062;0,034409986401041696;7,374562978744507;0,02048859950215029;10;{0.0: 1.0, 1.0: 4.202312138728324};0.001;poly;{'C': 10, 'class_weight': {0.0: 1.0, 1.0: 4.202312138728324}, 'gamma': 0.001, 'kernel': 'poly'};34,0;34,0;0,0;0,0;0,0;13,6;16,65653025092561;5;0,0;0,0;145,0;145,0;145,0;87,0;71,03520254071216;12;146,0;146,0;0,0;0,0;0,0;58,4;71,5251004892688;1;0,0;0,0;35,0;35,0;35,0;21,0;17,146428199482248;8;0,7880741337630943;0,6633763094278807;0,7320197044334976;0,681576354679803;0,7771428571428571;0,7284378718894265;0,04974032076354314;17;0,18888888888888888;0,18888888888888888;0,8055555555555556;0,8055555555555556;0,8055555555555556;0,5588888888888889;0,30210373494325865;12;0,4201359792600485;0,3134510098399977;0,5049879732098346;0,30493289288639935;0,46589398012536576;0,4018803670643291;0,08035017417207516;21;1,0;1,0;0,0;0,0;0,0;0,4;0,48989794855663565;5;0,18888888888888888;0,18888888888888888;0,0;0,0;0,0;0,07555555555555556;0,09253627917180894;11;0,3177570093457944;0,3177570093457944;0,0;0,0;0,0;0,12710280373831775;0,15566850701799634;11
14,977683734893798;0,022000979878444325;7,5334649085998535;0,01470078202179499;10;{0.0: 1.0, 1.0: 4.202312138728324};0.001;rbf;{'C': 10, 'class_weight': {0.0: 1.0, 1.0: 4.202312138728324}, 'gamma': 0.001, 'kernel': 'rbf'};34,0;34,0;0,0;0,0;0,0;13,6;16,65653025092561;5;0,0;0,0;145,0;145,0;145,0;87,0;71,03520254071216;12;146,0;146,0;0,0;0,0;0,0;58,4;71,5251004892688;1;0,0;0,0;35,0;35,0;35,0;21,0;17,146428199482248;8;0,8027800161160354;0,7181708299758259;0,7832512315270936;0,7142857142857142;0,8076847290640394;0,7652345041937417;0,0408584340004184;15;0,18888888888888888;0,18888888888888888;0,8055555555555556;0,8055555555555556;0,8055555555555556;0,5588888888888889;0,30210373494325865;12;0,5401827190772591;0,4039916103888921;0,5993706100177503;0,3978441472520702;0,5848638100706307;0,5052505793613206;0,08741466869544631;15;1,0;1,0;0,0;0,0;0,0;0,4;0,48989794855663565;5;0,18888888888888888;0,18888888888888888;0,0;0,0;0,0;0,07555555555555556;0,09253627917180894;11;0,3177570093457944;0,3177570093457944;0,0;0,0;0,0;0,12710280373831775;0,15566850701799634;11
14,761312580108642;0,023551013093927615;7,3691400527954105;0,021162739970987717;10;{0.0: 1.0, 1.0: 4.202312138728324};0.0001;poly;{'C': 10, 'class_weight': {0.0: 1.0, 1.0: 4.202312138728324}, 'gamma': 0.0001, 'kernel': 'poly'};34,0;34,0;0,0;0,0;0,0;13,6;16,65653025092561;5;0,0;0,0;145,0;145,0;145,0;87,0;71,03520254071216;12;146,0;146,0;0,0;0,0;0,0;58,4;71,5251004892688;1;0,0;0,0;35,0;35,0;35,0;21,0;17,146428199482248;8;0,7875705076551168;0,6627719580983079;0,7314285714285713;0,6819704433497538;0,7771428571428571;0,7281768675349214;0,04969644256406085;24;0,18888888888888888;0,18888888888888888;0,8055555555555556;0,8055555555555556;0,8055555555555556;0,5588888888888889;0,30210373494325865;12;0,4197370636170448;0,3129653758968126;0,5050637208365396;0,30507971258989053;0,4667354467397777;0,4019162639360131;0,08055815711054704;20;1,0;1,0;0,0;0,0;0,0;0,4;0,48989794855663565;5;0,18888888888888888;0,18888888888888888;0,0;0,0;0,0;0,07555555555555556;0,09253627917180894;11;0,3177570093457944;0,3177570093457944;0,0;0,0;0,0;0,12710280373831775;0,15566850701799634;11
14,995336866378784;0,02785204246651484;7,530761241912842;0,011559201071122615;10;{0.0: 1.0, 1.0: 4.202312138728324};0.0001;rbf;{'C': 10, 'class_weight': {0.0: 1.0, 1.0: 4.202312138728324}, 'gamma': 0.0001, 'kernel': 'rbf'};34,0;34,0;0,0;0,0;0,0;13,6;16,65653025092561;5;0,0;0,0;145,0;145,0;145,0;87,0;71,03520254071216;12;146,0;146,0;0,0;0,0;0,0;58,4;71,5251004892688;1;0,0;0,0;35,0;35,0;35,0;21,0;17,146428199482248;8;0,8027800161160354;0,7183722804190169;0,783448275862069;0,7142857142857142;0,8076847290640394;0,765314203149375;0,04082950890230978;14;0,18888888888888888;0,18888888888888888;0,8055555555555556;0,8055555555555556;0,8055555555555556;0,5588888888888889;0,30210373494325865;12;0,5401827190772591;0,40440453695863954;0,5994669182039462;0,3978441472520702;0,5848638100706307;0,5053524263125091;0,08733985740397239;13;1,0;1,0;0,0;0,0;0,0;0,4;0,48989794855663565;5;0,18888888888888888;0,18888888888888888;0,0;0,0;0,0;0,07555555555555556;0,09253627917180894;11;0,3177570093457944;0,3177570093457944;0,0;0,0;0,0;0,12710280373831775;0,15566850701799634;11
14,776819658279418;0,03259033835601594;7,367361068725586;0,015538140464860293;100;{0.0: 1.0, 1.0: 4.202312138728324};0.1;poly;{'C': 100, 'class_weight': {0.0: 1.0, 1.0: 4.202312138728324}, 'gamma': 0.1, 'kernel': 'poly'};34,0;34,0;0,0;0,0;0,0;13,6;16,65653025092561;5;0,0;0,0;145,0;145,0;145,0;87,0;71,03520254071216;12;146,0;146,0;0,0;0,0;0,0;58,4;71,5251004892688;1;0,0;0,0;35,0;35,0;35,0;21,0;17,146428199482248;8;0,7878726833199033;0,6625705076551168;0,7318226600985223;0,6819704433497538;0,7755665024630541;0,7279605593772701;0,04952101346062245;30;0,18888888888888888;0,18888888888888888;0,8055555555555556;0,8055555555555556;0,8055555555555556;0,5588888888888889;0,30210373494325865;12;0,4208380745821197;0,31235732873619315;0,504902959354229;0,3050951142967026;0,4652989770177104;0,40169849079739095;0,08046932761592088;25;1,0;1,0;0,0;0,0;0,0;0,4;0,48989794855663565;5;0,18888888888888888;0,18888888888888888;0,0;0,0;0,0;0,07555555555555556;0,09253627917180894;11;0,3177570093457944;0,3177570093457944;0,0;0,0;0,0;0,12710280373831775;0,15566850701799634;11
14,367534685134888;0,05052007561300065;6,272667932510376;0,07798745512305658;100;{0.0: 1.0, 1.0: 4.202312138728324};0.1;rbf;{'C': 100, 'class_weight': {0.0: 1.0, 1.0: 4.202312138728324}, 'gamma': 0.1, 'kernel': 'rbf'};7,0;8,0;10,0;12,0;9,0;9,2;1,7204650534085253;29;144,0;142,0;145,0;137,0;140,0;141,6;2,8705400188814645;2;2,0;4,0;0,0;8,0;5,0;3,8;2,7129319932501073;29;27,0;26,0;25,0;23,0;26,0;25,4;1,3564659966250536;3;0,8082191780821918;0,7203867848509266;0,7885714285714286;0,7440394088669952;0,7769458128078817;0,7676325226358849;0,03149998892723427;5;0,8388888888888889;0,8333333333333334;0,8611111111111112;0,8277777777777777;0,8277777777777777;0,8377777777777776;0,012372809695177862;1;0,5386720734247945;0,41254906241666045;0,6287610686249858;0,4714391788926228;0,5650068196416287;0,5232856406001385;0,07490408580588767;1;0,20588235294117646;0,23529411764705882;0,2857142857142857;0,34285714285714286;0,2571428571428571;0,2653781512605042;0,0467529072222626;29;0,7777777777777778;0,6666666666666666;1,0;0,6;0,6428571428571429;0,7374603174603175;0,14381197657251685;1;0,3255813953488372;0,3478260869565218;0,4444444444444445;0,43636363636363634;0,36734693877551017;0,38431250037778997;0,047735946198651326;8
14,781412410736085;0,03156804870032537;7,3740137100219725;0,02048132655625138;100;{0.0: 1.0, 1.0: 4.202312138728324};0.01;poly;{'C': 100, 'class_weight': {0.0: 1.0, 1.0: 4.202312138728324}, 'gamma': 0.01, 'kernel': 'poly'};34,0;34,0;0,0;0,0;0,0;13,6;16,65653025092561;5;0,0;0,0;145,0;145,0;145,0;87,0;71,03520254071216;12;146,0;146,0;0,0;0,0;0,0;58,4;71,5251004892688;1;0,0;0,0;35,0;35,0;35,0;21,0;17,146428199482248;8;0,7878726833199033;0,6631748589846898;0,7310344827586208;0,6823645320197045;0,7757635467980295;0,7280420207761896;0,04931569468834974;28;0,18888888888888888;0,18888888888888888;0,8055555555555556;0,8055555555555556;0,8055555555555556;0,5588888888888889;0,30210373494325865;12;0,42007326033697884;0,3131119906173231;0,5042133225248049;0,3053561657890933;0,46534884780702895;0,4016207174150458;0,08003458275751794;26;1,0;1,0;0,0;0,0;0,0;0,4;0,48989794855663565;5;0,18888888888888888;0,18888888888888888;0,0;0,0;0,0;0,07555555555555556;0,09253627917180894;11;0,3177570093457944;0,3177570093457944;0,0;0,0;0,0;0,12710280373831775;0,15566850701799634;11
14,300440359115601;0,1123809317560897;6,117554616928101;0,09869974433949104;100;{0.0: 1.0, 1.0: 4.202312138728324};0.01;rbf;{'C': 100, 'class_weight': {0.0: 1.0, 1.0: 4.202312138728324}, 'gamma': 0.01, 'kernel': 'rbf'};8,0;8,0;10,0;12,0;9,0;9,4;1,4966629547095764;26;144,0;141,0;144,0;135,0;140,0;140,8;3,3105890714493698;5;2,0;5,0;1,0;10,0;5,0;4,6;3,1368774282716245;26;26,0;26,0;25,0;23,0;26,0;25,2;1,1661903789690602;5;0,8074133763094279;0,7191780821917808;0,7860098522167488;0,7438423645320197;0,7765517241379309;0,7665990798775816;0,0313313233638106;9;0,8444444444444444;0,8277777777777777;0,8555555555555555;0,8166666666666667;0,8277777777777777;0,8344444444444443;0,013788526273323175;4;0,5367500477651708;0,414653618244453;0,6258599851178483;0,4573525823535636;0,5610668550329667;0,5191366177028005;0,07508957194362233;5;0,23529411764705882;0,23529411764705882;0,2857142857142857;0,34285714285714286;0,2571428571428571;0,2712605042016807;0,04030250699111762;26;0,8;0,6153846153846154;0,9090909090909091;0,5454545454545454;0,6428571428571429;0,7025574425574426;0,13266172971811374;4;0,3636363636363636;0,3404255319148936;0,43478260869565216;0,42105263157894735;0,36734693877551017;0,3854488149202734;0,03614418883442227;5
14,765782880783082;0,03106841397318474;7,365117406845092;0,016330909704638824;100;{0.0: 1.0, 1.0: 4.202312138728324};0.001;poly;{'C': 100, 'class_weight': {0.0: 1.0, 1.0: 4.202312138728324}, 'gamma': 0.001, 'kernel': 'poly'};34,0;34,0;0,0;0,0;0,0;13,6;16,65653025092561;5;0,0;0,0;145,0;145,0;145,0;87,0;71,03520254071216;12;146,0;146,0;0,0;0,0;0,0;58,4;71,5251004892688;1;0,0;0,0;35,0;35,0;35,0;21,0;17,146428199482248;8;0,7878726833199032;0,6633763094278807;0,7308374384236453;0,6813793103448276;0,7755665024630541;0,7278064487958622;0,04940624292140202;32;0,18888888888888888;0,18888888888888888;0,8055555555555556;0,8055555555555556;0,8055555555555556;0,5588888888888889;0,30210373494325865;12;0,4197899584988028;0,31325839810896194;0,5033519430265205;0,3047359888175511;0,4645646609483022;0,4011401898800277;0,07979310645474481;31;1,0;1,0;0,0;0,0;0,0;0,4;0,48989794855663565;5;0,18888888888888888;0,18888888888888888;0,0;0,0;0,0;0,07555555555555556;0,09253627917180894;11;0,3177570093457944;0,3177570093457944;0,0;0,0;0,0;0,12710280373831775;0,15566850701799634;11
14,04238028526306;0,10627796296054676;7,06218318939209;0,05051527227642314;100;{0.0: 1.0, 1.0: 4.202312138728324};0.001;rbf;{'C': 100, 'class_weight': {0.0: 1.0, 1.0: 4.202312138728324}, 'gamma': 0.001, 'kernel': 'rbf'};19,0;14,0;21,0;17,0;20,0;18,2;2,481934729198171;1;124,0;116,0;130,0;119,0;118,0;121,4;5,043808085167397;9;22,0;30,0;15,0;26,0;27,0;24,0;5,176871642217914;23;15,0;20,0;14,0;18,0;15,0;16,4;2,244994432064365;29;0,8084206285253828;0,7203867848509267;0,7942857142857143;0,7282758620689656;0,7952709359605912;0,7693279851383161;0,037160940791701465;2;0,7944444444444444;0,7222222222222222;0,8388888888888889;0,7555555555555555;0,7666666666666667;0,7755555555555556;0,03922080576605065;9;0,5468808440783227;0,4142693034195539;0,6255057875319248;0,41156477195140073;0,5909730007592218;0,5178387415480848;0,0892244826364619;9;0,5588235294117647;0,4117647058823529;0,6;0,4857142857142857;0,5714285714285714;0,5255462184873949;0,06824771174835889;1;0,4634146341463415;0,3181818181818182;0,5833333333333334;0,3953488372093023;0,425531914893617;0,43716210755288254;0,08728704670870584;8;0,5066666666666667;0,358974358974359;0,591549295774648;0,43589743589743585;0,4878048780487805;0,476178527072378;0,07711614135794492;2
14,780376386642455;0,03034625450085082;7,375178718566895;0,018747992457640535;100;{0.0: 1.0, 1.0: 4.202312138728324};0.0001;poly;{'C': 100, 'class_weight': {0.0: 1.0, 1.0: 4.202312138728324}, 'gamma': 0.0001, 'kernel': 'poly'};34,0;34,0;0,0;0,0;0,0;13,6;16,65653025092561;5;0,0;0,0;145,0;145,0;145,0;87,0;71,03520254071216;12;146,0;146,0;0,0;0,0;0,0;58,4;71,5251004892688;1;0,0;0,0;35,0;35,0;35,0;21,0;17,146428199482248;8;0,7878726833199032;0,6633763094278807;0,7314285714285713;0,6815763546798029;0,7773399014778324;0,7283187640667982;0,04972280636314387;20;0,18888888888888888;0,18888888888888888;0,8055555555555556;0,8055555555555556;0,8055555555555556;0,5588888888888889;0,30210373494325865;12;0,41995476750540933;0,31295064342814216;0,5048046025963664;0,30481364364185703;0,4665300530663389;0,4018107420476228;0,08053581118370359;24;1,0;1,0;0,0;0,0;0,0;0,4;0,48989794855663565;5;0,18888888888888888;0,18888888888888888;0,0;0,0;0,0;0,07555555555555556;0,09253627917180894;11;0,3177570093457944;0,3177570093457944;0,0;0,0;0,0;0,12710280373831775;0,15566850701799634;11
14,96711449623108;0,031185372938153568;7,528666830062866;0,012768411479379299;100;{0.0: 1.0, 1.0: 4.202312138728324};0.0001;rbf;{'C': 100, 'class_weight': {0.0: 1.0, 1.0: 4.202312138728324}, 'gamma': 0.0001, 'kernel': 'rbf'};34,0;34,0;0,0;0,0;0,0;13,6;16,65653025092561;5;0,0;0,0;145,0;145,0;145,0;87,0;71,03520254071216;12;146,0;146,0;0,0;0,0;0,0;58,4;71,5251004892688;1;0,0;0,0;35,0;35,0;35,0;21,0;17,146428199482248;8;0,8027800161160354;0,7187751813053989;0,7832512315270936;0,7142857142857142;0,8076847290640394;0,7653553744596563;0,04071968651421572;13;0,18888888888888888;0,18888888888888888;0,8055555555555556;0,8055555555555556;0,8055555555555556;0,5588888888888889;0,30210373494325865;12;0,5401827190772591;0,40469545663712436;0,5993706100177503;0,3978441472520702;0,5848638100706307;0,5053913486109669;0,08725190696424223;12;1,0;1,0;0,0;0,0;0,0;0,4;0,48989794855663565;5;0,18888888888888888;0,18888888888888888;0,0;0,0;0,0;0,07555555555555556;0,09253627917180894;11;0,3177570093457944;0,3177570093457944;0,0;0,0;0,0;0,12710280373831775;0,15566850701799634;11
14,772637701034546;0,0338554141520025;7,366710424423218;0,022288343918225952;1000;{0.0: 1.0, 1.0: 4.202312138728324};0.1;poly;{'C': 1000, 'class_weight': {0.0: 1.0, 1.0: 4.202312138728324}, 'gamma': 0.1, 'kernel': 'poly'};0,0;0,0;0,0;0,0;0,0;0,0;0,0;32;146,0;146,0;145,0;145,0;145,0;145,4;0,4898979485566356;1;0,0;0,0;0,0;0,0;0,0;0,0;0,0;32;34,0;34,0;35,0;35,0;35,0;34,6;0,4898979485566356;1;0,789484286865431;0,661966156325544;0,7286699507389163;0,682167487684729;0,7789162561576355;0,728240827554451;0,05066365405781582;21;0,8111111111111111;0,8111111111111111;0,8055555555555556;0,8055555555555556;0,8055555555555556;0,8077777777777777;0,002721655269759077;7;0,4231399673304513;0,31182547535342475;0,5045012912973502;0,3054237812299192;0,46799401976712207;0,4025769069956535;0,0809510597832224;17;0,0;0,0;0,0;0,0;0,0;0,0;0,0;32;0,0;0,0;0,0;0,0;0,0;0,0;0,0;32;0,0;0,0;0,0;0,0;0,0;0,0;0,0;32
14,383115434646607;0,046316095750209334;6,268822813034058;0,06991347375416548;1000;{0.0: 1.0, 1.0: 4.202312138728324};0.1;rbf;{'C': 1000, 'class_weight': {0.0: 1.0, 1.0: 4.202312138728324}, 'gamma': 0.1, 'kernel': 'rbf'};7,0;8,0;10,0;12,0;9,0;9,2;1,7204650534085253;29;144,0;142,0;145,0;137,0;140,0;141,6;2,8705400188814645;2;2,0;4,0;0,0;8,0;5,0;3,8;2,7129319932501073;29;27,0;26,0;25,0;23,0;26,0;25,4;1,3564659966250536;3;0,8082191780821918;0,7203867848509266;0,7885714285714286;0,7440394088669952;0,7769458128078817;0,7676325226358849;0,03149998892723427;5;0,8388888888888889;0,8333333333333334;0,8611111111111112;0,8277777777777777;0,8277777777777777;0,8377777777777776;0,012372809695177862;1;0,5386720734247945;0,41254906241666045;0,6287610686249858;0,4714391788926228;0,5650068196416287;0,5232856406001385;0,07490408580588767;1;0,20588235294117646;0,23529411764705882;0,2857142857142857;0,34285714285714286;0,2571428571428571;0,2653781512605042;0,0467529072222626;29;0,7777777777777778;0,6666666666666666;1,0;0,6;0,6428571428571429;0,7374603174603175;0,14381197657251685;1;0,3255813953488372;0,3478260869565218;0,4444444444444445;0,43636363636363634;0,36734693877551017;0,38431250037778997;0,047735946198651326;8
14,763520050048829;0,029082661321074982;7,367153263092041;0,018691542547403784;1000;{0.0: 1.0, 1.0: 4.202312138728324};0.01;poly;{'C': 1000, 'class_weight': {0.0: 1.0, 1.0: 4.202312138728324}, 'gamma': 0.01, 'kernel': 'poly'};34,0;34,0;0,0;0,0;0,0;13,6;16,65653025092561;5;0,0;0,0;145,0;145,0;145,0;87,0;71,03520254071216;12;146,0;146,0;0,0;0,0;0,0;58,4;71,5251004892688;1;0,0;0,0;35,0;35,0;35,0;21,0;17,146428199482248;8;0,7876712328767124;0,6633763094278807;0,7314285714285714;0,6823645320197045;0,7757635467980295;0,7281208385101797;0,04921892288339738;26;0,18888888888888888;0,18888888888888888;0,8055555555555556;0,8055555555555556;0,8055555555555556;0,5588888888888889;0,30210373494325865;12;0,42000050259820115;0,312669664688114;0,5047077931721682;0,3051987029748356;0,46533984927247185;0,4015833025411581;0,08029243688763125;27;1,0;1,0;0,0;0,0;0,0;0,4;0,48989794855663565;5;0,18888888888888888;0,18888888888888888;0,0;0,0;0,0;0,07555555555555556;0,09253627917180894;11;0,3177570093457944;0,3177570093457944;0,0;0,0;0,0;0,12710280373831775;0,15566850701799634;11
14,285152244567872;0,10680686989554157;6,114082527160645;0,09218370517468806;1000;{0.0: 1.0, 1.0: 4.202312138728324};0.01;rbf;{'C': 1000, 'class_weight': {0.0: 1.0, 1.0: 4.202312138728324}, 'gamma': 0.01, 'kernel': 'rbf'};8,0;8,0;10,0;12,0;9,0;9,4;1,4966629547095764;26;144,0;141,0;144,0;135,0;140,0;140,8;3,3105890714493698;5;2,0;5,0;1,0;10,0;5,0;4,6;3,1368774282716245;26;26,0;26,0;25,0;23,0;26,0;25,2;1,1661903789690602;5;0,8078162771958098;0,7191780821917808;0,7860098522167487;0,7446305418719212;0,7767487684729064;0,7668767043898332;0,03133571101133228;8;0,8444444444444444;0,8277777777777777;0,8555555555555555;0,8166666666666667;0,8277777777777777;0,8344444444444443;0,013788526273323175;4;0,5371472754298601;0,414653618244453;0,622809090101248;0,45833048060935855;0,5611990932625809;0,5188279115295001;0,07410158454677956;6;0,23529411764705882;0,23529411764705882;0,2857142857142857;0,34285714285714286;0,2571428571428571;0,2712605042016807;0,04030250699111762;26;0,8;0,6153846153846154;0,9090909090909091;0,5454545454545454;0,6428571428571429;0,7025574425574426;0,13266172971811374;4;0,3636363636363636;0,3404255319148936;0,43478260869565216;0,42105263157894735;0,36734693877551017;0,3854488149202734;0,03614418883442227;5
14,763090181350709;0,025886363441519622;7,363779830932617;0,018510807260905916;1000;{0.0: 1.0, 1.0: 4.202312138728324};0.001;poly;{'C': 1000, 'class_weight': {0.0: 1.0, 1.0: 4.202312138728324}, 'gamma': 0.001, 'kernel': 'poly'};34,0;34,0;0,0;0,0;0,0;13,6;16,65653025092561;5;0,0;0,0;145,0;145,0;145,0;87,0;71,03520254071216;12;146,0;146,0;0,0;0,0;0,0;58,4;71,5251004892688;1;0,0;0,0;35,0;35,0;35,0;21,0;17,146428199482248;8;0,7874697824335213;0,6645850120870266;0,7314285714285714;0,6815763546798029;0,7765517241379309;0,7283222889533707;0,049156436460483205;18;0,18888888888888888;0,18888888888888888;0,8055555555555556;0,8055555555555556;0,8055555555555556;0,5588888888888889;0,30210373494325865;12;0,42053383298609653;0,31487667185209367;0,5048154463184142;0,3049382515516046;0,46562619718638737;0,40215807997891934;0,07996767385417805;18;1,0;1,0;0,0;0,0;0,0;0,4;0,48989794855663565;5;0,18888888888888888;0,18888888888888888;0,0;0,0;0,0;0,07555555555555556;0,09253627917180894;11;0,3177570093457944;0,3177570093457944;0,0;0,0;0,0;0,12710280373831775;0,15566850701799634;11
14,270121479034424;0,09435378814653356;6,094478893280029;0,083966236877916;1000;{0.0: 1.0, 1.0: 4.202312138728324};0.001;rbf;{'C': 1000, 'class_weight': {0.0: 1.0, 1.0: 4.202312138728324}, 'gamma': 0.001, 'kernel': 'rbf'};8,0;8,0;10,0;12,0;9,0;9,4;1,4966629547095764;26;144,0;141,0;144,0;135,0;140,0;140,8;3,3105890714493698;5;2,0;5,0;1,0;10,0;5,0;4,6;3,1368774282716245;26;26,0;26,0;25,0;23,0;26,0;25,2;1,1661903789690602;5;0,8074133763094279;0,7185737308622079;0,7856157635467981;0,7444334975369458;0,7763546798029556;0,7664782096116671;0,031369688941230114;10;0,8444444444444444;0,8277777777777777;0,8555555555555555;0,8166666666666667;0,8277777777777777;0,8344444444444443;0,013788526273323175;4;0,5367341613584569;0,41407367129730266;0,6246141367437416;0,45966829581662694;0,5610919423874962;0,5192364415207249;0,07452527628467;4;0,23529411764705882;0,23529411764705882;0,2857142857142857;0,34285714285714286;0,2571428571428571;0,2712605042016807;0,04030250699111762;26;0,8;0,6153846153846154;0,9090909090909091;0,5454545454545454;0,6428571428571429;0,7025574425574426;0,13266172971811374;4;0,3636363636363636;0,3404255319148936;0,43478260869565216;0,42105263157894735;0,36734693877551017;0,3854488149202734;0,03614418883442227;5
14,759007120132447;0,023905276010288155;7,363480854034424;0,012939476477804624;1000;{0.0: 1.0, 1.0: 4.202312138728324};0.0001;poly;{'C': 1000, 'class_weight': {0.0: 1.0, 1.0: 4.202312138728324}, 'gamma': 0.0001, 'kernel': 'poly'};34,0;34,0;0,0;0,0;0,0;13,6;16,65653025092561;5;0,0;0,0;145,0;145,0;145,0;87,0;71,03520254071216;12;146,0;146,0;0,0;0,0;0,0;58,4;71,5251004892688;1;0,0;0,0;35,0;35,0;35,0;21,0;17,146428199482248;8;0,7878726833199032;0,6629734085414988;0,7314285714285713;0,6813793103448275;0,7773399014778324;0,7281987750225266;0,04986515402742736;22;0,18888888888888888;0,18888888888888888;0,8055555555555556;0,8055555555555556;0,8055555555555556;0,5588888888888889;0,30210373494325865;12;0,41995476750540933;0,313083650556417;0,5048011725739914;0,3047357995362799;0,4665300530663389;0,4018210886476873;0,0805243619675009;22;1,0;1,0;0,0;0,0;0,0;0,4;0,48989794855663565;5;0,18888888888888888;0,18888888888888888;0,0;0,0;0,0;0,07555555555555556;0,09253627917180894;11;0,3177570093457944;0,3177570093457944;0,0;0,0;0,0;0,12710280373831775;0,15566850701799634;11
14,05328984260559;0,10992204832159833;7,061725759506226;0,049370932115822046;1000;{0.0: 1.0, 1.0: 4.202312138728324};0.0001;rbf;{'C': 1000, 'class_weight': {0.0: 1.0, 1.0: 4.202312138728324}, 'gamma': 0.0001, 'kernel': 'rbf'};19,0;14,0;21,0;17,0;20,0;18,2;2,481934729198171;1;124,0;116,0;131,0;119,0;118,0;121,6;5,388877434122992;8;22,0;30,0;14,0;26,0;27,0;23,8;5,528109984434102;25;15,0;20,0;14,0;18,0;15,0;16,4;2,244994432064365;29;0,8084206285253828;0,7203867848509267;0,7944827586206897;0,7282758620689656;0,7952709359605912;0,7693673940053112;0,037187482361897964;1;0,7944444444444444;0,7222222222222222;0,8444444444444444;0,7555555555555555;0,7666666666666667;0,7766666666666666;0,041035967361376414;8;0,5468808440783227;0,4142693034195539;0,6257973327214291;0,41156477195140073;0,5909730007592218;0,5178970505859857;0,08929489249251485;8;0,5588235294117647;0,4117647058823529;0,6;0,4857142857142857;0,5714285714285714;0,5255462184873949;0,06824771174835889;1;0,4634146341463415;0,3181818181818182;0,6;0,3953488372093023;0,425531914893617;0,44049544088621584;0,09294056060788837;7;0,5066666666666667;0,358974358974359;0,6;0,43589743589743585;0,4878048780487805;0,4778686679174484;0,07967629044618603;1
