mean_fit_time;std_fit_time;mean_score_time;std_score_time;param_C;param_class_weight;param_gamma;param_kernel;params;split0_test_tp;split1_test_tp;split2_test_tp;split3_test_tp;split4_test_tp;mean_test_tp;std_test_tp;rank_test_tp;split0_test_tn;split1_test_tn;split2_test_tn;split3_test_tn;split4_test_tn;mean_test_tn;std_test_tn;rank_test_tn;split0_test_fp;split1_test_fp;split2_test_fp;split3_test_fp;split4_test_fp;mean_test_fp;std_test_fp;rank_test_fp;split0_test_fn;split1_test_fn;split2_test_fn;split3_test_fn;split4_test_fn;mean_test_fn;std_test_fn;rank_test_fn;split0_test_AUC;split1_test_AUC;split2_test_AUC;split3_test_AUC;split4_test_AUC;mean_test_AUC;std_test_AUC;rank_test_AUC;split0_test_Accuracy;split1_test_Accuracy;split2_test_Accuracy;split3_test_Accuracy;split4_test_Accuracy;mean_test_Accuracy;std_test_Accuracy;rank_test_Accuracy;split0_test_Average_Precision;split1_test_Average_Precision;split2_test_Average_Precision;split3_test_Average_Precision;split4_test_Average_Precision;mean_test_Average_Precision;std_test_Average_Precision;rank_test_Average_Precision;split0_test_Recall;split1_test_Recall;split2_test_Recall;split3_test_Recall;split4_test_Recall;mean_test_Recall;std_test_Recall;rank_test_Recall;split0_test_Precision;split1_test_Precision;split2_test_Precision;split3_test_Precision;split4_test_Precision;mean_test_Precision;std_test_Precision;rank_test_Precision;split0_test_F1;split1_test_F1;split2_test_F1;split3_test_F1;split4_test_F1;mean_test_F1;std_test_F1;rank_test_F1
30,722024059295656;1,5983058820163205;15,423021793365479;1,1870958150050623;1;{0.0: 1.0, 1.0: 4.202312138728324};0.1;poly;{'C': 1, 'class_weight': {0.0: 1.0, 1.0: 4.202312138728324}, 'gamma': 0.1, 'kernel': 'poly'};34,0;34,0;0,0;0,0;0,0;13,6;16,65653025092561;5;0,0;0,0;145,0;145,0;145,0;87,0;71,03520254071216;12;146,0;146,0;0,0;0,0;0,0;58,4;71,5251004892688;1;0,0;0,0;35,0;35,0;35,0;21,0;17,146428199482248;8;0,8049959709911362;0,6641821112006446;0,7635467980295566;0,6561576354679803;0,7828571428571429;0,7343479317092921;0,06202229858510608;29;0,18888888888888888;0,18888888888888888;0,8055555555555556;0,8055555555555556;0,8055555555555556;0,5588888888888889;0,30210373494325865;12;0,4323605731631215;0,308528196499676;0,45868419542885996;0,28645664812481186;0,4351418726998676;0,3842342971832674;0,07175289453333446;26;1,0;1,0;0,0;0,0;0,0;0,4;0,48989794855663565;5;0,18888888888888888;0,18888888888888888;0,0;0,0;0,0;0,07555555555555556;0,09253627917180894;11;0,3177570093457944;0,3177570093457944;0,0;0,0;0,0;0,12710280373831775;0,15566850701799634;11
31,57879505157471;3,0178107460744448;14,966861057281495;0,9397730529388295;1;{0.0: 1.0, 1.0: 4.202312138728324};0.1;rbf;{'C': 1, 'class_weight': {0.0: 1.0, 1.0: 4.202312138728324}, 'gamma': 0.1, 'kernel': 'rbf'};19,0;15,0;17,0;16,0;21,0;17,6;2,1540659228538015;1;116,0;118,0;125,0;116,0;117,0;118,4;3,3823069050575527;11;30,0;28,0;20,0;29,0;28,0;27,0;3,5777087639996634;22;15,0;19,0;18,0;19,0;14,0;17,0;2,0976176963403033;29;0,8049959709911362;0,7296535052377116;0,7724137931034483;0,6963546798029556;0,7844334975369458;0,7575702893344396;0,03928830493744554;10;0,75;0,7388888888888889;0,7888888888888889;0,7333333333333333;0,7666666666666667;0,7555555555555555;0,020184335693983278;11;0,5117242838488802;0,4015559536009897;0,5703741070437204;0,3343706557093863;0,543653501948638;0,47233570043032297;0,08977008924412946;10;0,5588235294117647;0,4411764705882353;0,4857142857142857;0,45714285714285713;0,6;0,5085714285714286;0,06098177533110789;1;0,3877551020408163;0,3488372093023256;0,4594594594594595;0,35555555555555557;0,42857142857142855;0,3960357509859171;0,042464231580414194;10;0,4578313253012048;0,38961038961038963;0,47222222222222227;0,4;0,5;0,4439327874267634;0,04246882743244002;4
29,72013392448425;1,1834559503602986;14,849069499969483;0,7021215900797907;1;{0.0: 1.0, 1.0: 4.202312138728324};0.01;poly;{'C': 1, 'class_weight': {0.0: 1.0, 1.0: 4.202312138728324}, 'gamma': 0.01, 'kernel': 'poly'};34,0;34,0;0,0;0,0;0,0;13,6;16,65653025092561;5;0,0;0,0;145,0;145,0;145,0;87,0;71,03520254071216;12;146,0;146,0;0,0;0,0;0,0;58,4;71,5251004892688;1;0,0;0,0;35,0;35,0;35,0;21,0;17,146428199482248;8;0,8039887187751813;0,6659951651893634;0,7623645320197044;0,6569458128078818;0,7826600985221674;0,7343908654628597;0,06104426928563397;25;0,18888888888888888;0,18888888888888888;0,8055555555555556;0,8055555555555556;0,8055555555555556;0,5588888888888889;0,30210373494325865;12;0,43197193775020293;0,310575282755325;0,4563012406166919;0,28718493482013174;0,4351444130236471;0,38423556179319973;0,07058129453503395;24;1,0;1,0;0,0;0,0;0,0;0,4;0,48989794855663565;5;0,18888888888888888;0,18888888888888888;0,0;0,0;0,0;0,07555555555555556;0,09253627917180894;11;0,3177570093457944;0,3177570093457944;0,0;0,0;0,0;0,12710280373831775;0,15566850701799634;11
31,213649654388426;1,4841434857026108;15,309825325012207;0,8952545394274046;1;{0.0: 1.0, 1.0: 4.202312138728324};0.01;rbf;{'C': 1, 'class_weight': {0.0: 1.0, 1.0: 4.202312138728324}, 'gamma': 0.01, 'kernel': 'rbf'};34,0;34,0;0,0;0,0;0,0;13,6;16,65653025092561;5;0,0;0,0;145,0;145,0;145,0;87,0;71,03520254071216;12;146,0;146,0;0,0;0,0;0,0;58,4;71,5251004892688;1;0,0;0,0;35,0;35,0;35,0;21,0;17,146428199482248;8;0,8035858178887993;0,726228847703465;0,769064039408867;0,6744827586206897;0,7846305418719212;0,7515984010987484;0,04623699580297353;12;0,18888888888888888;0,18888888888888888;0,8055555555555556;0,8055555555555556;0,8055555555555556;0,5588888888888889;0,30210373494325865;12;0,4747942177093399;0,3879451652608666;0,5706935173144093;0,31306213593284915;0,5561210775692961;0,4605232227573522;0,09848091338100057;11;1,0;1,0;0,0;0,0;0,0;0,4;0,48989794855663565;5;0,18888888888888888;0,18888888888888888;0,0;0,0;0,0;0,07555555555555556;0,09253627917180894;11;0,3177570093457944;0,3177570093457944;0,0;0,0;0,0;0,12710280373831775;0,15566850701799634;11
30,239023876190185;1,294652391316924;15,405873537063599;1,2078297291942786;1;{0.0: 1.0, 1.0: 4.202312138728324};0.001;poly;{'C': 1, 'class_weight': {0.0: 1.0, 1.0: 4.202312138728324}, 'gamma': 0.001, 'kernel': 'poly'};34,0;34,0;0,0;0,0;0,0;13,6;16,65653025092561;5;0,0;0,0;145,0;145,0;145,0;87,0;71,03520254071216;12;146,0;146,0;0,0;0,0;0,0;58,4;71,5251004892688;1;0,0;0,0;35,0;35,0;35,0;21,0;17,146428199482248;8;0,8037872683319903;0,6659951651893634;0,7635467980295565;0,6565517241379311;0,7828571428571429;0,7345476197091969;0,061240003360717554;22;0,18888888888888888;0,18888888888888888;0,8055555555555556;0,8055555555555556;0,8055555555555556;0,5588888888888889;0,30210373494325865;12;0,43183132290293635;0,31045201359619895;0,45702718438361034;0,28675076660604;0,434898974109039;0,3841920523195649;0,0708209657577398;29;1,0;1,0;0,0;0,0;0,0;0,4;0,48989794855663565;5;0,18888888888888888;0,18888888888888888;0,0;0,0;0,0;0,07555555555555556;0,09253627917180894;11;0,3177570093457944;0,3177570093457944;0,0;0,0;0,0;0,12710280373831775;0,15566850701799634;11
32,26687502861023;3,4801398048124987;15,698814201354981;1,0157019095340822;1;{0.0: 1.0, 1.0: 4.202312138728324};0.001;rbf;{'C': 1, 'class_weight': {0.0: 1.0, 1.0: 4.202312138728324}, 'gamma': 0.001, 'kernel': 'rbf'};34,0;34,0;0,0;0,0;0,0;13,6;16,65653025092561;5;0,0;0,0;145,0;145,0;145,0;87,0;71,03520254071216;12;146,0;146,0;0,0;0,0;0,0;58,4;71,5251004892688;1;0,0;0,0;35,0;35,0;35,0;21,0;17,146428199482248;8;0,8035858178887993;0,7270346494762289;0,7688669950738917;0,6744827586206897;0,7846305418719212;0,7517201525863062;0,04613489841300729;11;0,18888888888888888;0,18888888888888888;0,8055555555555556;0,8055555555555556;0,8055555555555556;0,5588888888888889;0,30210373494325865;12;0,47398441704488803;0,3891500352409179;0,5697804288170735;0,31306213593284915;0,5561210775692961;0,4604196189210049;0,09807766415164451;12;1,0;1,0;0,0;0,0;0,0;0,4;0,48989794855663565;5;0,18888888888888888;0,18888888888888888;0,0;0,0;0,0;0,07555555555555556;0,09253627917180894;11;0,3177570093457944;0,3177570093457944;0,0;0,0;0,0;0,12710280373831775;0,15566850701799634;11
29,670329284667968;0,6823452483110924;15,38017840385437;0,32445493790262964;1;{0.0: 1.0, 1.0: 4.202312138728324};0.0001;poly;{'C': 1, 'class_weight': {0.0: 1.0, 1.0: 4.202312138728324}, 'gamma': 0.0001, 'kernel': 'poly'};34,0;34,0;0,0;0,0;0,0;13,6;16,65653025092561;5;0,0;0,0;145,0;145,0;145,0;87,0;71,03520254071216;12;146,0;146,0;0,0;0,0;0,0;58,4;71,5251004892688;1;0,0;0,0;35,0;35,0;35,0;21,0;17,146428199482248;8;0,8038879935535859;0,6667002417405318;0,7628571428571429;0,6569458128078818;0,7827586206896552;0,7346299623297595;0,06092469186022619;19;0,18888888888888888;0,18888888888888888;0,8055555555555556;0,8055555555555556;0,8055555555555556;0,5588888888888889;0,30210373494325865;12;0,4316142046649202;0,310910410665036;0,45619722487140135;0,2869585141950032;0,43499594104408607;0,3841352590880893;0,07048288349559349;32;1,0;1,0;0,0;0,0;0,0;0,4;0,48989794855663565;5;0,18888888888888888;0,18888888888888888;0,0;0,0;0,0;0,07555555555555556;0,09253627917180894;11;0,3177570093457944;0,3177570093457944;0,0;0,0;0,0;0,12710280373831775;0,15566850701799634;11
31,51213674545288;2,491989217996342;15,746940755844117;1,0447982766294677;1;{0.0: 1.0, 1.0: 4.202312138728324};0.0001;rbf;{'C': 1, 'class_weight': {0.0: 1.0, 1.0: 4.202312138728324}, 'gamma': 0.0001, 'kernel': 'rbf'};34,0;34,0;0,0;0,0;0,0;13,6;16,65653025092561;5;0,0;0,0;145,0;145,0;145,0;87,0;71,03520254071216;12;146,0;146,0;0,0;0,0;0,0;58,4;71,5251004892688;1;0,0;0,0;35,0;35,0;35,0;21,0;17,146428199482248;8;0,8035858178887993;0,7268331990330379;0,768472906403941;0,6742857142857143;0,7844334975369458;0,7515222270296877;0,04616518548660875;13;0,18888888888888888;0,18888888888888888;0,8055555555555556;0,8055555555555556;0,8055555555555556;0,5588888888888889;0,30210373494325865;12;0,4668503579141855;0,3888938123303846;0,5694654805642313;0,31296699298056335;0,556046197494416;0,4588445682567562;0,09790057288633677;16;1,0;1,0;0,0;0,0;0,0;0,4;0,48989794855663565;5;0,18888888888888888;0,18888888888888888;0,0;0,0;0,0;0,07555555555555556;0,09253627917180894;11;0,3177570093457944;0,3177570093457944;0,0;0,0;0,0;0,12710280373831775;0,15566850701799634;11
29,588556480407714;0,8545329829297715;14,848775625228882;0,5934963966591248;10;{0.0: 1.0, 1.0: 4.202312138728324};0.1;poly;{'C': 10, 'class_weight': {0.0: 1.0, 1.0: 4.202312138728324}, 'gamma': 0.1, 'kernel': 'poly'};34,0;34,0;0,0;0,0;0,0;13,6;16,65653025092561;5;0,0;0,0;145,0;145,0;145,0;87,0;71,03520254071216;12;146,0;146,0;0,0;0,0;0,0;58,4;71,5251004892688;1;0,0;0,0;35,0;35,0;35,0;21,0;17,146428199482248;8;0,806809024979855;0,6627719580983078;0,7629556650246306;0,6567487684729064;0,7826600985221676;0,7343891030195735;0,06252650568123161;27;0,18888888888888888;0,18888888888888888;0,8055555555555556;0,8055555555555556;0,8055555555555556;0,5588888888888889;0,30210373494325865;12;0,4359284734783445;0,30749696949002014;0,4568326279438638;0,2870234917478528;0,43499772855572344;0,38445585824316086;0,07191389874724365;18;1,0;1,0;0,0;0,0;0,0;0,4;0,48989794855663565;5;0,18888888888888888;0,18888888888888888;0,0;0,0;0,0;0,07555555555555556;0,09253627917180894;11;0,3177570093457944;0,3177570093457944;0,0;0,0;0,0;0,12710280373831775;0,15566850701799634;11
29,037743616104127;0,7275154670636287;13,213457918167114;0,7354653676574558;10;{0.0: 1.0, 1.0: 4.202312138728324};0.1;rbf;{'C': 10, 'class_weight': {0.0: 1.0, 1.0: 4.202312138728324}, 'gamma': 0.1, 'kernel': 'rbf'};4,0;3,0;6,0;5,0;9,0;5,4;2,0591260281974;29;143,0;144,0;143,0;136,0;142,0;141,6;2,8705400188814645;2;3,0;2,0;2,0;9,0;3,0;3,8;2,638181191654584;29;30,0;31,0;29,0;30,0;26,0;29,2;1,7204650534085253;2;0,8362207896857372;0,7268331990330378;0,7869950738916256;0,718423645320197;0,7523152709359606;0,7641575957733117;0,04321943960138996;1;0,8166666666666667;0,8166666666666667;0,8277777777777777;0,7833333333333333;0,8388888888888889;0,8166666666666667;0,01859244503409057;4;0,5210625405968048;0,4226895400845848;0,5668943778955091;0,3914863215805855;0,5181833813688074;0,48406323230525833;0,06592624145526124;1;0,11764705882352941;0,08823529411764706;0,17142857142857143;0,14285714285714285;0,2571428571428571;0,15546218487394955;0,05779655750281854;29;0,5714285714285714;0,6;0,75;0,35714285714285715;0,75;0,6057142857142856;0,1446600518880209;2;0,1951219512195122;0,15384615384615385;0,2790697674418604;0,20408163265306123;0,3829787234042553;0,24301964571296858;0,08080894053930719;8
29,749628162384035;0,6932309872906917;14,664727258682252;0,5224748681454193;10;{0.0: 1.0, 1.0: 4.202312138728324};0.01;poly;{'C': 10, 'class_weight': {0.0: 1.0, 1.0: 4.202312138728324}, 'gamma': 0.01, 'kernel': 'poly'};34,0;34,0;0,0;0,0;0,0;13,6;16,65653025092561;5;0,0;0,0;145,0;145,0;145,0;87,0;71,03520254071216;12;146,0;146,0;0,0;0,0;0,0;58,4;71,5251004892688;1;0,0;0,0;35,0;35,0;35,0;21,0;17,146428199482248;8;0,8041901692183723;0,6651893634165995;0,7629556650246305;0,6561576354679802;0,7830541871921183;0,7343094040639402;0,06158776248830035;31;0,18888888888888888;0,18888888888888888;0,8055555555555556;0,8055555555555556;0,8055555555555556;0,5588888888888889;0,30210373494325865;12;0,4321499623879591;0,3094938095612514;0,457648391642423;0,2870391870595807;0,43523572471610933;0,3843134150734647;0,07116134410111043;22;1,0;1,0;0,0;0,0;0,0;0,4;0,48989794855663565;5;0,18888888888888888;0,18888888888888888;0,0;0,0;0,0;0,07555555555555556;0,09253627917180894;11;0,3177570093457944;0,3177570093457944;0,0;0,0;0,0;0,12710280373831775;0,15566850701799634;11
28,41961841583252;0,8159608356887895;13,897218942642212;0,1323599016266472;10;{0.0: 1.0, 1.0: 4.202312138728324};0.01;rbf;{'C': 10, 'class_weight': {0.0: 1.0, 1.0: 4.202312138728324}, 'gamma': 0.01, 'kernel': 'rbf'};19,0;15,0;17,0;16,0;21,0;17,6;2,1540659228538015;1;118,0;118,0;125,0;116,0;118,0;119,0;3,0983866769659336;8;28,0;28,0;20,0;29,0;27,0;26,4;3,261901286060018;23;15,0;19,0;18,0;19,0;14,0;17,0;2,0976176963403033;29;0,8078162771958098;0,7294520547945206;0,7722167487684729;0,6981280788177339;0,7832512315270936;0,7581728782207261;0,03929601710083368;9;0,7611111111111111;0,7388888888888889;0,7888888888888889;0,7333333333333333;0,7722222222222223;0,7588888888888888;0,02066786137526475;8;0,5193073732662017;0,3979315555704943;0,5697775727484614;0,3382537786464377;0,5436669431442516;0,4737874446751693;0,08976948638796892;7;0,5588235294117647;0,4411764705882353;0,4857142857142857;0,45714285714285713;0,6;0,5085714285714286;0,06098177533110789;1;0,40425531914893614;0,3488372093023256;0,4594594594594595;0,35555555555555557;0,4375;0,40112150869325536;0,0436953909365153;9;0,4691358024691358;0,38961038961038963;0,47222222222222227;0,4;0,5060240963855421;0,447398502137458;0,04497059385823809;3
29,50656213760376;0,8807011181412174;14,61178731918335;0,390564349689888;10;{0.0: 1.0, 1.0: 4.202312138728324};0.001;poly;{'C': 10, 'class_weight': {0.0: 1.0, 1.0: 4.202312138728324}, 'gamma': 0.001, 'kernel': 'poly'};34,0;34,0;0,0;0,0;0,0;13,6;16,65653025092561;5;0,0;0,0;145,0;145,0;145,0;87,0;71,03520254071216;12;146,0;146,0;0,0;0,0;0,0;58,4;71,5251004892688;1;0,0;0,0;35,0;35,0;35,0;21,0;17,146428199482248;8;0,8037872683319903;0,6661966156325544;0,7635467980295566;0,6565517241379311;0,7834482758620689;0,7347061363988203;0,06128857854998744;18;0,18888888888888888;0,18888888888888888;0,8055555555555556;0,8055555555555556;0,8055555555555556;0,5588888888888889;0,30210373494325865;12;0,43183132290293635;0,31051473360623416;0,45717134581843516;0,28675076660604;0,4353863699141165;0,3843309077695524;0,0709075321604021;21;1,0;1,0;0,0;0,0;0,0;0,4;0,48989794855663565;5;0,18888888888888888;0,18888888888888888;0,0;0,0;0,0;0,07555555555555556;0,09253627917180894;11;0,3177570093457944;0,3177570093457944;0,0;0,0;0,0;0,12710280373831775;0,15566850701799634;11
29,46654839515686;0,4750431517309156;16,070709896087646;0,8952050826951526;10;{0.0: 1.0, 1.0: 4.202312138728324};0.001;rbf;{'C': 10, 'class_weight': {0.0: 1.0, 1.0: 4.202312138728324}, 'gamma': 0.001, 'kernel': 'rbf'};34,0;34,0;0,0;0,0;0,0;13,6;16,65653025092561;5;0,0;0,0;145,0;145,0;145,0;87,0;71,03520254071216;12;146,0;146,0;0,0;0,0;0,0;58,4;71,5251004892688;1;0,0;0,0;35,0;35,0;35,0;21,0;17,146428199482248;8;0,8035858178887993;0,726027397260274;0,7686699507389162;0,6742857142857143;0,7846305418719212;0,751439884409125;0,046295256295933854;16;0,18888888888888888;0,18888888888888888;0,8055555555555556;0,8055555555555556;0,8055555555555556;0,5588888888888889;0,30210373494325865;12;0,4747942177093399;0,38782538391626653;0,5695161232798724;0,31296699298056335;0,5561210775692961;0,46024475909106766;0,09826443152424474;15;1,0;1,0;0,0;0,0;0,0;0,4;0,48989794855663565;5;0,18888888888888888;0,18888888888888888;0,0;0,0;0,0;0,07555555555555556;0,09253627917180894;11;0,3177570093457944;0,3177570093457944;0,0;0,0;0,0;0,12710280373831775;0,15566850701799634;11
29,383396291732787;1,2596231959593462;15,049230194091797;0,639877984773881;10;{0.0: 1.0, 1.0: 4.202312138728324};0.0001;poly;{'C': 10, 'class_weight': {0.0: 1.0, 1.0: 4.202312138728324}, 'gamma': 0.0001, 'kernel': 'poly'};34,0;34,0;0,0;0,0;0,0;13,6;16,65653025092561;5;0,0;0,0;145,0;145,0;145,0;87,0;71,03520254071216;12;146,0;146,0;0,0;0,0;0,0;58,4;71,5251004892688;1;0,0;0,0;35,0;35,0;35,0;21,0;17,146428199482248;8;0,8037872683319903;0,6659951651893634;0,763743842364532;0,655960591133005;0,7823645320197045;0,7343702798077192;0,061332223660298404;28;0,18888888888888888;0,18888888888888888;0,8055555555555556;0,8055555555555556;0,8055555555555556;0,5588888888888889;0,30210373494325865;12;0,4318290772884289;0,31045201359619895;0,4575812849776636;0,2864047758731348;0,43468520354571943;0,3841904710562291;0,07099967418517934;31;1,0;1,0;0,0;0,0;0,0;0,4;0,48989794855663565;5;0,18888888888888888;0,18888888888888888;0,0;0,0;0,0;0,07555555555555556;0,09253627917180894;11;0,3177570093457944;0,3177570093457944;0,0;0,0;0,0;0,12710280373831775;0,15566850701799634;11
29,9981737613678;0,8917708407118452;15,4740620136261;1,0274989934734486;10;{0.0: 1.0, 1.0: 4.202312138728324};0.0001;rbf;{'C': 10, 'class_weight': {0.0: 1.0, 1.0: 4.202312138728324}, 'gamma': 0.0001, 'kernel': 'rbf'};34,0;34,0;0,0;0,0;0,0;13,6;16,65653025092561;5;0,0;0,0;145,0;145,0;145,0;87,0;71,03520254071216;12;146,0;146,0;0,0;0,0;0,0;58,4;71,5251004892688;1;0,0;0,0;35,0;35,0;35,0;21,0;17,146428199482248;8;0,8035858178887993;0,726430298146656;0,7686699507389162;0,6742857142857143;0,7844334975369458;0,7514810557194063;0,04622313050517471;14;0,18888888888888888;0,18888888888888888;0,8055555555555556;0,8055555555555556;0,8055555555555556;0,5588888888888889;0,30210373494325865;12;0,4747942177093399;0,3885817835445437;0,5695161232798724;0,31296699298056335;0,556046197494416;0,460381063001747;0,09813874152323285;14;1,0;1,0;0,0;0,0;0,0;0,4;0,48989794855663565;5;0,18888888888888888;0,18888888888888888;0,0;0,0;0,0;0,07555555555555556;0,09253627917180894;11;0,3177570093457944;0,3177570093457944;0,0;0,0;0,0;0,12710280373831775;0,15566850701799634;11
29,975567960739134;1,0670026212288803;15,47956304550171;1,1899230940928123;100;{0.0: 1.0, 1.0: 4.202312138728324};0.1;poly;{'C': 100, 'class_weight': {0.0: 1.0, 1.0: 4.202312138728324}, 'gamma': 0.1, 'kernel': 'poly'};34,0;34,0;0,0;0,0;0,0;13,6;16,65653025092561;5;0,0;0,0;145,0;145,0;145,0;87,0;71,03520254071216;12;146,0;146,0;0,0;0,0;0,0;58,4;71,5251004892688;1;0,0;0,0;35,0;35,0;35,0;21,0;17,146428199482248;8;0,806809024979855;0,662369057211926;0,7629556650246306;0,6567487684729064;0,7826600985221676;0,7343085228422972;0,0626189406636086;32;0,18888888888888888;0,18888888888888888;0,8055555555555556;0,8055555555555556;0,8055555555555556;0,5588888888888889;0,30210373494325865;12;0,4359284734783445;0,3072175010592912;0,4568326279438638;0,2870234917478528;0,43499772855572344;0,38439996455701514;0,07197377551159596;20;1,0;1,0;0,0;0,0;0,0;0,4;0,48989794855663565;5;0,18888888888888888;0,18888888888888888;0,0;0,0;0,0;0,07555555555555556;0,09253627917180894;11;0,3177570093457944;0,3177570093457944;0,0;0,0;0,0;0,12710280373831775;0,15566850701799634;11
29,426395750045778;1,0905040504713521;13,067159700393677;0,4534923819840868;100;{0.0: 1.0, 1.0: 4.202312138728324};0.1;rbf;{'C': 100, 'class_weight': {0.0: 1.0, 1.0: 4.202312138728324}, 'gamma': 0.1, 'kernel': 'rbf'};4,0;3,0;6,0;5,0;9,0;5,4;2,0591260281974;29;143,0;144,0;143,0;136,0;142,0;141,6;2,8705400188814645;2;3,0;2,0;2,0;9,0;3,0;3,8;2,638181191654584;29;30,0;31,0;29,0;30,0;26,0;29,2;1,7204650534085253;2;0,8362207896857372;0,7268331990330378;0,7866009852216749;0,718423645320197;0,7523152709359606;0,7640787780393214;0,0431780593802951;2;0,8166666666666667;0,8166666666666667;0,8277777777777777;0,7833333333333333;0,8388888888888889;0,8166666666666667;0,01859244503409057;4;0,5210625405968048;0,4226895400845848;0,5665378499849276;0,3914863215805855;0,5181833813688074;0,483991926723142;0,0658367450915841;2;0,11764705882352941;0,08823529411764706;0,17142857142857143;0,14285714285714285;0,2571428571428571;0,15546218487394955;0,05779655750281854;29;0,5714285714285714;0,6;0,75;0,35714285714285715;0,75;0,6057142857142856;0,1446600518880209;2;0,1951219512195122;0,15384615384615385;0,2790697674418604;0,20408163265306123;0,3829787234042553;0,24301964571296858;0,08080894053930719;8
29,53456768989563;0,8005644814725505;14,759187269210816;0,6157357769451075;100;{0.0: 1.0, 1.0: 4.202312138728324};0.01;poly;{'C': 100, 'class_weight': {0.0: 1.0, 1.0: 4.202312138728324}, 'gamma': 0.01, 'kernel': 'poly'};34,0;34,0;0,0;0,0;0,0;13,6;16,65653025092561;5;0,0;0,0;145,0;145,0;145,0;87,0;71,03520254071216;12;146,0;146,0;0,0;0,0;0,0;58,4;71,5251004892688;1;0,0;0,0;35,0;35,0;35,0;21,0;17,146428199482248;8;0,8053988718775181;0,6657937147461724;0,762167487684729;0,6567487684729064;0,7828571428571428;0,7345931971276938;0,06147571452603452;20;0,18888888888888888;0,18888888888888888;0,8055555555555556;0,8055555555555556;0,8055555555555556;0,5588888888888889;0,30210373494325865;12;0,43393267923933976;0,3101695886430318;0,45596116591845437;0,2868830238813403;0,4351219747858785;0,38441368649360896;0,0709463447562545;19;1,0;1,0;0,0;0,0;0,0;0,4;0,48989794855663565;5;0,18888888888888888;0,18888888888888888;0,0;0,0;0,0;0,07555555555555556;0,09253627917180894;11;0,3177570093457944;0,3177570093457944;0,0;0,0;0,0;0,12710280373831775;0,15566850701799634;11
28,574052858352662;0,8688473994833469;12,729506254196167;0,9274993093910582;100;{0.0: 1.0, 1.0: 4.202312138728324};0.01;rbf;{'C': 100, 'class_weight': {0.0: 1.0, 1.0: 4.202312138728324}, 'gamma': 0.01, 'kernel': 'rbf'};5,0;3,0;6,0;6,0;11,0;6,2;2,638181191654584;27;142,0;143,0;143,0;135,0;142,0;141,0;3,03315017762062;5;4,0;3,0;2,0;10,0;3,0;4,4;2,8705400188814645;26;29,0;31,0;29,0;29,0;24,0;28,4;2,3323807579381204;5;0,8323932312651088;0,7226027397260274;0,7854187192118226;0,7178325123152709;0,7489655172413794;0,7614425439519218;0,04283666293608361;5;0,8166666666666667;0,8111111111111111;0,8277777777777777;0,7833333333333333;0,85;0,8177777777777777;0,021773242158072685;2;0,517298160175781;0,42050198592671484;0,5536005489028419;0,40013601820340616;0,5033913561777449;0,47898561387729777;0,05876814352380688;5;0,14705882352941177;0,08823529411764706;0,17142857142857143;0,17142857142857143;0,3142857142857143;0,1784873949579832;0,0743962825947778;27;0,5555555555555556;0,5;0,75;0,375;0,7857142857142857;0,5932539682539681;0,15450732011056972;5;0,23255813953488372;0,15;0,2790697674418604;0,23529411764705876;0,44897959183673464;0,2691803232921075;0,09911507131708243;6
29,08668246269226;0,7722407777224293;14,679053735733032;0,5116354984566707;100;{0.0: 1.0, 1.0: 4.202312138728324};0.001;poly;{'C': 100, 'class_weight': {0.0: 1.0, 1.0: 4.202312138728324}, 'gamma': 0.001, 'kernel': 'poly'};34,0;34,0;0,0;0,0;0,0;13,6;16,65653025092561;5;0,0;0,0;145,0;145,0;145,0;87,0;71,03520254071216;12;146,0;146,0;0,0;0,0;0,0;58,4;71,5251004892688;1;0,0;0,0;35,0;35,0;35,0;21,0;17,146428199482248;8;0,8037872683319903;0,6661966156325544;0,763152709359606;0,6563546798029557;0,7832512315270936;0,7345485009308399;0,06127057614386811;21;0,18888888888888888;0,18888888888888888;0,8055555555555556;0,8055555555555556;0,8055555555555556;0,5588888888888889;0,30210373494325865;12;0,43173854878464835;0,310501236958918;0,45674217049118176;0,28670989989363727;0,43540371592887667;0,3842191144114524;0,07082362051007803;28;1,0;1,0;0,0;0,0;0,0;0,4;0,48989794855663565;5;0,18888888888888888;0,18888888888888888;0,0;0,0;0,0;0,07555555555555556;0,09253627917180894;11;0,3177570093457944;0,3177570093457944;0,0;0,0;0,0;0,12710280373831775;0,15566850701799634;11
28,681365060806275;1,238079383716403;14,468829584121703;0,5053170198380985;100;{0.0: 1.0, 1.0: 4.202312138728324};0.001;rbf;{'C': 100, 'class_weight': {0.0: 1.0, 1.0: 4.202312138728324}, 'gamma': 0.001, 'kernel': 'rbf'};19,0;15,0;17,0;16,0;21,0;17,6;2,1540659228538015;1;118,0;118,0;126,0;115,0;118,0;119,0;3,687817782917155;8;28,0;28,0;19,0;30,0;27,0;26,4;3,8262252939417984;23;15,0;19,0;18,0;19,0;14,0;17,0;2,0976176963403033;29;0,8076148267526189;0,7294520547945206;0,772807881773399;0,6985221674876847;0,7826600985221674;0,7582114058660782;0,03909321969100876;8;0,7611111111111111;0,7388888888888889;0,7944444444444444;0,7277777777777777;0,7722222222222223;0,7588888888888888;0,02372684056006957;8;0,5177397712091361;0,39781779449660326;0,5702496291206792;0,3396527442737882;0,5423981807799085;0,47357162397602304;0,08911505580061456;9;0,5588235294117647;0,4411764705882353;0,4857142857142857;0,45714285714285713;0,6;0,5085714285714286;0,06098177533110789;1;0,40425531914893614;0,3488372093023256;0,4722222222222222;0,34782608695652173;0,4375;0,40212816752600117;0,04890298557945965;7;0,4691358024691358;0,38961038961038963;0,47887323943661975;0,3950617283950617;0,5060240963855421;0,4477410512593498;0,0468575431502787;1
29,56481785774231;0,8186114422496455;14,749195003509522;0,6594710770861981;100;{0.0: 1.0, 1.0: 4.202312138728324};0.0001;poly;{'C': 100, 'class_weight': {0.0: 1.0, 1.0: 4.202312138728324}, 'gamma': 0.0001, 'kernel': 'poly'};34,0;34,0;0,0;0,0;0,0;13,6;16,65653025092561;5;0,0;0,0;145,0;145,0;145,0;87,0;71,03520254071216;12;146,0;146,0;0,0;0,0;0,0;58,4;71,5251004892688;1;0,0;0,0;35,0;35,0;35,0;21,0;17,146428199482248;8;0,8039887187751813;0,6659951651893634;0,7631527093596059;0,6565517241379311;0,7828571428571429;0,734509092063845;0,06124854079068674;24;0,18888888888888888;0,18888888888888888;0,8055555555555556;0,8055555555555556;0,8055555555555556;0,5588888888888889;0,30210373494325865;12;0,43218010218871494;0,31045201359619895;0,45689937917475015;0,28675076660604;0,434898974109039;0,38423624713494864;0,07084177853859173;23;1,0;1,0;0,0;0,0;0,0;0,4;0,48989794855663565;5;0,18888888888888888;0,18888888888888888;0,0;0,0;0,0;0,07555555555555556;0,09253627917180894;11;0,3177570093457944;0,3177570093457944;0,0;0,0;0,0;0,12710280373831775;0,15566850701799634;11
29,101228952407837;0,2342041786505412;15,419622993469238;1,0277084201650897;100;{0.0: 1.0, 1.0: 4.202312138728324};0.0001;rbf;{'C': 100, 'class_weight': {0.0: 1.0, 1.0: 4.202312138728324}, 'gamma': 0.0001, 'kernel': 'rbf'};34,0;34,0;0,0;0,0;0,0;13,6;16,65653025092561;5;0,0;0,0;145,0;145,0;145,0;87,0;71,03520254071216;12;146,0;146,0;0,0;0,0;0,0;58,4;71,5251004892688;1;0,0;0,0;35,0;35,0;35,0;21,0;17,146428199482248;8;0,8035858178887993;0,726430298146656;0,768472906403941;0,6742857142857143;0,7846305418719212;0,7514810557194063;0,04623673616643654;14;0,18888888888888888;0,18888888888888888;0,8055555555555556;0,8055555555555556;0,8055555555555556;0,5588888888888889;0,30210373494325865;12;0,4747942177093399;0,3885817835445437;0,5694654805642313;0,31296699298056335;0,5561210775692961;0,4603859104735949;0,0981420847814637;13;1,0;1,0;0,0;0,0;0,0;0,4;0,48989794855663565;5;0,18888888888888888;0,18888888888888888;0,0;0,0;0,0;0,07555555555555556;0,09253627917180894;11;0,3177570093457944;0,3177570093457944;0,0;0,0;0,0;0,12710280373831775;0,15566850701799634;11
29,969713592529295;0,9697229251338062;14,695386219024659;0,6471985115397468;1000;{0.0: 1.0, 1.0: 4.202312138728324};0.1;poly;{'C': 1000, 'class_weight': {0.0: 1.0, 1.0: 4.202312138728324}, 'gamma': 0.1, 'kernel': 'poly'};0,0;0,0;0,0;0,0;0,0;0,0;0,0;32;146,0;146,0;145,0;145,0;145,0;145,4;0,4898979485566356;1;0,0;0,0;0,0;0,0;0,0;0,0;0,0;32;34,0;34,0;35,0;35,0;35,0;34,6;0,4898979485566356;1;0,8130539887187752;0,6647864625302176;0,7631527093596059;0,6585221674876848;0,7785221674876848;0,7356074991167937;0,06253980124039565;17;0,8111111111111111;0,8111111111111111;0,8055555555555556;0,8055555555555556;0,8055555555555556;0,8077777777777777;0,002721655269759077;7;0,44581401279742183;0,31176573977334887;0,46084866813934866;0,2900772551742021;0,4313318172714295;0,3879674986311502;0,07201049370514019;17;0,0;0,0;0,0;0,0;0,0;0,0;0,0;32;0,0;0,0;0,0;0,0;0,0;0,0;0,0;32;0,0;0,0;0,0;0,0;0,0;0,0;0,0;32
29,321027565002442;1,1089666041909731;12,910130882263184;0,46903538314016807;1000;{0.0: 1.0, 1.0: 4.202312138728324};0.1;rbf;{'C': 1000, 'class_weight': {0.0: 1.0, 1.0: 4.202312138728324}, 'gamma': 0.1, 'kernel': 'rbf'};4,0;3,0;6,0;5,0;9,0;5,4;2,0591260281974;29;143,0;144,0;143,0;136,0;142,0;141,6;2,8705400188814645;2;3,0;2,0;2,0;9,0;3,0;3,8;2,638181191654584;29;30,0;31,0;29,0;30,0;26,0;29,2;1,7204650534085253;2;0,8362207896857372;0,7268331990330378;0,7866009852216749;0,718423645320197;0,7523152709359606;0,7640787780393214;0,0431780593802951;2;0,8166666666666667;0,8166666666666667;0,8277777777777777;0,7833333333333333;0,8388888888888889;0,8166666666666667;0,01859244503409057;4;0,5210625405968048;0,4226895400845848;0,5665378499849276;0,3914863215805855;0,5181833813688074;0,483991926723142;0,0658367450915841;2;0,11764705882352941;0,08823529411764706;0,17142857142857143;0,14285714285714285;0,2571428571428571;0,15546218487394955;0,05779655750281854;29;0,5714285714285714;0,6;0,75;0,35714285714285715;0,75;0,6057142857142856;0,1446600518880209;2;0,1951219512195122;0,15384615384615385;0,2790697674418604;0,20408163265306123;0,3829787234042553;0,24301964571296858;0,08080894053930719;8
29,969707250595093;1,3153428641418015;15,461398696899414;1,480536722181277;1000;{0.0: 1.0, 1.0: 4.202312138728324};0.01;poly;{'C': 1000, 'class_weight': {0.0: 1.0, 1.0: 4.202312138728324}, 'gamma': 0.01, 'kernel': 'poly'};34,0;34,0;0,0;0,0;0,0;13,6;16,65653025092561;5;0,0;0,0;145,0;145,0;145,0;87,0;71,03520254071216;12;146,0;146,0;0,0;0,0;0,0;58,4;71,5251004892688;1;0,0;0,0;35,0;35,0;35,0;21,0;17,146428199482248;8;0,8049959709911362;0,6641821112006446;0,7635467980295566;0,6561576354679803;0,7828571428571429;0,7343479317092921;0,06202229858510608;29;0,18888888888888888;0,18888888888888888;0,8055555555555556;0,8055555555555556;0,8055555555555556;0,5588888888888889;0,30210373494325865;12;0,4323605731631215;0,308528196499676;0,45868419542885996;0,28645664812481186;0,4351418726998676;0,3842342971832674;0,07175289453333446;26;1,0;1,0;0,0;0,0;0,0;0,4;0,48989794855663565;5;0,18888888888888888;0,18888888888888888;0,0;0,0;0,0;0,07555555555555556;0,09253627917180894;11;0,3177570093457944;0,3177570093457944;0,0;0,0;0,0;0,12710280373831775;0,15566850701799634;11
30,676199388504028;2,962090567990373;12,820212411880494;0,5998807032581313;1000;{0.0: 1.0, 1.0: 4.202312138728324};0.01;rbf;{'C': 1000, 'class_weight': {0.0: 1.0, 1.0: 4.202312138728324}, 'gamma': 0.01, 'kernel': 'rbf'};5,0;3,0;6,0;6,0;11,0;6,2;2,638181191654584;27;142,0;143,0;143,0;135,0;142,0;141,0;3,03315017762062;5;4,0;3,0;2,0;10,0;3,0;4,4;2,8705400188814645;26;29,0;31,0;29,0;29,0;24,0;28,4;2,3323807579381204;5;0,8323932312651088;0,7226027397260274;0,7858128078817734;0,7178325123152709;0,7489655172413794;0,7615213616859121;0,04288104518371582;4;0,8166666666666667;0,8111111111111111;0,8277777777777777;0,7833333333333333;0,85;0,8177777777777777;0,021773242158072685;2;0,517298160175781;0,42050198592671484;0,55508315460335;0,40013601820340616;0,5033913561777449;0,47928213501739936;0,059146396370240835;4;0,14705882352941177;0,08823529411764706;0,17142857142857143;0,17142857142857143;0,3142857142857143;0,1784873949579832;0,0743962825947778;27;0,5555555555555556;0,5;0,75;0,375;0,7857142857142857;0,5932539682539681;0,15450732011056972;5;0,23255813953488372;0,15;0,2790697674418604;0,23529411764705876;0,44897959183673464;0,2691803232921075;0,09911507131708243;6
33,53857545852661;5,255367487507805;16,565136623382568;2,3201180175696674;1000;{0.0: 1.0, 1.0: 4.202312138728324};0.001;poly;{'C': 1000, 'class_weight': {0.0: 1.0, 1.0: 4.202312138728324}, 'gamma': 0.001, 'kernel': 'poly'};34,0;34,0;0,0;0,0;0,0;13,6;16,65653025092561;5;0,0;0,0;145,0;145,0;145,0;87,0;71,03520254071216;12;146,0;146,0;0,0;0,0;0,0;58,4;71,5251004892688;1;0,0;0,0;35,0;35,0;35,0;21,0;17,146428199482248;8;0,8039887187751813;0,6659951651893634;0,7623645320197044;0,6569458128078818;0,7826600985221674;0,7343908654628597;0,06104426928563397;25;0,18888888888888888;0,18888888888888888;0,8055555555555556;0,8055555555555556;0,8055555555555556;0,5588888888888889;0,30210373494325865;12;0,43197193775020293;0,310575282755325;0,4563012406166919;0,28718493482013174;0,4351444130236471;0,38423556179319973;0,07058129453503395;24;1,0;1,0;0,0;0,0;0,0;0,4;0,48989794855663565;5;0,18888888888888888;0,18888888888888888;0,0;0,0;0,0;0,07555555555555556;0,09253627917180894;11;0,3177570093457944;0,3177570093457944;0,0;0,0;0,0;0,12710280373831775;0,15566850701799634;11
29,103122186660766;1,013413329484896;12,88453392982483;0,7262236604741859;1000;{0.0: 1.0, 1.0: 4.202312138728324};0.001;rbf;{'C': 1000, 'class_weight': {0.0: 1.0, 1.0: 4.202312138728324}, 'gamma': 0.001, 'kernel': 'rbf'};5,0;4,0;6,0;6,0;11,0;6,4;2,4166091947189146;26;142,0;143,0;143,0;135,0;142,0;141,0;3,03315017762062;5;4,0;3,0;2,0;10,0;3,0;4,4;2,8705400188814645;26;29,0;30,0;29,0;29,0;24,0;28,2;2,1354156504062622;7;0,8321917808219178;0,7209911361804996;0,7856157635467981;0,7174384236453202;0,7489655172413795;0,761040524287183;0,04316791900103145;6;0,8166666666666667;0,8166666666666667;0,8277777777777777;0,7833333333333333;0,85;0,8188888888888888;0,02154524381073923;1;0,5167556104912782;0,41723970216866846;0,5534620489736742;0,39981302243831845;0,5032202444794613;0,4780981257102802;0,059392841354777084;6;0,14705882352941177;0,11764705882352941;0,17142857142857143;0,17142857142857143;0,3142857142857143;0,18436974789915966;0,06790747931391133;26;0,5555555555555556;0,5714285714285714;0,75;0,375;0,7857142857142857;0,6075396825396825;0,14840633209331663;1;0,23255813953488372;0,1951219512195122;0,2790697674418604;0,23529411764705876;0,44897959183673464;0,27820471353600995;0,08943431302202995;5
30,731801652908324;1,4347933743282186;15,885959434509278;1,0184230028514691;1000;{0.0: 1.0, 1.0: 4.202312138728324};0.0001;poly;{'C': 1000, 'class_weight': {0.0: 1.0, 1.0: 4.202312138728324}, 'gamma': 0.0001, 'kernel': 'poly'};34,0;34,0;0,0;0,0;0,0;13,6;16,65653025092561;5;0,0;0,0;145,0;145,0;145,0;87,0;71,03520254071216;12;146,0;146,0;0,0;0,0;0,0;58,4;71,5251004892688;1;0,0;0,0;35,0;35,0;35,0;21,0;17,146428199482248;8;0,8037872683319903;0,6659951651893634;0,7635467980295565;0,6565517241379311;0,7828571428571429;0,7345476197091969;0,061240003360717554;22;0,18888888888888888;0,18888888888888888;0,8055555555555556;0,8055555555555556;0,8055555555555556;0,5588888888888889;0,30210373494325865;12;0,43183132290293635;0,31045201359619895;0,45702718438361034;0,28675076660604;0,434898974109039;0,3841920523195649;0,0708209657577398;29;1,0;1,0;0,0;0,0;0,0;0,4;0,48989794855663565;5;0,18888888888888888;0,18888888888888888;0,0;0,0;0,0;0,07555555555555556;0,09253627917180894;11;0,3177570093457944;0,3177570093457944;0,0;0,0;0,0;0,12710280373831775;0,15566850701799634;11
27,92224254608154;0,7826858369538955;13,906394290924073;0,2399773429170306;1000;{0.0: 1.0, 1.0: 4.202312138728324};0.0001;rbf;{'C': 1000, 'class_weight': {0.0: 1.0, 1.0: 4.202312138728324}, 'gamma': 0.0001, 'kernel': 'rbf'};19,0;15,0;17,0;16,0;21,0;17,6;2,1540659228538015;1;118,0;118,0;126,0;115,0;118,0;119,0;3,687817782917155;8;28,0;28,0;19,0;30,0;27,0;26,4;3,8262252939417984;23;15,0;19,0;18,0;19,0;14,0;17,0;2,0976176963403033;29;0,8076148267526189;0,7298549556809025;0,772807881773399;0,6985221674876847;0,7826600985221674;0,7582919860433546;0,03903422768870873;7;0,7611111111111111;0,7388888888888889;0,7944444444444444;0,7277777777777777;0,7722222222222223;0,7588888888888888;0,02372684056006957;8;0,5177397712091361;0,39807323085103163;0,5702496291206792;0,3396527442737882;0,5423981807799085;0,4736227112469088;0,08907167617805982;8;0,5588235294117647;0,4411764705882353;0,4857142857142857;0,45714285714285713;0,6;0,5085714285714286;0,06098177533110789;1;0,40425531914893614;0,3488372093023256;0,4722222222222222;0,34782608695652173;0,4375;0,40212816752600117;0,04890298557945965;7;0,4691358024691358;0,38961038961038963;0,47887323943661975;0,3950617283950617;0,5060240963855421;0,4477410512593498;0,0468575431502787;1
