mean_fit_time;std_fit_time;mean_score_time;std_score_time;param_C;param_class_weight;param_gamma;param_kernel;params;split0_test_tp;split1_test_tp;split2_test_tp;split3_test_tp;split4_test_tp;mean_test_tp;std_test_tp;rank_test_tp;split0_test_tn;split1_test_tn;split2_test_tn;split3_test_tn;split4_test_tn;mean_test_tn;std_test_tn;rank_test_tn;split0_test_fp;split1_test_fp;split2_test_fp;split3_test_fp;split4_test_fp;mean_test_fp;std_test_fp;rank_test_fp;split0_test_fn;split1_test_fn;split2_test_fn;split3_test_fn;split4_test_fn;mean_test_fn;std_test_fn;rank_test_fn;split0_test_AUC;split1_test_AUC;split2_test_AUC;split3_test_AUC;split4_test_AUC;mean_test_AUC;std_test_AUC;rank_test_AUC;split0_test_Accuracy;split1_test_Accuracy;split2_test_Accuracy;split3_test_Accuracy;split4_test_Accuracy;mean_test_Accuracy;std_test_Accuracy;rank_test_Accuracy;split0_test_Average_Precision;split1_test_Average_Precision;split2_test_Average_Precision;split3_test_Average_Precision;split4_test_Average_Precision;mean_test_Average_Precision;std_test_Average_Precision;rank_test_Average_Precision;split0_test_Recall;split1_test_Recall;split2_test_Recall;split3_test_Recall;split4_test_Recall;mean_test_Recall;std_test_Recall;rank_test_Recall;split0_test_Precision;split1_test_Precision;split2_test_Precision;split3_test_Precision;split4_test_Precision;mean_test_Precision;std_test_Precision;rank_test_Precision;split0_test_F1;split1_test_F1;split2_test_F1;split3_test_F1;split4_test_F1;mean_test_F1;std_test_F1;rank_test_F1
9,452160167694093;0,0033997032734883483;4,7035728931427006;0,004205620392365004;1;{0.0: 1.0, 1.0: 4.202312138728324};0.1;poly;{'C': 1, 'class_weight': {0.0: 1.0, 1.0: 4.202312138728324}, 'gamma': 0.1, 'kernel': 'poly'};34,0;34,0;0,0;0,0;0,0;13,6;16,65653025092561;5;0,0;0,0;145,0;145,0;145,0;87,0;71,03520254071216;12;146,0;146,0;0,0;0,0;0,0;58,4;71,5251004892688;1;0,0;0,0;35,0;35,0;35,0;21,0;17,146428199482248;8;0,7645044319097503;0,6752618855761483;0,7633497536945812;0,6888669950738916;0,7789162561576355;0,7341798644824014;0,043119348183517286;18;0,18888888888888888;0,18888888888888888;0,8055555555555556;0,8055555555555556;0,8055555555555556;0,5588888888888889;0,30210373494325865;12;0,41898687090609676;0,31701621956371595;0,5275995502450589;0,3180976512302135;0,4481024622918464;0,40596055084738636;0,08046447052652289;18;1,0;1,0;0,0;0,0;0,0;0,4;0,48989794855663565;5;0,18888888888888888;0,18888888888888888;0,0;0,0;0,0;0,07555555555555556;0,09253627917180894;12;0,3177570093457944;0,3177570093457944;0,0;0,0;0,0;0,12710280373831775;0,15566850701799634;11
8,918408060073853;0,08465906729117738;4,436672973632812;0,04824960664990903;1;{0.0: 1.0, 1.0: 4.202312138728324};0.1;rbf;{'C': 1, 'class_weight': {0.0: 1.0, 1.0: 4.202312138728324}, 'gamma': 0.1, 'kernel': 'rbf'};20,0;17,0;22,0;18,0;24,0;20,2;2,5612496949731396;1;119,0;113,0;120,0;111,0;110,0;114,6;4,127953488110059;8;27,0;33,0;25,0;34,0;35,0;30,8;4,019950248448356;22;14,0;17,0;13,0;17,0;11,0;14,4;2,33238075793812;29;0,798952457695407;0,741539081385979;0,7460098522167488;0,7119211822660099;0,7643349753694582;0,7525515097867205;0,028659338462178937;4;0,7722222222222223;0,7222222222222222;0,7888888888888889;0,7166666666666667;0,7444444444444445;0,7488888888888889;0,027977062915587048;8;0,4906602390409776;0,39044002694207575;0,522642690949902;0,41777237468050976;0,5474370775309851;0,47379048182889;0,06029970938774415;1;0,5882352941176471;0,5;0,6285714285714286;0,5142857142857142;0,6857142857142857;0,5833613445378152;0,06966259844160919;1;0,425531914893617;0,34;0,46808510638297873;0,34615384615384615;0,4067796610169492;0,3973101056894782;0,04857294477347643;8;0,49382716049382713;0,40476190476190477;0,5365853658536586;0,41379310344827586;0,5106382978723405;0,47192116648600135;0,053008651490038035;1
9,444897890090942;0,005404386070374552;4,700020503997803;0,0074552719016463785;1;{0.0: 1.0, 1.0: 4.202312138728324};0.01;poly;{'C': 1, 'class_weight': {0.0: 1.0, 1.0: 4.202312138728324}, 'gamma': 0.01, 'kernel': 'poly'};34,0;34,0;0,0;0,0;0,0;13,6;16,65653025092561;5;0,0;0,0;145,0;145,0;145,0;87,0;71,03520254071216;12;146,0;146,0;0,0;0,0;0,0;58,4;71,5251004892688;1;0,0;0,0;35,0;35,0;35,0;21,0;17,146428199482248;8;0,7630942788074133;0,6768734891216761;0,7627586206896553;0,6886699507389162;0,77871921182266;0,7340231102360641;0,042406584795438046;21;0,18888888888888888;0,18888888888888888;0,8055555555555556;0,8055555555555556;0,8055555555555556;0,5588888888888889;0,30210373494325865;12;0,4175992073706825;0,3176473932524897;0,5261016472390496;0,31802963601495793;0,44786612085227895;0,40544880094589175;0,07981875508066207;22;1,0;1,0;0,0;0,0;0,0;0,4;0,48989794855663565;5;0,18888888888888888;0,18888888888888888;0,0;0,0;0,0;0,07555555555555556;0,09253627917180894;12;0,3177570093457944;0,3177570093457944;0,0;0,0;0,0;0,12710280373831775;0,15566850701799634;11
9,638454294204712;0,013025858663631559;4,816798257827759;0,012633098712563148;1;{0.0: 1.0, 1.0: 4.202312138728324};0.01;rbf;{'C': 1, 'class_weight': {0.0: 1.0, 1.0: 4.202312138728324}, 'gamma': 0.01, 'kernel': 'rbf'};34,0;34,0;0,0;0,0;0,0;13,6;16,65653025092561;5;0,0;0,0;145,0;145,0;145,0;87,0;71,03520254071216;12;146,0;146,0;0,0;0,0;0,0;58,4;71,5251004892688;1;0,0;0,0;35,0;35,0;35,0;21,0;17,146428199482248;8;0,7554391619661563;0,7538275584206284;0,7361576354679803;0,6985221674876847;0,7921182266009852;0,747212949988687;0,030400393930160988;11;0,18888888888888888;0,18888888888888888;0,8055555555555556;0,8055555555555556;0,8055555555555556;0,5588888888888889;0,30210373494325865;12;0,43927607425445225;0,40118051760062806;0,4499622164884972;0,4040997403517913;0,559637300120482;0,4508311697631703;0,05765771946641303;13;1,0;1,0;0,0;0,0;0,0;0,4;0,48989794855663565;5;0,18888888888888888;0,18888888888888888;0,0;0,0;0,0;0,07555555555555556;0,09253627917180894;12;0,3177570093457944;0,3177570093457944;0,0;0,0;0,0;0,12710280373831775;0,15566850701799634;11
9,448543691635132;0,004621013810693377;4,703152656555176;0,008498246501568685;1;{0.0: 1.0, 1.0: 4.202312138728324};0.001;poly;{'C': 1, 'class_weight': {0.0: 1.0, 1.0: 4.202312138728324}, 'gamma': 0.001, 'kernel': 'poly'};34,0;34,0;0,0;0,0;0,0;13,6;16,65653025092561;5;0,0;0,0;145,0;145,0;145,0;87,0;71,03520254071216;12;146,0;146,0;0,0;0,0;0,0;58,4;71,5251004892688;1;0,0;0,0;35,0;35,0;35,0;21,0;17,146428199482248;8;0,7628928283642223;0,6756647864625303;0,762758620689655;0,6894581280788177;0,7779310344827586;0,7337410796155968;0,0423755351103891;25;0,18888888888888888;0,18888888888888888;0,8055555555555556;0,8055555555555556;0,8055555555555556;0,5588888888888889;0,30210373494325865;12;0,4174875715738888;0,31625983193914775;0,5260827939377536;0,3187878357501852;0,4442079143597582;0,4045651895121467;0,07957468488323562;29;1,0;1,0;0,0;0,0;0,0;0,4;0,48989794855663565;5;0,18888888888888888;0,18888888888888888;0,0;0,0;0,0;0,07555555555555556;0,09253627917180894;12;0,3177570093457944;0,3177570093457944;0,0;0,0;0,0;0,12710280373831775;0,15566850701799634;11
9,6391526222229;0,020152387826595713;4,82288966178894;0,01043554535629323;1;{0.0: 1.0, 1.0: 4.202312138728324};0.001;rbf;{'C': 1, 'class_weight': {0.0: 1.0, 1.0: 4.202312138728324}, 'gamma': 0.001, 'kernel': 'rbf'};34,0;34,0;0,0;0,0;0,0;13,6;16,65653025092561;5;0,0;0,0;145,0;145,0;145,0;87,0;71,03520254071216;12;146,0;146,0;0,0;0,0;0,0;58,4;71,5251004892688;1;0,0;0,0;35,0;35,0;35,0;21,0;17,146428199482248;8;0,7550362610797744;0,7548348106365834;0,7357635467980296;0,6985221674876847;0,7917241379310345;0,7471761847866213;0,030339469948516225;12;0,18888888888888888;0,18888888888888888;0,8055555555555556;0,8055555555555556;0,8055555555555556;0,5588888888888889;0,30210373494325865;12;0,43896035299181557;0,40287059026970073;0,44980147124360115;0,4040997403517913;0,5595123954633252;0,4510489100640468;0,057336536371732943;12;1,0;1,0;0,0;0,0;0,0;0,4;0,48989794855663565;5;0,18888888888888888;0,18888888888888888;0,0;0,0;0,0;0,07555555555555556;0,09253627917180894;12;0,3177570093457944;0,3177570093457944;0,0;0,0;0,0;0,12710280373831775;0,15566850701799634;11
9,450762271881104;0,006188746070189891;4,699433708190918;0,009314054555680797;1;{0.0: 1.0, 1.0: 4.202312138728324};0.0001;poly;{'C': 1, 'class_weight': {0.0: 1.0, 1.0: 4.202312138728324}, 'gamma': 0.0001, 'kernel': 'poly'};34,0;34,0;0,0;0,0;0,0;13,6;16,65653025092561;5;0,0;0,0;145,0;145,0;145,0;87,0;71,03520254071216;12;146,0;146,0;0,0;0,0;0,0;58,4;71,5251004892688;1;0,0;0,0;35,0;35,0;35,0;21,0;17,146428199482248;8;0,7628928283642223;0,6753626107977437;0,7617733990147781;0,6879802955665024;0,77871921182266;0,7333456691131814;0,04280182471300624;29;0,18888888888888888;0,18888888888888888;0,8055555555555556;0,8055555555555556;0,8055555555555556;0,5588888888888889;0,30210373494325865;12;0,41720395660793774;0,315367603117168;0,5258758452620739;0,3175025720926442;0,44786612085227895;0,4047632195864205;0,08035782099854948;28;1,0;1,0;0,0;0,0;0,0;0,4;0,48989794855663565;5;0,18888888888888888;0,18888888888888888;0,0;0,0;0,0;0,07555555555555556;0,09253627917180894;12;0,3177570093457944;0,3177570093457944;0,0;0,0;0,0;0,12710280373831775;0,15566850701799634;11
9,630577516555785;0,010303994260222238;4,820491170883178;0,013540168395733056;1;{0.0: 1.0, 1.0: 4.202312138728324};0.0001;rbf;{'C': 1, 'class_weight': {0.0: 1.0, 1.0: 4.202312138728324}, 'gamma': 0.0001, 'kernel': 'rbf'};34,0;34,0;0,0;0,0;0,0;13,6;16,65653025092561;5;0,0;0,0;145,0;145,0;145,0;87,0;71,03520254071216;12;146,0;146,0;0,0;0,0;0,0;58,4;71,5251004892688;1;0,0;0,0;35,0;35,0;35,0;21,0;17,146428199482248;8;0,7542304593070105;0,7540290088638195;0,7357635467980296;0,698128078817734;0,7917241379310345;0,7467750463435257;0,030385537878866227;16;0,18888888888888888;0,18888888888888888;0,8055555555555556;0,8055555555555556;0,8055555555555556;0,5588888888888889;0,30210373494325865;12;0,4378464486239939;0,4134546633623274;0,44980147124360115;0,40384172410181307;0,5595123954633252;0,4528913405590121;0,05579437569781579;11;1,0;1,0;0,0;0,0;0,0;0,4;0,48989794855663565;5;0,18888888888888888;0,18888888888888888;0,0;0,0;0,0;0,07555555555555556;0,09253627917180894;12;0,3177570093457944;0,3177570093457944;0,0;0,0;0,0;0,12710280373831775;0,15566850701799634;11
9,449452877044678;0,004443127590910131;4,696002578735351;0,005532498743120859;10;{0.0: 1.0, 1.0: 4.202312138728324};0.1;poly;{'C': 10, 'class_weight': {0.0: 1.0, 1.0: 4.202312138728324}, 'gamma': 0.1, 'kernel': 'poly'};34,0;34,0;0,0;0,0;0,0;13,6;16,65653025092561;5;0,0;0,0;145,0;145,0;145,0;87,0;71,03520254071216;12;146,0;146,0;0,0;0,0;0,0;58,4;71,5251004892688;1;0,0;0,0;35,0;35,0;35,0;21,0;17,146428199482248;8;0,7632957292506044;0,6738517324738115;0,7617733990147784;0,6886699507389162;0,77871921182266;0,7332620046601541;0,04312612576618679;31;0,18888888888888888;0,18888888888888888;0,8055555555555556;0,8055555555555556;0,8055555555555556;0,5588888888888889;0,30210373494325865;12;0,41939766073342216;0,3167316235597645;0,5260049862718671;0,31802963601495793;0,44786612085227895;0,4056060054864581;0,08005038155063271;20;1,0;1,0;0,0;0,0;0,0;0,4;0,48989794855663565;5;0,18888888888888888;0,18888888888888888;0,0;0,0;0,0;0,07555555555555556;0,09253627917180894;12;0,3177570093457944;0,3177570093457944;0,0;0,0;0,0;0,12710280373831775;0,15566850701799634;11
9,02483549118042;0,061213247430614896;3,707631778717041;0,05435129940356774;10;{0.0: 1.0, 1.0: 4.202312138728324};0.1;rbf;{'C': 10, 'class_weight': {0.0: 1.0, 1.0: 4.202312138728324}, 'gamma': 0.1, 'kernel': 'rbf'};6,0;7,0;11,0;9,0;9,0;8,4;1,7435595774162693;27;139,0;138,0;140,0;135,0;141,0;138,6;2,0591260281974;4;7,0;8,0;5,0;10,0;4,0;6,8;2,1354156504062622;29;28,0;27,0;24,0;26,0;26,0;26,2;1,3266499161421599;5;0,8102336825141015;0,7155519742143432;0,777142857142857;0,7257142857142858;0,7395073891625616;0,7536300377496298;0,03517243981827529;1;0,8055555555555556;0,8055555555555556;0,8388888888888889;0,8;0,8333333333333334;0,8166666666666667;0,016101529717988262;3;0,4926842269428276;0,3722311724462683;0,5143381523481209;0,4254388834340793;0,5337829721672225;0,46769508146770367;0,060110875800896205;5;0,17647058823529413;0,20588235294117646;0,3142857142857143;0,2571428571428571;0,2571428571428571;0,24218487394957983;0,047502113801602186;28;0,46153846153846156;0,4666666666666667;0,6875;0,47368421052631576;0,6923076923076923;0,5563394062078272;0,10913365831769777;3;0,25531914893617025;0,28571428571428564;0,43137254901960786;0,3333333333333333;0,37499999999999994;0,3361478634006794;0,06270881547165547;6
9,44996919631958;0,007226687634689927;4,699666166305542;0,006740995664132642;10;{0.0: 1.0, 1.0: 4.202312138728324};0.01;poly;{'C': 10, 'class_weight': {0.0: 1.0, 1.0: 4.202312138728324}, 'gamma': 0.01, 'kernel': 'poly'};34,0;34,0;0,0;0,0;0,0;13,6;16,65653025092561;5;0,0;0,0;145,0;145,0;145,0;87,0;71,03520254071216;12;146,0;146,0;0,0;0,0;0,0;58,4;71,5251004892688;1;0,0;0,0;35,0;35,0;35,0;21,0;17,146428199482248;8;0,7628928283642225;0,6772763900080581;0,7615763546798029;0,6874876847290641;0,77871921182266;0,7335904939207615;0,042367873915472434;27;0,18888888888888888;0,18888888888888888;0,8055555555555556;0,8055555555555556;0,8055555555555556;0,5588888888888889;0,30210373494325865;12;0,4175508742117884;0,31784984483796563;0,5258190008680982;0,3171240926325016;0,44786612085227895;0,4052419866805265;0,07988653401397246;25;1,0;1,0;0,0;0,0;0,0;0,4;0,48989794855663565;5;0,18888888888888888;0,18888888888888888;0,0;0,0;0,0;0,07555555555555556;0,09253627917180894;12;0,3177570093457944;0,3177570093457944;0,0;0,0;0,0;0,12710280373831775;0,15566850701799634;11
8,76474380493164;0,034290618084314155;4,366097688674927;0,03147452070973831;10;{0.0: 1.0, 1.0: 4.202312138728324};0.01;rbf;{'C': 10, 'class_weight': {0.0: 1.0, 1.0: 4.202312138728324}, 'gamma': 0.01, 'kernel': 'rbf'};21,0;16,0;22,0;18,0;24,0;20,2;2,85657137141714;1;117,0;114,0;121,0;111,0;110,0;114,6;4,029888335921977;8;29,0;32,0;24,0;34,0;35,0;30,8;3,9698866482558417;22;13,0;18,0;13,0;17,0;11,0;14,4;2,65329983228432;29;0,7999597099113618;0,7383158742949234;0,7438423645320197;0,7121182266009852;0,7598029556650246;0,750807826200863;0,02897678954696921;5;0,7666666666666667;0,7222222222222222;0,7944444444444444;0,7166666666666667;0,7444444444444445;0,7488888888888889;0,02884612219054926;8;0,49454526917423935;0,3913954513136141;0,5064095676350986;0,40298355925699353;0,5475554094689168;0,46857785136977254;0,06099628556317352;2;0,6176470588235294;0,47058823529411764;0,6285714285714286;0,5142857142857142;0,6857142857142857;0,5833613445378152;0,07897443046087506;1;0,42;0,3333333333333333;0,4782608695652174;0,34615384615384615;0,4067796610169492;0,39690554201386924;0,052662513965698945;9;0,5;0,39024390243902435;0,54320987654321;0,41379310344827586;0,5106382978723405;0,4715770360605701;0,05902367725224091;2
9,448551273345947;0,004090676481295731;4,703353643417358;0,00829867312676813;10;{0.0: 1.0, 1.0: 4.202312138728324};0.001;poly;{'C': 10, 'class_weight': {0.0: 1.0, 1.0: 4.202312138728324}, 'gamma': 0.001, 'kernel': 'poly'};34,0;34,0;0,0;0,0;0,0;13,6;16,65653025092561;5;0,0;0,0;145,0;145,0;145,0;87,0;71,03520254071216;12;146,0;146,0;0,0;0,0;0,0;58,4;71,5251004892688;1;0,0;0,0;35,0;35,0;35,0;21,0;17,146428199482248;8;0,7628928283642223;0,6756647864625303;0,762758620689655;0,6888669950738917;0,77871921182266;0,7337804884825918;0,04266475371190308;24;0,18888888888888888;0,18888888888888888;0,8055555555555556;0,8055555555555556;0,8055555555555556;0,5588888888888889;0,30210373494325865;12;0,4174875715738888;0,31625983193914775;0,5260827939377536;0,31807265040005384;0,44786612085227895;0,40515379374062466;0,08010686615000485;26;1,0;1,0;0,0;0,0;0,0;0,4;0,48989794855663565;5;0,18888888888888888;0,18888888888888888;0,0;0,0;0,0;0,07555555555555556;0,09253627917180894;12;0,3177570093457944;0,3177570093457944;0,0;0,0;0,0;0,12710280373831775;0,15566850701799634;11
9,64076337814331;0,01204360324987944;4,827661228179932;0,013201811791892054;10;{0.0: 1.0, 1.0: 4.202312138728324};0.001;rbf;{'C': 10, 'class_weight': {0.0: 1.0, 1.0: 4.202312138728324}, 'gamma': 0.001, 'kernel': 'rbf'};34,0;34,0;0,0;0,0;0,0;13,6;16,65653025092561;5;0,0;0,0;145,0;145,0;145,0;87,0;71,03520254071216;12;146,0;146,0;0,0;0,0;0,0;58,4;71,5251004892688;1;0,0;0,0;35,0;35,0;35,0;21,0;17,146428199482248;8;0,7550362610797744;0,7538275584206284;0,7357635467980296;0,6985221674876847;0,7919211822660098;0,7470141432104254;0,030349519890125534;15;0,18888888888888888;0,18888888888888888;0,8055555555555556;0,8055555555555556;0,8055555555555556;0,5588888888888889;0,30210373494325865;12;0,43896035299181557;0,40118051760062806;0,44909157963145385;0,4040997403517913;0,5595602881836317;0,45057849575186404;0,05764487521255063;14;1,0;1,0;0,0;0,0;0,0;0,4;0,48989794855663565;5;0,18888888888888888;0,18888888888888888;0,0;0,0;0,0;0,07555555555555556;0,09253627917180894;12;0,3177570093457944;0,3177570093457944;0,0;0,0;0,0;0,12710280373831775;0,15566850701799634;11
9,44100489616394;0,0053698588152648555;4,70339527130127;0,006737446686387526;10;{0.0: 1.0, 1.0: 4.202312138728324};0.0001;poly;{'C': 10, 'class_weight': {0.0: 1.0, 1.0: 4.202312138728324}, 'gamma': 0.0001, 'kernel': 'poly'};34,0;34,0;0,0;0,0;0,0;13,6;16,65653025092561;5;0,0;0,0;145,0;145,0;145,0;87,0;71,03520254071216;12;146,0;146,0;0,0;0,0;0,0;58,4;71,5251004892688;1;0,0;0,0;35,0;35,0;35,0;21,0;17,146428199482248;8;0,7630942788074133;0,6755640612409348;0,7611822660098522;0,6884729064039409;0,7787192118226601;0,7334065448569602;0,04259313276977253;28;0,18888888888888888;0,18888888888888888;0,8055555555555556;0,8055555555555556;0,8055555555555556;0,5588888888888889;0,30210373494325865;12;0,41703434685370466;0,3161386925831437;0,5259624477021552;0,31797452251586866;0,4481357895974054;0,40504915985045553;0,08013387449287988;27;1,0;1,0;0,0;0,0;0,0;0,4;0,48989794855663565;5;0,18888888888888888;0,18888888888888888;0,0;0,0;0,0;0,07555555555555556;0,09253627917180894;12;0,3177570093457944;0,3177570093457944;0,0;0,0;0,0;0,12710280373831775;0,15566850701799634;11
9,633869457244874;0,013851761428717082;4,8259711265563965;0,017812776296792267;10;{0.0: 1.0, 1.0: 4.202312138728324};0.0001;rbf;{'C': 10, 'class_weight': {0.0: 1.0, 1.0: 4.202312138728324}, 'gamma': 0.0001, 'kernel': 'rbf'};34,0;34,0;0,0;0,0;0,0;13,6;16,65653025092561;5;0,0;0,0;145,0;145,0;145,0;87,0;71,03520254071216;12;146,0;146,0;0,0;0,0;0,0;58,4;71,5251004892688;1;0,0;0,0;35,0;35,0;35,0;21,0;17,146428199482248;8;0,7550362610797744;0,7540290088638195;0,7357635467980296;0,6985221674876847;0,7917241379310345;0,7470150244320685;0,03030047513953706;13;0,18888888888888888;0,18888888888888888;0,8055555555555556;0,8055555555555556;0,8055555555555556;0,5588888888888889;0,30210373494325865;12;0,43896035299181557;0,39926371327572696;0,44980147124360115;0,4040997403517913;0,5595123954633252;0,45032753466525205;0,05795747788060497;16;1,0;1,0;0,0;0,0;0,0;0,4;0,48989794855663565;5;0,18888888888888888;0,18888888888888888;0,0;0,0;0,0;0,07555555555555556;0,09253627917180894;12;0,3177570093457944;0,3177570093457944;0,0;0,0;0,0;0,12710280373831775;0,15566850701799634;11
9,444096422195434;0,0026763392906693365;4,701569414138794;0,007436987705191573;100;{0.0: 1.0, 1.0: 4.202312138728324};0.1;poly;{'C': 100, 'class_weight': {0.0: 1.0, 1.0: 4.202312138728324}, 'gamma': 0.1, 'kernel': 'poly'};34,0;34,0;0,0;0,0;0,0;13,6;16,65653025092561;5;0,0;0,0;145,0;145,0;145,0;87,0;71,03520254071216;12;146,0;146,0;0,0;0,0;0,0;58,4;71,5251004892688;1;0,0;0,0;35,0;35,0;35,0;21,0;17,146428199482248;8;0,7632957292506044;0,6734488315874295;0,7613793103448275;0,6886699507389162;0,77871921182266;0,7331026067488875;0,043185425972721576;32;0,18888888888888888;0,18888888888888888;0,8055555555555556;0,8055555555555556;0,8055555555555556;0,5588888888888889;0,30210373494325865;12;0,41939766073342216;0,31631956760801694;0,5258382796091222;0,31802963601495793;0,44786612085227895;0,4054902529635596;0,08009188264922694;21;1,0;1,0;0,0;0,0;0,0;0,4;0,48989794855663565;5;0,18888888888888888;0,18888888888888888;0,0;0,0;0,0;0,07555555555555556;0,09253627917180894;12;0,3177570093457944;0,3177570093457944;0,0;0,0;0,0;0,12710280373831775;0,15566850701799634;11
9,03799147605896;0,05491238731731302;3,7032844543457033;0,04364464318086319;100;{0.0: 1.0, 1.0: 4.202312138728324};0.1;rbf;{'C': 100, 'class_weight': {0.0: 1.0, 1.0: 4.202312138728324}, 'gamma': 0.1, 'kernel': 'rbf'};6,0;7,0;10,0;8,0;9,0;8,0;1,4142135623730951;30;139,0;139,0;140,0;136,0;142,0;139,2;1,9390719429665317;2;7,0;7,0;5,0;9,0;3,0;6,2;2,039607805437114;30;28,0;27,0;25,0;27,0;26,0;26,6;1,019803902718557;2;0,8084206285253828;0,7139403706688154;0,777536945812808;0,7278817733990147;0,7351724137931035;0,7525904264398248;0,035063005588498765;2;0,8055555555555556;0,8111111111111111;0,8333333333333334;0,8;0,8388888888888889;0,8177777777777777;0,015475986974649018;1;0,4872722781367559;0,3688874464616074;0,5125539512253621;0,44099766009026165;0,5237875859508111;0,46669978437295967;0,056590991945201556;6;0,17647058823529413;0,20588235294117646;0,2857142857142857;0,22857142857142856;0,2571428571428571;0,23075630252100837;0,038176055319716136;30;0,46153846153846156;0,5;0,6666666666666666;0,47058823529411764;0,75;0,5697586726998491;0,11686809448048423;1;0,25531914893617025;0,2916666666666667;0,4;0,3076923076923077;0,3829787234042553;0,3275313693398799;0,055173510932368997;9
9,443722105026245;0,003353717746275136;4,702951097488404;0,005450674704510638;100;{0.0: 1.0, 1.0: 4.202312138728324};0.01;poly;{'C': 100, 'class_weight': {0.0: 1.0, 1.0: 4.202312138728324}, 'gamma': 0.01, 'kernel': 'poly'};34,0;34,0;0,0;0,0;0,0;13,6;16,65653025092561;5;0,0;0,0;145,0;145,0;145,0;87,0;71,03520254071216;12;146,0;146,0;0,0;0,0;0,0;58,4;71,5251004892688;1;0,0;0,0;35,0;35,0;35,0;21,0;17,146428199482248;8;0,7639000805801772;0,6766720386784851;0,7629556650246305;0,6878817733990148;0,7789162561576355;0,7340651627679886;0,042809532036936104;20;0,18888888888888888;0,18888888888888888;0,8055555555555556;0,8055555555555556;0,8055555555555556;0,5588888888888889;0,30210373494325865;12;0,41769764275654986;0,31730692753580475;0,5265255543351136;0,31752229549965905;0,4479175028776375;0,405393984600953;0,08014143767716207;24;1,0;1,0;0,0;0,0;0,0;0,4;0,48989794855663565;5;0,18888888888888888;0,18888888888888888;0,0;0,0;0,0;0,07555555555555556;0,09253627917180894;12;0,3177570093457944;0,3177570093457944;0,0;0,0;0,0;0,12710280373831775;0,15566850701799634;11
8,903739786148071;0,05560238957992125;3,607232904434204;0,04987663235013389;100;{0.0: 1.0, 1.0: 4.202312138728324};0.01;rbf;{'C': 100, 'class_weight': {0.0: 1.0, 1.0: 4.202312138728324}, 'gamma': 0.01, 'kernel': 'rbf'};7,0;7,0;10,0;9,0;9,0;8,4;1,2;27;138,0;138,0;140,0;134,0;140,0;138,0;2,1908902300206643;6;8,0;8,0;5,0;11,0;5,0;7,4;2,244994432064365;26;27,0;27,0;25,0;26,0;26,0;26,2;0,7483314773547882;5;0,8078162771958098;0,709709911361805;0,7759605911330049;0,7239408866995073;0,7341871921182266;0,7503229717016707;0,03624518221431581;8;0,8055555555555556;0,8055555555555556;0,8333333333333334;0,7944444444444444;0,8277777777777777;0,8133333333333332;0,014740554623801784;6;0,4869148559445956;0,36508853464744395;0,502803591251173;0,4188914042561537;0,5235692128156201;0,45945351978299726;0,05881192295576803;8;0,20588235294117646;0,20588235294117646;0,2857142857142857;0,2571428571428571;0,2571428571428571;0,24235294117647058;0,031552803492461354;27;0,4666666666666667;0,4666666666666667;0,6666666666666666;0,45;0,6428571428571429;0,5385714285714286;0,09536182439016362;6;0,28571428571428564;0,28571428571428564;0,4;0,32727272727272727;0,36734693877551017;0,33320964749536175;0,04510692108047294;7
9,443490076065064;0,006735988108969168;4,702144432067871;0,0066606651510682895;100;{0.0: 1.0, 1.0: 4.202312138728324};0.001;poly;{'C': 100, 'class_weight': {0.0: 1.0, 1.0: 4.202312138728324}, 'gamma': 0.001, 'kernel': 'poly'};34,0;34,0;0,0;0,0;0,0;13,6;16,65653025092561;5;0,0;0,0;145,0;145,0;145,0;87,0;71,03520254071216;12;146,0;146,0;0,0;0,0;0,0;58,4;71,5251004892688;1;0,0;0,0;35,0;35,0;35,0;21,0;17,146428199482248;8;0,7624899274778404;0,6748589846897664;0,762758620689655;0,6886699507389162;0,7779310344827587;0,7333417036157874;0,042705916006285656;30;0,18888888888888888;0,18888888888888888;0,8055555555555556;0,8055555555555556;0,8055555555555556;0,5588888888888889;0,30210373494325865;12;0,4161171988892943;0,3151654729660406;0,5260827939377536;0,3180126755790058;0,4437890141811239;0,4038334311106436;0,07989925551909788;32;1,0;1,0;0,0;0,0;0,0;0,4;0,48989794855663565;5;0,18888888888888888;0,18888888888888888;0,0;0,0;0,0;0,07555555555555556;0,09253627917180894;12;0,3177570093457944;0,3177570093457944;0,0;0,0;0,0;0,12710280373831775;0,15566850701799634;11
8,743171501159669;0,055788116963505927;4,3662402629852295;0,03265779730081569;100;{0.0: 1.0, 1.0: 4.202312138728324};0.001;rbf;{'C': 100, 'class_weight': {0.0: 1.0, 1.0: 4.202312138728324}, 'gamma': 0.001, 'kernel': 'rbf'};21,0;16,0;22,0;18,0;24,0;20,2;2,85657137141714;1;117,0;114,0;121,0;111,0;110,0;114,6;4,029888335921977;8;29,0;32,0;24,0;34,0;35,0;30,8;3,9698866482558417;22;13,0;18,0;13,0;17,0;11,0;14,4;2,65329983228432;29;0,7999597099113618;0,7383158742949234;0,7442364532019705;0,7121182266009853;0,7592118226600986;0,750768417333868;0,028922807561483327;6;0,7666666666666667;0,7222222222222222;0,7944444444444444;0,7166666666666667;0,7444444444444445;0,7488888888888889;0,02884612219054926;8;0,4945298117636362;0,39127242362333714;0,5069366746322488;0,40300311864497396;0,546062711575246;0,4683609480478884;0,060703783452370104;4;0,6176470588235294;0,47058823529411764;0,6285714285714286;0,5142857142857142;0,6857142857142857;0,5833613445378152;0,07897443046087506;1;0,42;0,3333333333333333;0,4782608695652174;0,34615384615384615;0,4067796610169492;0,39690554201386924;0,052662513965698945;9;0,5;0,39024390243902435;0,54320987654321;0,41379310344827586;0,5106382978723405;0,4715770360605701;0,05902367725224091;2
9,446373414993285;0,0025340842272197194;4,703972387313843;0,007956361388404555;100;{0.0: 1.0, 1.0: 4.202312138728324};0.0001;poly;{'C': 100, 'class_weight': {0.0: 1.0, 1.0: 4.202312138728324}, 'gamma': 0.0001, 'kernel': 'poly'};34,0;34,0;0,0;0,0;0,0;13,6;16,65653025092561;5;0,0;0,0;145,0;145,0;145,0;87,0;71,03520254071216;12;146,0;146,0;0,0;0,0;0,0;58,4;71,5251004892688;1;0,0;0,0;35,0;35,0;35,0;21,0;17,146428199482248;8;0,7630942788074133;0,6756647864625303;0,762758620689655;0,6894581280788177;0,7779310344827586;0,733781369704235;0,04240331970658512;23;0,18888888888888888;0,18888888888888888;0,8055555555555556;0,8055555555555556;0,8055555555555556;0,5588888888888889;0,30210373494325865;12;0,41703434685370466;0,31625983193914775;0,5260827939377536;0,3187878357501852;0,4442079143597582;0,4044745445681099;0,0795601699538918;31;1,0;1,0;0,0;0,0;0,0;0,4;0,48989794855663565;5;0,18888888888888888;0,18888888888888888;0,0;0,0;0,0;0,07555555555555556;0,09253627917180894;12;0,3177570093457944;0,3177570093457944;0,0;0,0;0,0;0,12710280373831775;0,15566850701799634;11
9,630965375900269;0,013448079373392563;4,8231710433959964;0,01415680239273489;100;{0.0: 1.0, 1.0: 4.202312138728324};0.0001;rbf;{'C': 100, 'class_weight': {0.0: 1.0, 1.0: 4.202312138728324}, 'gamma': 0.0001, 'kernel': 'rbf'};34,0;34,0;0,0;0,0;0,0;13,6;16,65653025092561;5;0,0;0,0;145,0;145,0;145,0;87,0;71,03520254071216;12;146,0;146,0;0,0;0,0;0,0;58,4;71,5251004892688;1;0,0;0,0;35,0;35,0;35,0;21,0;17,146428199482248;8;0,7550362610797744;0,7540290088638195;0,7355665024630542;0,6985221674876847;0,7919211822660098;0,7470150244320685;0,03037342607042436;13;0,18888888888888888;0,18888888888888888;0,8055555555555556;0,8055555555555556;0,8055555555555556;0,5588888888888889;0,30210373494325865;12;0,43896035299181557;0,4012823978175978;0,4489744035744282;0,4040997403517913;0,5595602881836317;0,4505754365838529;0,057628058032245855;15;1,0;1,0;0,0;0,0;0,0;0,4;0,48989794855663565;5;0,18888888888888888;0,18888888888888888;0,0;0,0;0,0;0,07555555555555556;0,09253627917180894;12;0,3177570093457944;0,3177570093457944;0,0;0,0;0,0;0,12710280373831775;0,15566850701799634;11
9,44468297958374;0,00333517482099288;4,698265123367309;0,007949242463817171;1000;{0.0: 1.0, 1.0: 4.202312138728324};0.1;poly;{'C': 1000, 'class_weight': {0.0: 1.0, 1.0: 4.202312138728324}, 'gamma': 0.1, 'kernel': 'poly'};0,0;1,0;0,0;0,0;1,0;0,4;0,48989794855663565;32;146,0;146,0;145,0;145,0;145,0;145,4;0,4898979485566356;1;0,0;0,0;0,0;0,0;0,0;0,0;0,0;32;34,0;33,0;35,0;35,0;34,0;34,2;0,7483314773547882;1;0,7848509266720386;0,6823126510878323;0,7645320197044335;0,6876847290640394;0,7680788177339902;0,7374918288524668;0,04343986373033065;17;0,8111111111111111;0,8166666666666667;0,8055555555555556;0,8055555555555556;0,8111111111111111;0,8099999999999999;0,004157397096415476;7;0,4260153828078195;0,3215996854030042;0,5229492201117578;0,32481148377228486;0,4375590108225098;0,40658695658347527;0,07587749663630533;17;0,0;0,029411764705882353;0,0;0,0;0,02857142857142857;0,011596638655462186;0,014205409485119624;32;0,0;1,0;0,0;0,0;1,0;0,4;0,48989794855663565;7;0,0;0,05714285714285715;0,0;0,0;0,05555555555555556;0,022539682539682544;0,027609923689090668;32
9,034170389175415;0,05438081587900813;3,7010162353515623;0,038373030108486424;1000;{0.0: 1.0, 1.0: 4.202312138728324};0.1;rbf;{'C': 1000, 'class_weight': {0.0: 1.0, 1.0: 4.202312138728324}, 'gamma': 0.1, 'kernel': 'rbf'};6,0;7,0;10,0;8,0;9,0;8,0;1,4142135623730951;30;139,0;139,0;140,0;136,0;142,0;139,2;1,9390719429665317;2;7,0;7,0;5,0;9,0;3,0;6,2;2,039607805437114;30;28,0;27,0;25,0;27,0;26,0;26,6;1,019803902718557;2;0,8084206285253828;0,7139403706688154;0,777536945812808;0,7278817733990147;0,7351724137931035;0,7525904264398248;0,035063005588498765;2;0,8055555555555556;0,8111111111111111;0,8333333333333334;0,8;0,8388888888888889;0,8177777777777777;0,015475986974649018;1;0,4872722781367559;0,3688874464616074;0,5125539512253621;0,44099766009026165;0,5237875859508111;0,46669978437295967;0,056590991945201556;6;0,17647058823529413;0,20588235294117646;0,2857142857142857;0,22857142857142856;0,2571428571428571;0,23075630252100837;0,038176055319716136;30;0,46153846153846156;0,5;0,6666666666666666;0,47058823529411764;0,75;0,5697586726998491;0,11686809448048423;1;0,25531914893617025;0,2916666666666667;0,4;0,3076923076923077;0,3829787234042553;0,3275313693398799;0,055173510932368997;9
9,444532299041748;0,004773465650861937;4,700482034683228;0,009994814342944202;1000;{0.0: 1.0, 1.0: 4.202312138728324};0.01;poly;{'C': 1000, 'class_weight': {0.0: 1.0, 1.0: 4.202312138728324}, 'gamma': 0.01, 'kernel': 'poly'};34,0;34,0;0,0;0,0;0,0;13,6;16,65653025092561;5;0,0;0,0;145,0;145,0;145,0;87,0;71,03520254071216;12;146,0;146,0;0,0;0,0;0,0;58,4;71,5251004892688;1;0,0;0,0;35,0;35,0;35,0;21,0;17,146428199482248;8;0,7645044319097503;0,6752618855761483;0,7633497536945812;0,6888669950738916;0,7789162561576355;0,7341798644824014;0,043119348183517286;18;0,18888888888888888;0,18888888888888888;0,8055555555555556;0,8055555555555556;0,8055555555555556;0,5588888888888889;0,30210373494325865;12;0,41898687090609676;0,31701621956371595;0,5275995502450589;0,3180976512302135;0,4481024622918464;0,40596055084738636;0,08046447052652289;18;1,0;1,0;0,0;0,0;0,0;0,4;0,48989794855663565;5;0,18888888888888888;0,18888888888888888;0,0;0,0;0,0;0,07555555555555556;0,09253627917180894;12;0,3177570093457944;0,3177570093457944;0,0;0,0;0,0;0,12710280373831775;0,15566850701799634;11
8,929851150512695;0,07290968694211723;3,600037622451782;0,06302805053786024;1000;{0.0: 1.0, 1.0: 4.202312138728324};0.01;rbf;{'C': 1000, 'class_weight': {0.0: 1.0, 1.0: 4.202312138728324}, 'gamma': 0.01, 'kernel': 'rbf'};7,0;7,0;10,0;8,0;9,0;8,2;1,1661903789690602;29;138,0;139,0;140,0;135,0;140,0;138,4;1,8547236990991407;5;8,0;7,0;5,0;10,0;5,0;7,0;1,8973665961010275;28;27,0;27,0;25,0;27,0;26,0;26,4;0,7999999999999999;4;0,8043916196615633;0,7093070104754231;0,7767487684729064;0,7257142857142858;0,7314285714285714;0,74951805115055;0,035393210661809754;10;0,8055555555555556;0,8111111111111111;0,8333333333333334;0,7944444444444444;0,8277777777777777;0,8144444444444444;0,014315665251916816;4;0,47840772440206475;0,3576220135276487;0,5003397367752512;0,43786225066070317;0,5160097796211375;0,45804830099736105;0,056666604819638325;10;0,20588235294117646;0,20588235294117646;0,2857142857142857;0,22857142857142856;0,2571428571428571;0,23663865546218482;0,030938067846706635;29;0,4666666666666667;0,5;0,6666666666666666;0,4444444444444444;0,6428571428571429;0,544126984126984;0,0923553119929394;5;0,28571428571428564;0,2916666666666667;0,4;0,3018867924528302;0,36734693877551017;0,32932293672185853;0,04585525735467916;8
9,444239711761474;0,006503635184691967;4,6969873905181885;0,008013020764458643;1000;{0.0: 1.0, 1.0: 4.202312138728324};0.001;poly;{'C': 1000, 'class_weight': {0.0: 1.0, 1.0: 4.202312138728324}, 'gamma': 0.001, 'kernel': 'poly'};34,0;34,0;0,0;0,0;0,0;13,6;16,65653025092561;5;0,0;0,0;145,0;145,0;145,0;87,0;71,03520254071216;12;146,0;146,0;0,0;0,0;0,0;58,4;71,5251004892688;1;0,0;0,0;35,0;35,0;35,0;21,0;17,146428199482248;8;0,7630942788074133;0,6768734891216761;0,7627586206896553;0,6886699507389162;0,77871921182266;0,7340231102360641;0,042406584795438046;21;0,18888888888888888;0,18888888888888888;0,8055555555555556;0,8055555555555556;0,8055555555555556;0,5588888888888889;0,30210373494325865;12;0,4175992073706825;0,3176473932524897;0,5261016472390496;0,31802963601495793;0,44786612085227895;0,40544880094589175;0,07981875508066207;22;1,0;1,0;0,0;0,0;0,0;0,4;0,48989794855663565;5;0,18888888888888888;0,18888888888888888;0,0;0,0;0,0;0,07555555555555556;0,09253627917180894;12;0,3177570093457944;0,3177570093457944;0,0;0,0;0,0;0,12710280373831775;0,15566850701799634;11
8,891872453689576;0,04027737976502162;3,589763879776001;0,04770997863891261;1000;{0.0: 1.0, 1.0: 4.202312138728324};0.001;rbf;{'C': 1000, 'class_weight': {0.0: 1.0, 1.0: 4.202312138728324}, 'gamma': 0.001, 'kernel': 'rbf'};8,0;7,0;10,0;9,0;9,0;8,6;1,0198039027185568;26;138,0;138,0;140,0;134,0;140,0;138,0;2,1908902300206643;6;8,0;8,0;5,0;11,0;5,0;7,4;2,244994432064365;26;26,0;27,0;25,0;26,0;26,0;26,0;0,6324555320336759;7;0,8072119258662369;0,7099113618049959;0,7755665024630541;0,7235467980295567;0,733399014778325;0,7499271205884338;0,03608126236600728;9;0,8111111111111111;0,8055555555555556;0,8333333333333334;0,7944444444444444;0,8277777777777777;0,8144444444444444;0,014315665251916816;4;0,48623884748526186;0,36547927126998697;0,5018688426198554;0,4187998674933603;0,5228911558745651;0,459055596948606;0,0583505512904889;9;0,23529411764705882;0,20588235294117646;0,2857142857142857;0,2571428571428571;0,2571428571428571;0,24823529411764705;0,02655036664130111;26;0,5;0,4666666666666667;0,6666666666666666;0,45;0,6428571428571429;0,5452380952380953;0,0911752442830181;4;0,31999999999999995;0,28571428571428564;0,4;0,32727272727272727;0,36734693877551017;0,34006679035250464;0,039640269934046006;5
9,44460597038269;0,005171939755193922;4,696706771850586;0,008646547877627888;1000;{0.0: 1.0, 1.0: 4.202312138728324};0.0001;poly;{'C': 1000, 'class_weight': {0.0: 1.0, 1.0: 4.202312138728324}, 'gamma': 0.0001, 'kernel': 'poly'};34,0;34,0;0,0;0,0;0,0;13,6;16,65653025092561;5;0,0;0,0;145,0;145,0;145,0;87,0;71,03520254071216;12;146,0;146,0;0,0;0,0;0,0;58,4;71,5251004892688;1;0,0;0,0;35,0;35,0;35,0;21,0;17,146428199482248;8;0,7628928283642223;0,6756647864625303;0,762758620689655;0,6894581280788177;0,7779310344827586;0,7337410796155968;0,0423755351103891;25;0,18888888888888888;0,18888888888888888;0,8055555555555556;0,8055555555555556;0,8055555555555556;0,5588888888888889;0,30210373494325865;12;0,4174875715738888;0,31625983193914775;0,5260827939377536;0,3187878357501852;0,4442079143597582;0,4045651895121467;0,07957468488323562;29;1,0;1,0;0,0;0,0;0,0;0,4;0,48989794855663565;5;0,18888888888888888;0,18888888888888888;0,0;0,0;0,0;0,07555555555555556;0,09253627917180894;12;0,3177570093457944;0,3177570093457944;0,0;0,0;0,0;0,12710280373831775;0,15566850701799634;11
8,737412786483764;0,038790897174470235;4,375593996047973;0,03588064416087225;1000;{0.0: 1.0, 1.0: 4.202312138728324};0.0001;rbf;{'C': 1000, 'class_weight': {0.0: 1.0, 1.0: 4.202312138728324}, 'gamma': 0.0001, 'kernel': 'rbf'};21,0;16,0;22,0;18,0;24,0;20,2;2,85657137141714;1;117,0;114,0;121,0;111,0;110,0;114,6;4,029888335921977;8;29,0;32,0;24,0;34,0;35,0;30,8;3,9698866482558417;22;13,0;18,0;13,0;17,0;11,0;14,4;2,65329983228432;29;0,7999597099113618;0,7383158742949234;0,744039408866995;0,7121182266009853;0,7594088669950739;0,7507684173338679;0,028943473400974713;7;0,7666666666666667;0,7222222222222222;0,7944444444444444;0,7166666666666667;0,7444444444444445;0,7488888888888889;0,02884612219054926;8;0,4945298117636362;0,39127242362333714;0,5068766750193431;0,40300311864497396;0,546305665899833;0,4683975389902247;0,06075842239733035;3;0,6176470588235294;0,47058823529411764;0,6285714285714286;0,5142857142857142;0,6857142857142857;0,5833613445378152;0,07897443046087506;1;0,42;0,3333333333333333;0,4782608695652174;0,34615384615384615;0,4067796610169492;0,39690554201386924;0,052662513965698945;9;0,5;0,39024390243902435;0,54320987654321;0,41379310344827586;0,5106382978723405;0,4715770360605701;0,05902367725224091;2
