mean_fit_time;std_fit_time;mean_score_time;std_score_time;param_C;param_class_weight;param_gamma;param_kernel;params;split0_test_tp;split1_test_tp;split2_test_tp;split3_test_tp;split4_test_tp;mean_test_tp;std_test_tp;rank_test_tp;split0_test_tn;split1_test_tn;split2_test_tn;split3_test_tn;split4_test_tn;mean_test_tn;std_test_tn;rank_test_tn;split0_test_fp;split1_test_fp;split2_test_fp;split3_test_fp;split4_test_fp;mean_test_fp;std_test_fp;rank_test_fp;split0_test_fn;split1_test_fn;split2_test_fn;split3_test_fn;split4_test_fn;mean_test_fn;std_test_fn;rank_test_fn;split0_test_AUC;split1_test_AUC;split2_test_AUC;split3_test_AUC;split4_test_AUC;mean_test_AUC;std_test_AUC;rank_test_AUC;split0_test_Accuracy;split1_test_Accuracy;split2_test_Accuracy;split3_test_Accuracy;split4_test_Accuracy;mean_test_Accuracy;std_test_Accuracy;rank_test_Accuracy;split0_test_Average_Precision;split1_test_Average_Precision;split2_test_Average_Precision;split3_test_Average_Precision;split4_test_Average_Precision;mean_test_Average_Precision;std_test_Average_Precision;rank_test_Average_Precision;split0_test_Recall;split1_test_Recall;split2_test_Recall;split3_test_Recall;split4_test_Recall;mean_test_Recall;std_test_Recall;rank_test_Recall;split0_test_Precision;split1_test_Precision;split2_test_Precision;split3_test_Precision;split4_test_Precision;mean_test_Precision;std_test_Precision;rank_test_Precision;split0_test_F1;split1_test_F1;split2_test_F1;split3_test_F1;split4_test_F1;mean_test_F1;std_test_F1;rank_test_F1
4,784969520568848;0,0021587634563195366;2,3709348678588866;0,003662204485393295;1;{0.0: 1.0, 1.0: 4.202312138728324};0.1;poly;{'C': 1, 'class_weight': {0.0: 1.0, 1.0: 4.202312138728324}, 'gamma': 0.1, 'kernel': 'poly'};34,0;34,0;0,0;0,0;0,0;13,6;16,65653025092561;5;0,0;0,0;145,0;145,0;145,0;87,0;71,03520254071216;12;146,0;146,0;0,0;0,0;0,0;58,4;71,5251004892688;1;0,0;0,0;35,0;35,0;35,0;21,0;17,146428199482248;8;0,8098307816277196;0,6559226430298147;0,7460098522167486;0,6833497536945813;0,784039408866995;0,7358304878871718;0,058383652035516306;22;0,18888888888888888;0,18888888888888888;0,8055555555555556;0,8055555555555556;0,8055555555555556;0,5588888888888889;0,30210373494325865;12;0,4824560951321444;0,320004622956273;0,5034044308751007;0,3361285576116747;0,48895864949066;0,4261904712131706;0,08056580274228071;20;1,0;1,0;0,0;0,0;0,0;0,4;0,48989794855663565;5;0,18888888888888888;0,18888888888888888;0,0;0,0;0,0;0,07555555555555556;0,09253627917180894;11;0,3177570093457944;0,3177570093457944;0,0;0,0;0,0;0,12710280373831775;0,15566850701799634;11
4,3666757106781;0,040234260589006504;2,169335412979126;0,02242876933929599;1;{0.0: 1.0, 1.0: 4.202312138728324};0.1;rbf;{'C': 1, 'class_weight': {0.0: 1.0, 1.0: 4.202312138728324}, 'gamma': 0.1, 'kernel': 'rbf'};24,0;16,0;18,0;19,0;22,0;19,8;2,85657137141714;4;116,0;107,0;127,0;112,0;113,0;115,0;6,663332499583072;8;30,0;39,0;18,0;33,0;32,0;30,4;6,887670143089026;24;10,0;18,0;17,0;16,0;13,0;14,8;2,9257477676655586;29;0,8164786462530218;0,7151490733279613;0,7866009852216749;0,7117241379310344;0,7907389162561577;0,7641383517979701;0,042658798796413364;1;0,7777777777777778;0,6833333333333333;0,8055555555555556;0,7277777777777777;0,75;0,7488888888888889;0,04192880503136269;11;0,5115103904750424;0,3963896667143376;0,5772219558250903;0,43548304302476115;0,5944521137023807;0,5030114339483225;0,07729051243454517;1;0,7058823529411765;0,47058823529411764;0,5142857142857142;0,5428571428571428;0,6285714285714286;0,572436974789916;0,08436639988000356;4;0,4444444444444444;0,2909090909090909;0,5;0,36538461538461536;0,4074074074074074;0,40162911162911163;0,07087448003523707;10;0,5454545454545455;0,35955056179775285;0,5070422535211268;0,43678160919540227;0,4943820224719101;0,46864219848814753;0,06473534082339767;4
4,773891735076904;0,0016249871391074695;2,363279390335083;0,0018884846746871366;1;{0.0: 1.0, 1.0: 4.202312138728324};0.01;poly;{'C': 1, 'class_weight': {0.0: 1.0, 1.0: 4.202312138728324}, 'gamma': 0.01, 'kernel': 'poly'};34,0;34,0;0,0;0,0;0,0;13,6;16,65653025092561;5;0,0;0,0;145,0;145,0;145,0;87,0;71,03520254071216;12;146,0;146,0;0,0;0,0;0,0;58,4;71,5251004892688;1;0,0;0,0;35,0;35,0;35,0;21,0;17,146428199482248;8;0,8090249798549558;0,6551168412570508;0,7467980295566503;0,6835467980295566;0,7838423645320197;0,7356658026460468;0,05836266322739213;26;0,18888888888888888;0,18888888888888888;0,8055555555555556;0,8055555555555556;0,8055555555555556;0,5588888888888889;0,30210373494325865;12;0,4814814671986767;0,3187728270102652;0,5032025038488823;0,33619408841115045;0,48926667286708736;0,42578351186721247;0,08075100711055207;31;1,0;1,0;0,0;0,0;0,0;0,4;0,48989794855663565;5;0,18888888888888888;0,18888888888888888;0,0;0,0;0,0;0,07555555555555556;0,09253627917180894;11;0,3177570093457944;0,3177570093457944;0,0;0,0;0,0;0,12710280373831775;0,15566850701799634;11
4,804169988632202;0,00794886551377537;2,4014702796936036;0,014291230614602567;1;{0.0: 1.0, 1.0: 4.202312138728324};0.01;rbf;{'C': 1, 'class_weight': {0.0: 1.0, 1.0: 4.202312138728324}, 'gamma': 0.01, 'kernel': 'rbf'};34,0;34,0;0,0;0,0;0,0;13,6;16,65653025092561;5;0,0;0,0;145,0;145,0;145,0;87,0;71,03520254071216;12;146,0;146,0;0,0;0,0;0,0;58,4;71,5251004892688;1;0,0;0,0;35,0;35,0;35,0;21,0;17,146428199482248;8;0,8160757453666398;0,7193795326349718;0,774384236453202;0,6949753694581281;0,8033497536945814;0,7616329275215046;0,04710730157152828;8;0,18888888888888888;0,18888888888888888;0,8055555555555556;0,8055555555555556;0,8055555555555556;0,5588888888888889;0,30210373494325865;12;0,4999526088567714;0,38128950390562877;0,5692003249243499;0,41184414950016596;0,5861259935701413;0,48968251615141145;0,08189964283132309;10;1,0;1,0;0,0;0,0;0,0;0,4;0,48989794855663565;5;0,18888888888888888;0,18888888888888888;0,0;0,0;0,0;0,07555555555555556;0,09253627917180894;11;0,3177570093457944;0,3177570093457944;0,0;0,0;0,0;0,12710280373831775;0,15566850701799634;11
4,776164150238037;0,0021399528650108586;2,366490936279297;0,009407014032448974;1;{0.0: 1.0, 1.0: 4.202312138728324};0.001;poly;{'C': 1, 'class_weight': {0.0: 1.0, 1.0: 4.202312138728324}, 'gamma': 0.001, 'kernel': 'poly'};34,0;34,0;0,0;0,0;0,0;13,6;16,65653025092561;5;0,0;0,0;145,0;145,0;145,0;87,0;71,03520254071216;12;146,0;146,0;0,0;0,0;0,0;58,4;71,5251004892688;1;0,0;0,0;35,0;35,0;35,0;21,0;17,146428199482248;8;0,8098307816277196;0,6565269943593877;0,7460098522167486;0,6835467980295566;0,783448275862069;0,7358725404190963;0,058085688654306696;18;0,18888888888888888;0,18888888888888888;0,8055555555555556;0,8055555555555556;0,8055555555555556;0,5588888888888889;0,30210373494325865;12;0,48281040131415054;0,3199449604962786;0,5029430605759448;0,3363075765876862;0,48871414838318405;0,4261440294714488;0,08046492300992135;25;1,0;1,0;0,0;0,0;0,0;0,4;0,48989794855663565;5;0,18888888888888888;0,18888888888888888;0,0;0,0;0,0;0,07555555555555556;0,09253627917180894;11;0,3177570093457944;0,3177570093457944;0,0;0,0;0,0;0,12710280373831775;0,15566850701799634;11
4,795907640457154;0,006317949586011163;2,3939228534698485;0,00524502268244463;1;{0.0: 1.0, 1.0: 4.202312138728324};0.001;rbf;{'C': 1, 'class_weight': {0.0: 1.0, 1.0: 4.202312138728324}, 'gamma': 0.001, 'kernel': 'rbf'};34,0;34,0;0,0;0,0;0,0;13,6;16,65653025092561;5;0,0;0,0;145,0;145,0;145,0;87,0;71,03520254071216;12;146,0;146,0;0,0;0,0;0,0;58,4;71,5251004892688;1;0,0;0,0;35,0;35,0;35,0;21,0;17,146428199482248;8;0,8162771958098307;0,7191780821917808;0,7747783251231527;0,6955665024630542;0,8029556650246306;0,7617511541224898;0,04697548870198786;5;0,18888888888888888;0,18888888888888888;0,8055555555555556;0,8055555555555556;0,8055555555555556;0,5588888888888889;0,30210373494325865;12;0,5005123528549241;0,3809301414769929;0,5692988456850009;0,41336752890650574;0,5857780362053772;0,4899773810257602;0,0816590666306107;6;1,0;1,0;0,0;0,0;0,0;0,4;0,48989794855663565;5;0,18888888888888888;0,18888888888888888;0,0;0,0;0,0;0,07555555555555556;0,09253627917180894;11;0,3177570093457944;0,3177570093457944;0,0;0,0;0,0;0,12710280373831775;0,15566850701799634;11
4,776220083236694;0,004698385177671402;2,362143611907959;0,0019567768210861512;1;{0.0: 1.0, 1.0: 4.202312138728324};0.0001;poly;{'C': 1, 'class_weight': {0.0: 1.0, 1.0: 4.202312138728324}, 'gamma': 0.0001, 'kernel': 'poly'};34,0;34,0;0,0;0,0;0,0;13,6;16,65653025092561;5;0,0;0,0;145,0;145,0;145,0;87,0;71,03520254071216;12;146,0;146,0;0,0;0,0;0,0;58,4;71,5251004892688;1;0,0;0,0;35,0;35,0;35,0;21,0;17,146428199482248;8;0,8099315068493151;0,6564262691377921;0,7466995073891626;0,6835467980295566;0,7840394088669952;0,7361286980545645;0,058260391677379564;15;0,18888888888888888;0,18888888888888888;0,8055555555555556;0,8055555555555556;0,8055555555555556;0,5588888888888889;0,30210373494325865;12;0,4832228833801476;0,32038053886424145;0,5026897013486347;0,33619408841115045;0,488435142293187;0,42618447085947225;0,08034216557682966;22;1,0;1,0;0,0;0,0;0,0;0,4;0,48989794855663565;5;0,18888888888888888;0,18888888888888888;0,0;0,0;0,0;0,07555555555555556;0,09253627917180894;11;0,3177570093457944;0,3177570093457944;0,0;0,0;0,0;0,12710280373831775;0,15566850701799634;11
4,799977111816406;0,004573764035590699;2,3983070850372314;0,012439279847420964;1;{0.0: 1.0, 1.0: 4.202312138728324};0.0001;rbf;{'C': 1, 'class_weight': {0.0: 1.0, 1.0: 4.202312138728324}, 'gamma': 0.0001, 'kernel': 'rbf'};34,0;34,0;0,0;0,0;0,0;13,6;16,65653025092561;5;0,0;0,0;145,0;145,0;145,0;87,0;71,03520254071216;12;146,0;146,0;0,0;0,0;0,0;58,4;71,5251004892688;1;0,0;0,0;35,0;35,0;35,0;21,0;17,146428199482248;8;0,8162771958098307;0,7193795326349718;0,7747783251231527;0,6949753694581281;0,8031527093596059;0,7617126264771379;0,04714072015900382;7;0,18888888888888888;0,18888888888888888;0,8055555555555556;0,8055555555555556;0,8055555555555556;0,5588888888888889;0,30210373494325865;12;0,5005123528549241;0,38106957935752683;0,5692990006617699;0,41274017769088334;0,5860607331600534;0,48993636874503144;0,08180635912158439;7;1,0;1,0;0,0;0,0;0,0;0,4;0,48989794855663565;5;0,18888888888888888;0,18888888888888888;0,0;0,0;0,0;0,07555555555555556;0,09253627917180894;11;0,3177570093457944;0,3177570093457944;0,0;0,0;0,0;0,12710280373831775;0,15566850701799634;11
4,773325777053833;0,002080231839052163;2,3616265296936034;0,0021315617964723036;10;{0.0: 1.0, 1.0: 4.202312138728324};0.1;poly;{'C': 10, 'class_weight': {0.0: 1.0, 1.0: 4.202312138728324}, 'gamma': 0.1, 'kernel': 'poly'};34,0;34,0;0,0;0,0;0,0;13,6;16,65653025092561;5;0,0;0,0;145,0;145,0;145,0;87,0;71,03520254071216;12;146,0;146,0;0,0;0,0;0,0;58,4;71,5251004892688;1;0,0;0,0;35,0;35,0;35,0;21,0;17,146428199482248;8;0,8094278807413376;0,6563255439161967;0,7462068965517241;0,6831527093596059;0,7842364532019704;0,735869896754167;0,05824664843730477;20;0,18888888888888888;0,18888888888888888;0,8055555555555556;0,8055555555555556;0,8055555555555556;0,5588888888888889;0,30210373494325865;12;0,48263877557345725;0,32050026747240057;0,5028531638287399;0,3360883827327901;0,4891059700914315;0,4262373119397639;0,08038747918468984;18;1,0;1,0;0,0;0,0;0,0;0,4;0,48989794855663565;5;0,18888888888888888;0,18888888888888888;0,0;0,0;0,0;0,07555555555555556;0,09253627917180894;11;0,3177570093457944;0,3177570093457944;0,0;0,0;0,0;0,12710280373831775;0,15566850701799634;11
4,456139183044433;0,04425676546801639;1,794286060333252;0,03027053186973628;10;{0.0: 1.0, 1.0: 4.202312138728324};0.1;rbf;{'C': 10, 'class_weight': {0.0: 1.0, 1.0: 4.202312138728324}, 'gamma': 0.1, 'kernel': 'rbf'};8,0;6,0;8,0;12,0;13,0;9,4;2,65329983228432;28;141,0;135,0;141,0;135,0;141,0;138,6;2,9393876913398134;2;5,0;11,0;4,0;10,0;4,0;6,8;3,059411708155671;31;26,0;28,0;27,0;23,0;22,0;25,2;2,3151673805580453;4;0,7618855761482676;0,6821112006446414;0,8055172413793105;0,6991133004926109;0,7339901477832512;0,7365234932896163;0,044204095913929514;14;0,8277777777777777;0,7833333333333333;0,8277777777777777;0,8166666666666667;0,8555555555555555;0,8222222222222222;0,02330686329267002;1;0,41189905922239667;0,36884047793780517;0,5663754204277626;0,5050038664695268;0,5703622032536151;0,4844962054622212;0,08141785127531184;13;0,23529411764705882;0,17647058823529413;0,22857142857142856;0,34285714285714286;0,37142857142857144;0,2709243697478992;0,07383796006899584;29;0,6153846153846154;0,35294117647058826;0,6666666666666666;0,5454545454545454;0,7647058823529411;0,5890305772658714;0,13800056973530583;1;0,3404255319148936;0,23529411764705885;0,3404255319148936;0,42105263157894735;0,5;0,3674395626111587;0,08873394509266813;7
4,777400922775269;0,003646996506535894;2,362584638595581;0,003015302157822268;10;{0.0: 1.0, 1.0: 4.202312138728324};0.01;poly;{'C': 10, 'class_weight': {0.0: 1.0, 1.0: 4.202312138728324}, 'gamma': 0.01, 'kernel': 'poly'};34,0;34,0;0,0;0,0;0,0;13,6;16,65653025092561;5;0,0;0,0;145,0;145,0;145,0;87,0;71,03520254071216;12;146,0;146,0;0,0;0,0;0,0;58,4;71,5251004892688;1;0,0;0,0;35,0;35,0;35,0;21,0;17,146428199482248;8;0,8090249798549557;0,6541095890410958;0,7456157635467979;0,6835467980295566;0,7836453201970444;0,7351884901338901;0,05856495913212928;29;0,18888888888888888;0,18888888888888888;0,8055555555555556;0,8055555555555556;0,8055555555555556;0,5588888888888889;0,30210373494325865;12;0,4818442174381481;0,3201620219528093;0,502567089754315;0,33619408841115045;0,4887954782355619;0,4259125791583969;0,08023853074796618;30;1,0;1,0;0,0;0,0;0,0;0,4;0,48989794855663565;5;0,18888888888888888;0,18888888888888888;0,0;0,0;0,0;0,07555555555555556;0,09253627917180894;11;0,3177570093457944;0,3177570093457944;0,0;0,0;0,0;0,12710280373831775;0,15566850701799634;11
4,298686742782593;0,03656757408173744;2,1355602741241455;0,0246577695531846;10;{0.0: 1.0, 1.0: 4.202312138728324};0.01;rbf;{'C': 10, 'class_weight': {0.0: 1.0, 1.0: 4.202312138728324}, 'gamma': 0.01, 'kernel': 'rbf'};24,0;15,0;21,0;19,0;22,0;20,2;3,059411708155671;3;117,0;108,0;126,0;110,0;114,0;115,0;6,324555320336759;8;29,0;38,0;19,0;35,0;31,0;30,4;6,499230723708769;24;10,0;19,0;14,0;16,0;13,0;14,4;3,0066592756745814;30;0,8156728444802579;0,7145447219983884;0,7860098522167488;0,7142857142857143;0,7879802955665024;0,7636986857095224;0,04158473710757577;2;0,7833333333333333;0,6833333333333333;0,8166666666666667;0,7166666666666667;0,7555555555555555;0,7511111111111111;0,04719280129243399;8;0,504858033961697;0,39465006966300425;0,5697722231360208;0,45520678734834696;0,5870995873130135;0,5023173402844165;0,07149306416305026;2;0,7058823529411765;0,4411764705882353;0,6;0,5428571428571428;0,6285714285714286;0,5836974789915966;0,08853107686692127;3;0,4528301886792453;0,2830188679245283;0,525;0,35185185185185186;0,41509433962264153;0,4055590496156534;0,08305682656246481;9;0,5517241379310345;0,3448275862068966;0,56;0,42696629213483145;0,5000000000000001;0,4767036032545525;0,08120859120193516;3
4,774311876296997;0,0039459078645154196;2,366144561767578;0,009172231419631291;10;{0.0: 1.0, 1.0: 4.202312138728324};0.001;poly;{'C': 10, 'class_weight': {0.0: 1.0, 1.0: 4.202312138728324}, 'gamma': 0.001, 'kernel': 'poly'};34,0;34,0;0,0;0,0;0,0;13,6;16,65653025092561;5;0,0;0,0;145,0;145,0;145,0;87,0;71,03520254071216;12;146,0;146,0;0,0;0,0;0,0;58,4;71,5251004892688;1;0,0;0,0;35,0;35,0;35,0;21,0;17,146428199482248;8;0,8098307816277196;0,6565269943593877;0,746206896551724;0,6835467980295566;0,783448275862069;0,7359119492860915;0,05809261948496459;17;0,18888888888888888;0,18888888888888888;0,8055555555555556;0,8055555555555556;0,8055555555555556;0,5588888888888889;0,30210373494325865;12;0,48281040131415054;0,3199449604962786;0,502988947612857;0,3363075765876862;0,48871414838318405;0,4261532068788313;0,08047368392140275;24;1,0;1,0;0,0;0,0;0,0;0,4;0,48989794855663565;5;0,18888888888888888;0,18888888888888888;0,0;0,0;0,0;0,07555555555555556;0,09253627917180894;11;0,3177570093457944;0,3177570093457944;0,0;0,0;0,0;0,12710280373831775;0,15566850701799634;11
4,8022795677185055;0,0043353002425169426;2,3947439193725586;0,0030318740146048186;10;{0.0: 1.0, 1.0: 4.202312138728324};0.001;rbf;{'C': 10, 'class_weight': {0.0: 1.0, 1.0: 4.202312138728324}, 'gamma': 0.001, 'kernel': 'rbf'};34,0;34,0;0,0;0,0;0,0;13,6;16,65653025092561;5;0,0;0,0;145,0;145,0;145,0;87,0;71,03520254071216;12;146,0;146,0;0,0;0,0;0,0;58,4;71,5251004892688;1;0,0;0,0;35,0;35,0;35,0;21,0;17,146428199482248;8;0,8160757453666398;0,7191780821917808;0,774384236453202;0,6951724137931035;0,8033497536945814;0,7616320462998616;0,04708784058220524;9;0,18888888888888888;0,18888888888888888;0,8055555555555556;0,8055555555555556;0,8055555555555556;0,5588888888888889;0,30210373494325865;12;0,4999526088567714;0,3809301414769929;0,5692003249243499;0,41278606472779544;0,5861259935701413;0,4897990267112101;0,08181683985361482;9;1,0;1,0;0,0;0,0;0,0;0,4;0,48989794855663565;5;0,18888888888888888;0,18888888888888888;0,0;0,0;0,0;0,07555555555555556;0,09253627917180894;11;0,3177570093457944;0,3177570093457944;0,0;0,0;0,0;0,12710280373831775;0,15566850701799634;11
4,776220846176147;0,0024909653869703385;2,3625816345214843;0,0018199647627745316;10;{0.0: 1.0, 1.0: 4.202312138728324};0.0001;poly;{'C': 10, 'class_weight': {0.0: 1.0, 1.0: 4.202312138728324}, 'gamma': 0.0001, 'kernel': 'poly'};34,0;34,0;0,0;0,0;0,0;13,6;16,65653025092561;5;0,0;0,0;145,0;145,0;145,0;87,0;71,03520254071216;12;146,0;146,0;0,0;0,0;0,0;58,4;71,5251004892688;1;0,0;0,0;35,0;35,0;35,0;21,0;17,146428199482248;8;0,8098307816277196;0,6565269943593877;0,7460098522167488;0,6831527093596059;0,7836453201970444;0,7358331315521013;0,058189197488930214;21;0,18888888888888888;0,18888888888888888;0,8055555555555556;0,8055555555555556;0,8055555555555556;0,5588888888888889;0,30210373494325865;12;0,48281040131415054;0,3199449604962786;0,5026736995624173;0,3360730625942646;0,48888933300752063;0,42607829139492626;0,08049328038512513;28;1,0;1,0;0,0;0,0;0,0;0,4;0,48989794855663565;5;0,18888888888888888;0,18888888888888888;0,0;0,0;0,0;0,07555555555555556;0,09253627917180894;11;0,3177570093457944;0,3177570093457944;0,0;0,0;0,0;0,12710280373831775;0,15566850701799634;11
4,797016239166259;0,00626041875312183;2,3924383163452148;0,004585042336512803;10;{0.0: 1.0, 1.0: 4.202312138728324};0.0001;rbf;{'C': 10, 'class_weight': {0.0: 1.0, 1.0: 4.202312138728324}, 'gamma': 0.0001, 'kernel': 'rbf'};34,0;34,0;0,0;0,0;0,0;13,6;16,65653025092561;5;0,0;0,0;145,0;145,0;145,0;87,0;71,03520254071216;12;146,0;146,0;0,0;0,0;0,0;58,4;71,5251004892688;1;0,0;0,0;35,0;35,0;35,0;21,0;17,146428199482248;8;0,8162771958098307;0,7191780821917808;0,7747783251231527;0,6947783251231526;0,8029556650246306;0,7615935186545094;0,04719811470417593;10;0,18888888888888888;0,18888888888888888;0,8055555555555556;0,8055555555555556;0,8055555555555556;0,5588888888888889;0,30210373494325865;12;0,5005123528549241;0,3809301414769929;0,5692988456850009;0,41269181813760475;0,5857780362053772;0,48984223887198;0,08178620089857329;8;1,0;1,0;0,0;0,0;0,0;0,4;0,48989794855663565;5;0,18888888888888888;0,18888888888888888;0,0;0,0;0,0;0,07555555555555556;0,09253627917180894;11;0,3177570093457944;0,3177570093457944;0,0;0,0;0,0;0,12710280373831775;0,15566850701799634;11
4,776307582855225;0,003563933567335044;2,3675947189331055;0,009724114849916407;100;{0.0: 1.0, 1.0: 4.202312138728324};0.1;poly;{'C': 100, 'class_weight': {0.0: 1.0, 1.0: 4.202312138728324}, 'gamma': 0.1, 'kernel': 'poly'};34,0;34,0;0,0;0,0;0,0;13,6;16,65653025092561;5;0,0;0,0;145,0;145,0;145,0;87,0;71,03520254071216;12;146,0;146,0;0,0;0,0;0,0;58,4;71,5251004892688;1;0,0;0,0;35,0;35,0;35,0;21,0;17,146428199482248;8;0,8094278807413376;0,6563255439161967;0,7458128078817734;0,6831527093596059;0,784039408866995;0,7357516701531817;0,058200131296578875;25;0,18888888888888888;0,18888888888888888;0,8055555555555556;0,8055555555555556;0,8055555555555556;0,5588888888888889;0,30210373494325865;12;0,4826567392012662;0,32011265871556316;0,5026368704888511;0,3360883827327901;0,4889807788269997;0,426095085993094;0,08043128405547471;27;1,0;1,0;0,0;0,0;0,0;0,4;0,48989794855663565;5;0,18888888888888888;0,18888888888888888;0,0;0,0;0,0;0,07555555555555556;0,09253627917180894;11;0,3177570093457944;0,3177570093457944;0,0;0,0;0,0;0,12710280373831775;0,15566850701799634;11
4,479200553894043;0,05426099676394329;1,7898446083068849;0,028000505651160138;100;{0.0: 1.0, 1.0: 4.202312138728324};0.1;rbf;{'C': 100, 'class_weight': {0.0: 1.0, 1.0: 4.202312138728324}, 'gamma': 0.1, 'kernel': 'rbf'};8,0;6,0;7,0;11,0;13,0;9,0;2,6076809620810595;30;140,0;135,0;141,0;134,0;141,0;138,2;3,059411708155671;3;6,0;11,0;4,0;11,0;4,0;7,2;3,1874754901018454;29;26,0;28,0;28,0;24,0;22,0;25,6;2,33238075793812;2;0,7639000805801772;0,6809024979854956;0,8045320197044334;0,7000985221674877;0,736551724137931;0,737196968915105;0,044255720051879534;12;0,8222222222222222;0,7833333333333333;0,8222222222222222;0,8055555555555556;0,8555555555555555;0,8177777777777777;0,023674750836291666;2;0,41878419264808;0,3870781539144384;0,5649869034132587;0,49891568442604056;0,5704745989668218;0,4880479066737279;0,07459789603981921;11;0,23529411764705882;0,17647058823529413;0,2;0,3142857142857143;0,37142857142857144;0,25949579831932773;0,0728691120599718;30;0,5714285714285714;0,35294117647058826;0,6363636363636364;0,5;0,7647058823529411;0,5650878533231475;0,13726648579873135;2;0,3333333333333333;0,23529411764705885;0,30434782608695654;0,38596491228070173;0,5;0,3517880378696101;0,08865306280707293;9
4,7767151355743405;0,003389897846301152;2,369514274597168;0,009814153600370952;100;{0.0: 1.0, 1.0: 4.202312138728324};0.01;poly;{'C': 100, 'class_weight': {0.0: 1.0, 1.0: 4.202312138728324}, 'gamma': 0.01, 'kernel': 'poly'};34,0;34,0;0,0;0,0;0,0;13,6;16,65653025092561;5;0,0;0,0;145,0;145,0;145,0;87,0;71,03520254071216;12;146,0;146,0;0,0;0,0;0,0;58,4;71,5251004892688;1;0,0;0,0;35,0;35,0;35,0;21,0;17,146428199482248;8;0,8096293311845286;0,6559226430298147;0,7452216748768472;0,6833497536945813;0,7840394088669951;0,7356325623305533;0,05830584702352363;28;0,18888888888888888;0,18888888888888888;0,8055555555555556;0,8055555555555556;0,8055555555555556;0,5588888888888889;0,30210373494325865;12;0,48201664622712603;0,32091594944324864;0,5029553790939416;0,33613087728599245;0,4890440350071417;0,4262125774114901;0,08019156605158526;19;1,0;1,0;0,0;0,0;0,0;0,4;0,48989794855663565;5;0,18888888888888888;0,18888888888888888;0,0;0,0;0,0;0,07555555555555556;0,09253627917180894;11;0,3177570093457944;0,3177570093457944;0,0;0,0;0,0;0,12710280373831775;0,15566850701799634;11
4,424982309341431;0,040489224797525855;1,7348253726959229;0,03054225754910831;100;{0.0: 1.0, 1.0: 4.202312138728324};0.01;rbf;{'C': 100, 'class_weight': {0.0: 1.0, 1.0: 4.202312138728324}, 'gamma': 0.01, 'kernel': 'rbf'};9,0;6,0;9,0;12,0;13,0;9,8;2,481934729198171;27;138,0;134,0;140,0;131,0;141,0;136,8;3,7629775444453557;6;8,0;12,0;5,0;14,0;4,0;8,6;3,8781438859330635;27;25,0;28,0;26,0;23,0;22,0;24,8;2,1354156504062622;6;0,7558420628525382;0,6744560838033844;0,8039408866995075;0,6963546798029557;0,7265024630541872;0,7314192352425145;0,045506840710648276;30;0,8166666666666667;0,7777777777777778;0,8277777777777777;0,7944444444444444;0,8555555555555555;0,8144444444444444;0,02689715208202266;5;0,4063349200320356;0,3733675900258131;0,5533289709372703;0,5034495113374865;0,5624070582474292;0,47977761011600695;0,07683060378126451;14;0,2647058823529412;0,17647058823529413;0,2571428571428571;0,34285714285714286;0,37142857142857144;0,2825210084033613;0,06892477751770186;27;0,5294117647058824;0,3333333333333333;0,6428571428571429;0,46153846153846156;0,7647058823529411;0,5463693169575523;0,14822207613154384;6;0,35294117647058826;0,23076923076923078;0,36734693877551017;0,3934426229508197;0,5;0,3688999937932298;0,08617047730771815;6
4,776557159423828;0,0033681815663806694;2,366796445846558;0,009400338260861393;100;{0.0: 1.0, 1.0: 4.202312138728324};0.001;poly;{'C': 100, 'class_weight': {0.0: 1.0, 1.0: 4.202312138728324}, 'gamma': 0.001, 'kernel': 'poly'};34,0;34,0;0,0;0,0;0,0;13,6;16,65653025092561;5;0,0;0,0;145,0;145,0;145,0;87,0;71,03520254071216;12;146,0;146,0;0,0;0,0;0,0;58,4;71,5251004892688;1;0,0;0,0;35,0;35,0;35,0;21,0;17,146428199482248;8;0,8098307816277196;0,6561240934730056;0,7460098522167488;0,6831527093596058;0,7836453201970444;0,7357525513748249;0,058299139635622395;24;0,18888888888888888;0,18888888888888888;0,8055555555555556;0,8055555555555556;0,8055555555555556;0,5588888888888889;0,30210373494325865;12;0,48281040131415054;0,3196460917087424;0,5029133751514618;0,33608340161824285;0,48887953556660935;0,4260665610718414;0,08061395820728176;29;1,0;1,0;0,0;0,0;0,0;0,4;0,48989794855663565;5;0,18888888888888888;0,18888888888888888;0,0;0,0;0,0;0,07555555555555556;0,09253627917180894;11;0,3177570093457944;0,3177570093457944;0,0;0,0;0,0;0,12710280373831775;0,15566850701799634;11
4,286075592041016;0,02792595494875045;2,1309578895568846;0,017154178850902146;100;{0.0: 1.0, 1.0: 4.202312138728324};0.001;rbf;{'C': 100, 'class_weight': {0.0: 1.0, 1.0: 4.202312138728324}, 'gamma': 0.001, 'kernel': 'rbf'};25,0;15,0;21,0;19,0;22,0;20,4;3,3226495451672298;1;116,0;108,0;126,0;110,0;114,0;114,8;6,273754856543249;10;30,0;38,0;19,0;35,0;31,0;30,6;6,468384651518491;22;9,0;19,0;14,0;16,0;13,0;14,2;3,3105890714493698;31;0,8146655922643029;0,7145447219983885;0,785615763546798;0,7148768472906403;0,7881773399014779;0,7635760530003215;0,041174742833310664;3;0,7833333333333333;0,6833333333333333;0,8166666666666667;0,7166666666666667;0,7555555555555555;0,7511111111111111;0,04719280129243399;8;0,5033411030083115;0,39438784888355993;0,5686902388942483;0,4559043904781116;0,5869369971024405;0,5018521156733344;0,07123026173483062;3;0,7352941176470589;0,4411764705882353;0,6;0,5428571428571428;0,6285714285714286;0,5895798319327731;0,0970238577928345;1;0,45454545454545453;0,2830188679245283;0,525;0,35185185185185186;0,41509433962264153;0,40590210278889527;0,08325467079427491;7;0,5617977528089887;0,3448275862068966;0,56;0,42696629213483145;0,5000000000000001;0,4787183262301434;0,08314663498533269;1
4,776301479339599;0,004459636158722226;2,3661075592041017;0,009654292083496966;100;{0.0: 1.0, 1.0: 4.202312138728324};0.0001;poly;{'C': 100, 'class_weight': {0.0: 1.0, 1.0: 4.202312138728324}, 'gamma': 0.0001, 'kernel': 'poly'};34,0;34,0;0,0;0,0;0,0;13,6;16,65653025092561;5;0,0;0,0;145,0;145,0;145,0;87,0;71,03520254071216;12;146,0;146,0;0,0;0,0;0,0;58,4;71,5251004892688;1;0,0;0,0;35,0;35,0;35,0;21,0;17,146428199482248;8;0,8098307816277196;0,6565269943593877;0,7461083743842363;0,6835467980295566;0,7836453201970444;0,735931653719589;0,058121448281276474;16;0,18888888888888888;0,18888888888888888;0,8055555555555556;0,8055555555555556;0,8055555555555556;0,5588888888888889;0,30210373494325865;12;0,48281040131415054;0,3199449604962786;0,5029430605759448;0,3363075765876862;0,48888933300752063;0,42617906639631614;0,08049219387274449;23;1,0;1,0;0,0;0,0;0,0;0,4;0,48989794855663565;5;0,18888888888888888;0,18888888888888888;0,0;0,0;0,0;0,07555555555555556;0,09253627917180894;11;0,3177570093457944;0,3177570093457944;0,0;0,0;0,0;0,12710280373831775;0,15566850701799634;11
4,797494506835937;0,0054857018042245445;2,404354476928711;0,01500763801368257;100;{0.0: 1.0, 1.0: 4.202312138728324};0.0001;rbf;{'C': 100, 'class_weight': {0.0: 1.0, 1.0: 4.202312138728324}, 'gamma': 0.0001, 'kernel': 'rbf'};34,0;34,0;0,0;0,0;0,0;13,6;16,65653025092561;5;0,0;0,0;145,0;145,0;145,0;87,0;71,03520254071216;12;146,0;146,0;0,0;0,0;0,0;58,4;71,5251004892688;1;0,0;0,0;35,0;35,0;35,0;21,0;17,146428199482248;8;0,8162771958098307;0,7191780821917808;0,774384236453202;0,6955665024630542;0,8033497536945814;0,7617511541224898;0,04702340278312825;5;0,18888888888888888;0,18888888888888888;0,8055555555555556;0,8055555555555556;0,8055555555555556;0,5588888888888889;0,30210373494325865;12;0,5006388833665752;0,3809301414769929;0,5692003249243499;0,41336752890650574;0,5861259935701413;0,490052574448913;0,08172495309392067;5;1,0;1,0;0,0;0,0;0,0;0,4;0,48989794855663565;5;0,18888888888888888;0,18888888888888888;0,0;0,0;0,0;0,07555555555555556;0,09253627917180894;11;0,3177570093457944;0,3177570093457944;0,0;0,0;0,0;0,12710280373831775;0,15566850701799634;11
4,780323076248169;0,0043263212721815275;2,362069034576416;0,002241574044473893;1000;{0.0: 1.0, 1.0: 4.202312138728324};0.1;poly;{'C': 1000, 'class_weight': {0.0: 1.0, 1.0: 4.202312138728324}, 'gamma': 0.1, 'kernel': 'poly'};0,0;0,0;0,0;0,0;0,0;0,0;0,0;32;146,0;146,0;145,0;145,0;145,0;145,4;0,4898979485566356;1;0,0;0,0;0,0;0,0;0,0;0,0;0,0;32;34,0;34,0;35,0;35,0;35,0;34,6;0,4898979485566356;1;0,8108380338436745;0,6595487510072522;0,7422660098522168;0,6916256157635468;0,785615763546798;0,7379788348026978;0,05638442815959117;11;0,8111111111111111;0,8111111111111111;0,8055555555555556;0,8055555555555556;0,8055555555555556;0,8077777777777777;0,002721655269759077;7;0,4916167675308025;0,30683335689005403;0,4989295461106591;0,35155330087734893;0,4968459581345072;0,4291557859086744;0,08286933519455711;17;0,0;0,0;0,0;0,0;0,0;0,0;0,0;32;0,0;0,0;0,0;0,0;0,0;0,0;0,0;32;0,0;0,0;0,0;0,0;0,0;0,0;0,0;32
4,481101942062378;0,05171867289768273;1,7886616706848144;0,02770561668503971;1000;{0.0: 1.0, 1.0: 4.202312138728324};0.1;rbf;{'C': 1000, 'class_weight': {0.0: 1.0, 1.0: 4.202312138728324}, 'gamma': 0.1, 'kernel': 'rbf'};8,0;6,0;7,0;11,0;13,0;9,0;2,6076809620810595;30;140,0;135,0;141,0;134,0;141,0;138,2;3,059411708155671;3;6,0;11,0;4,0;11,0;4,0;7,2;3,1874754901018454;29;26,0;28,0;28,0;24,0;22,0;25,6;2,33238075793812;2;0,7639000805801772;0,6809024979854956;0,8045320197044334;0,7000985221674877;0,736551724137931;0,737196968915105;0,044255720051879534;12;0,8222222222222222;0,7833333333333333;0,8222222222222222;0,8055555555555556;0,8555555555555555;0,8177777777777777;0,023674750836291666;2;0,41878419264808;0,3870781539144384;0,5649869034132587;0,49891568442604056;0,5704745989668218;0,4880479066737279;0,07459789603981921;11;0,23529411764705882;0,17647058823529413;0,2;0,3142857142857143;0,37142857142857144;0,25949579831932773;0,0728691120599718;30;0,5714285714285714;0,35294117647058826;0,6363636363636364;0,5;0,7647058823529411;0,5650878533231475;0,13726648579873135;2;0,3333333333333333;0,23529411764705885;0,30434782608695654;0,38596491228070173;0,5;0,3517880378696101;0,08865306280707293;9
4,774482727050781;0,0012635312950006264;2,3616854667663576;0,0026012830602355585;1000;{0.0: 1.0, 1.0: 4.202312138728324};0.01;poly;{'C': 1000, 'class_weight': {0.0: 1.0, 1.0: 4.202312138728324}, 'gamma': 0.01, 'kernel': 'poly'};34,0;34,0;0,0;0,0;0,0;13,6;16,65653025092561;5;0,0;0,0;145,0;145,0;145,0;87,0;71,03520254071216;12;146,0;146,0;0,0;0,0;0,0;58,4;71,5251004892688;1;0,0;0,0;35,0;35,0;35,0;21,0;17,146428199482248;8;0,8098307816277196;0,6559226430298147;0,7460098522167486;0,6833497536945813;0,784039408866995;0,7358304878871718;0,058383652035516306;22;0,18888888888888888;0,18888888888888888;0,8055555555555556;0,8055555555555556;0,8055555555555556;0,5588888888888889;0,30210373494325865;12;0,4824560951321444;0,320004622956273;0,5034044308751007;0,3361285576116747;0,48895864949066;0,4261904712131706;0,08056580274228071;20;1,0;1,0;0,0;0,0;0,0;0,4;0,48989794855663565;5;0,18888888888888888;0,18888888888888888;0,0;0,0;0,0;0,07555555555555556;0,09253627917180894;11;0,3177570093457944;0,3177570093457944;0,0;0,0;0,0;0,12710280373831775;0,15566850701799634;11
4,446448421478271;0,03622303220827052;1,7274527072906494;0,034403532481649485;1000;{0.0: 1.0, 1.0: 4.202312138728324};0.01;rbf;{'C': 1000, 'class_weight': {0.0: 1.0, 1.0: 4.202312138728324}, 'gamma': 0.01, 'kernel': 'rbf'};9,0;6,0;8,0;11,0;13,0;9,4;2,4166091947189146;28;138,0;134,0;141,0;131,0;141,0;137,0;3,9496835316262997;5;8,0;12,0;4,0;14,0;4,0;8,4;4,079215610874228;28;25,0;28,0;27,0;24,0;22,0;25,2;2,1354156504062622;4;0,7568493150684931;0,6726430298146656;0,8;0,6973399014778326;0,7251231527093596;0,7303910798140703;0,04472227343585653;32;0,8166666666666667;0,7777777777777778;0,8277777777777777;0,7888888888888889;0,8555555555555555;0,8133333333333332;0,0277999911182151;6;0,4104431665288515;0,37326869011020525;0,5479243895380309;0,4950142226914411;0,5572210523845478;0,4767743042506153;0,07345738973923033;16;0,2647058823529412;0,17647058823529413;0,22857142857142856;0,3142857142857143;0,37142857142857144;0,2710924369747899;0,06743162103411476;28;0,5294117647058824;0,3333333333333333;0,6666666666666666;0,44;0,7647058823529411;0,5468235294117647;0,15435517294735987;5;0,35294117647058826;0,23076923076923078;0,3404255319148936;0,3666666666666667;0,5;0,3581605211642759;0,08574509261633534;8
4,775244855880738;0,006516567106048355;2,3668334007263185;0,009621230285878605;1000;{0.0: 1.0, 1.0: 4.202312138728324};0.001;poly;{'C': 1000, 'class_weight': {0.0: 1.0, 1.0: 4.202312138728324}, 'gamma': 0.001, 'kernel': 'poly'};34,0;34,0;0,0;0,0;0,0;13,6;16,65653025092561;5;0,0;0,0;145,0;145,0;145,0;87,0;71,03520254071216;12;146,0;146,0;0,0;0,0;0,0;58,4;71,5251004892688;1;0,0;0,0;35,0;35,0;35,0;21,0;17,146428199482248;8;0,8090249798549558;0,6551168412570508;0,7467980295566503;0,6835467980295566;0,7838423645320197;0,7356658026460468;0,05836266322739213;26;0,18888888888888888;0,18888888888888888;0,8055555555555556;0,8055555555555556;0,8055555555555556;0,5588888888888889;0,30210373494325865;12;0,4814814671986767;0,3187728270102652;0,5032025038488823;0,33619408841115045;0,48926667286708736;0,42578351186721247;0,08075100711055207;31;1,0;1,0;0,0;0,0;0,0;0,4;0,48989794855663565;5;0,18888888888888888;0,18888888888888888;0,0;0,0;0,0;0,07555555555555556;0,09253627917180894;11;0,3177570093457944;0,3177570093457944;0,0;0,0;0,0;0,12710280373831775;0,15566850701799634;11
4,422878742218018;0,03294251699194117;1,7347936153411865;0,025399182003926556;1000;{0.0: 1.0, 1.0: 4.202312138728324};0.001;rbf;{'C': 1000, 'class_weight': {0.0: 1.0, 1.0: 4.202312138728324}, 'gamma': 0.001, 'kernel': 'rbf'};9,0;6,0;11,0;12,0;13,0;10,2;2,481934729198171;26;138,0;134,0;140,0;130,0;141,0;136,6;4,079215610874227;7;8,0;12,0;5,0;15,0;4,0;8,8;4,166533331199932;26;25,0;28,0;24,0;23,0;22,0;24,4;2,0591260281974;7;0,7546333601933923;0,6742546333601934;0,8033497536945813;0,6955665024630542;0,7245320197044335;0,7304672538831309;0,04540706472227127;31;0,8166666666666667;0,7777777777777778;0,8388888888888889;0,7888888888888889;0,8555555555555555;0,8155555555555555;0,029270977494043306;4;0,40575025204620535;0,37337592800783537;0,551795460705702;0,5025567090765223;0,560291347443458;0,4787539394559445;0,07613678249254827;15;0,2647058823529412;0,17647058823529413;0,3142857142857143;0,34285714285714286;0,37142857142857144;0,2939495798319328;0,06850548814981913;26;0,5294117647058824;0,3333333333333333;0,6875;0,4444444444444444;0,7647058823529411;0,5518790849673202;0,15716074974432728;4;0,35294117647058826;0,23076923076923078;0,43137254901960786;0,3870967741935484;0,5;0,38043594609059506;0,08954390561926551;5
4,777563571929932;0,0026104486743108142;2,368023633956909;0,009610564853214525;1000;{0.0: 1.0, 1.0: 4.202312138728324};0.0001;poly;{'C': 1000, 'class_weight': {0.0: 1.0, 1.0: 4.202312138728324}, 'gamma': 0.0001, 'kernel': 'poly'};34,0;34,0;0,0;0,0;0,0;13,6;16,65653025092561;5;0,0;0,0;145,0;145,0;145,0;87,0;71,03520254071216;12;146,0;146,0;0,0;0,0;0,0;58,4;71,5251004892688;1;0,0;0,0;35,0;35,0;35,0;21,0;17,146428199482248;8;0,8098307816277196;0,6565269943593877;0,7460098522167486;0,6835467980295566;0,783448275862069;0,7358725404190963;0,058085688654306696;18;0,18888888888888888;0,18888888888888888;0,8055555555555556;0,8055555555555556;0,8055555555555556;0,5588888888888889;0,30210373494325865;12;0,48281040131415054;0,3199449604962786;0,5029430605759448;0,3363075765876862;0,48871414838318405;0,4261440294714488;0,08046492300992135;25;1,0;1,0;0,0;0,0;0,0;0,4;0,48989794855663565;5;0,18888888888888888;0,18888888888888888;0,0;0,0;0,0;0,07555555555555556;0,09253627917180894;11;0,3177570093457944;0,3177570093457944;0,0;0,0;0,0;0,12710280373831775;0,15566850701799634;11
4,28425612449646;0,029322411306904033;2,1344882011413575;0,017926928646756966;1000;{0.0: 1.0, 1.0: 4.202312138728324};0.0001;rbf;{'C': 1000, 'class_weight': {0.0: 1.0, 1.0: 4.202312138728324}, 'gamma': 0.0001, 'kernel': 'rbf'};25,0;15,0;21,0;19,0;22,0;20,4;3,3226495451672298;1;116,0;108,0;126,0;110,0;114,0;114,8;6,273754856543249;10;30,0;38,0;19,0;35,0;31,0;30,6;6,468384651518491;22;9,0;19,0;14,0;16,0;13,0;14,2;3,3105890714493698;31;0,814262691377921;0,7143432715551974;0,785615763546798;0,7148768472906403;0,7879802955665024;0,7634157738674118;0,04109939699021866;4;0,7833333333333333;0,6833333333333333;0,8166666666666667;0,7166666666666667;0,7555555555555555;0,7511111111111111;0,04719280129243399;8;0,503113115070398;0,39433860235544016;0,5686902388942483;0,4559043904781116;0,5868856961421507;0,5017864085880698;0,07123196200019705;4;0,7352941176470589;0,4411764705882353;0,6;0,5428571428571428;0,6285714285714286;0,5895798319327731;0,0970238577928345;1;0,45454545454545453;0,2830188679245283;0,525;0,35185185185185186;0,41509433962264153;0,40590210278889527;0,08325467079427491;7;0,5617977528089887;0,3448275862068966;0,56;0,42696629213483145;0,5000000000000001;0,4787183262301434;0,08314663498533269;1
