mean_fit_time;std_fit_time;mean_score_time;std_score_time;param_C;param_class_weight;param_gamma;param_kernel;params;split0_test_tp;split1_test_tp;split2_test_tp;split3_test_tp;split4_test_tp;mean_test_tp;std_test_tp;rank_test_tp;split0_test_tn;split1_test_tn;split2_test_tn;split3_test_tn;split4_test_tn;mean_test_tn;std_test_tn;rank_test_tn;split0_test_fp;split1_test_fp;split2_test_fp;split3_test_fp;split4_test_fp;mean_test_fp;std_test_fp;rank_test_fp;split0_test_fn;split1_test_fn;split2_test_fn;split3_test_fn;split4_test_fn;mean_test_fn;std_test_fn;rank_test_fn;split0_test_AUC;split1_test_AUC;split2_test_AUC;split3_test_AUC;split4_test_AUC;mean_test_AUC;std_test_AUC;rank_test_AUC;split0_test_Accuracy;split1_test_Accuracy;split2_test_Accuracy;split3_test_Accuracy;split4_test_Accuracy;mean_test_Accuracy;std_test_Accuracy;rank_test_Accuracy;split0_test_Average_Precision;split1_test_Average_Precision;split2_test_Average_Precision;split3_test_Average_Precision;split4_test_Average_Precision;mean_test_Average_Precision;std_test_Average_Precision;rank_test_Average_Precision;split0_test_Recall;split1_test_Recall;split2_test_Recall;split3_test_Recall;split4_test_Recall;mean_test_Recall;std_test_Recall;rank_test_Recall;split0_test_Precision;split1_test_Precision;split2_test_Precision;split3_test_Precision;split4_test_Precision;mean_test_Precision;std_test_Precision;rank_test_Precision;split0_test_F1;split1_test_F1;split2_test_F1;split3_test_F1;split4_test_F1;mean_test_F1;std_test_F1;rank_test_F1
7,500178003311158;0,1408395228415463;3,690181827545166;0,21700511793440613;1;{0.0: 1.0, 1.0: 4.202312138728324};0.1;poly;{'C': 1, 'class_weight': {0.0: 1.0, 1.0: 4.202312138728324}, 'gamma': 0.1, 'kernel': 'poly'};34,0;34,0;0,0;0,0;0,0;13,6;16,65653025092561;8;0,0;0,0;145,0;145,0;145,0;87,0;71,03520254071216;15;146,0;146,0;0,0;0,0;0,0;58,4;71,5251004892688;1;0,0;0,0;35,0;35,0;35,0;21,0;17,146428199482248;8;0,83883964544722;0,7040692989524577;0,7004926108374385;0,7446305418719212;0,7568472906403941;0,7489758775498864;0,050047109445678986;29;0,18888888888888888;0,18888888888888888;0,8055555555555556;0,8055555555555556;0,8055555555555556;0,5588888888888889;0,30210373494325865;15;0,5644959325726155;0,3881036569773436;0,41040510560190724;0,43058200855144396;0,433872752067494;0,4454918911541609;0,06171509184727903;20;1,0;1,0;0,0;0,0;0,0;0,4;0,48989794855663565;8;0,18888888888888888;0,18888888888888888;0,0;0,0;0,0;0,07555555555555556;0,09253627917180894;15;0,3177570093457944;0,3177570093457944;0,0;0,0;0,0;0,12710280373831775;0,15566850701799634;14
6,699026346206665;0,13803231938735455;3,450311374664307;0,18910405014647835;1;{0.0: 1.0, 1.0: 4.202312138728324};0.1;rbf;{'C': 1, 'class_weight': {0.0: 1.0, 1.0: 4.202312138728324}, 'gamma': 0.1, 'kernel': 'rbf'};26,0;18,0;20,0;21,0;26,0;22,2;3,249615361854384;1;114,0;112,0;117,0;110,0;106,0;111,8;3,7094473981982814;11;32,0;34,0;28,0;35,0;39,0;33,6;3,6110940170535577;22;8,0;16,0;15,0;14,0;9,0;12,4;3,2619012860600183;31;0,830983078162772;0,734689766317486;0,762167487684729;0,8011822660098522;0,8171428571428572;0,7892330910635392;0,03569963699506882;10;0,7777777777777778;0,7222222222222222;0,7611111111111111;0,7277777777777777;0,7333333333333333;0,7444444444444445;0,021372648957412616;9;0,6448265626993194;0,4159938695773828;0,5388196882019517;0,5185755167964934;0,5740325645412373;0,5384496403632768;0,07479669460672846;10;0,7647058823529411;0,5294117647058824;0,5714285714285714;0,6;0,7428571428571429;0,6416806722689075;0,09449743301865568;1;0,4482758620689655;0,34615384615384615;0,4166666666666667;0,375;0,4;0,39721927497789566;0,03491155327985407;11;0,5652173913043479;0,41860465116279066;0,48192771084337344;0,4615384615384615;0,52;0,4894576429697947;0,050057371202057666;2
7,200954961776733;0,2829354994144153;3,433098554611206;0,08051420610547713;1;{0.0: 1.0, 1.0: 4.202312138728324};0.01;poly;{'C': 1, 'class_weight': {0.0: 1.0, 1.0: 4.202312138728324}, 'gamma': 0.01, 'kernel': 'poly'};34,0;34,0;0,0;0,0;0,0;13,6;16,65653025092561;8;0,0;0,0;145,0;145,0;145,0;87,0;71,03520254071216;15;146,0;146,0;0,0;0,0;0,0;58,4;71,5251004892688;1;0,0;0,0;35,0;35,0;35,0;21,0;17,146428199482248;8;0,8392425463336018;0,7036663980660758;0,7006896551724139;0,7446305418719212;0,7568472906403941;0,7490152864168813;0,05022631385397737;21;0,18888888888888888;0,18888888888888888;0,8055555555555556;0,8055555555555556;0,8055555555555556;0,5588888888888889;0,30210373494325865;15;0,5608212708176092;0,38677316569636905;0,41058465283063483;0,43073845534570626;0,4341268621951081;0,44460888137708554;0,06051478999448158;24;1,0;1,0;0,0;0,0;0,0;0,4;0,48989794855663565;8;0,18888888888888888;0,18888888888888888;0,0;0,0;0,0;0,07555555555555556;0,09253627917180894;15;0,3177570093457944;0,3177570093457944;0,0;0,0;0,0;0,12710280373831775;0,15566850701799634;14
7,733746194839478;0,3572577151796035;4,019565010070801;0,23361553941602478;1;{0.0: 1.0, 1.0: 4.202312138728324};0.01;rbf;{'C': 1, 'class_weight': {0.0: 1.0, 1.0: 4.202312138728324}, 'gamma': 0.01, 'kernel': 'rbf'};34,0;32,0;5,0;7,0;7,0;17,0;13,099618315050252;7;24,0;33,0;142,0;139,0;139,0;95,4;54,70868304026336;12;122,0;113,0;3,0;6,0;6,0;50,0;55,19782604414779;21;0,0;2,0;30,0;28,0;28,0;17,6;13,588230201170424;26;0,8114423851732474;0,6899677679290894;0,7286699507389163;0,7491625615763547;0,7688669950738916;0,7496219320982999;0,04047210573768996;16;0,32222222222222224;0,3611111111111111;0,8166666666666667;0,8111111111111111;0,8111111111111111;0,6244444444444444;0,23122326338598415;14;0,553830626086641;0,3623059530991106;0,46188807970118023;0,4227463961523682;0,4551638232654708;0,4511869756609541;0,06224909742587926;14;1,0;0,9411764705882353;0,14285714285714285;0,2;0,2;0,4968067226890757;0,3878496392956768;7;0,21794871794871795;0,2206896551724138;0,625;0,5384615384615384;0,5384615384615384;0,4281122900088417;0,17338486674290196;7;0,3578947368421052;0,3575418994413408;0,23255813953488372;0,2916666666666667;0,2916666666666667;0,3062656218303326;0,04723107894726816;13
7,565689516067505;0,2370086528169162;3,912019443511963;0,14665842690011316;1;{0.0: 1.0, 1.0: 4.202312138728324};0.001;poly;{'C': 1, 'class_weight': {0.0: 1.0, 1.0: 4.202312138728324}, 'gamma': 0.001, 'kernel': 'poly'};34,0;34,0;0,0;0,0;0,0;13,6;16,65653025092561;8;0,0;0,0;145,0;145,0;145,0;87,0;71,03520254071216;15;146,0;146,0;0,0;0,0;0,0;58,4;71,5251004892688;1;0,0;0,0;35,0;35,0;35,0;21,0;17,146428199482248;8;0,839242546333602;0,7034649476228848;0,7004926108374385;0,7448275862068965;0,7570443349753694;0,7490144051952382;0,0503035670537104;24;0,18888888888888888;0,18888888888888888;0,8055555555555556;0,8055555555555556;0,8055555555555556;0,5588888888888889;0,30210373494325865;15;0,5607215890480135;0,3866722375266852;0,41039883606094074;0,43079747935515006;0,4344421102455478;0,4446064504472675;0,06050332357046293;26;1,0;1,0;0,0;0,0;0,0;0,4;0,48989794855663565;8;0,18888888888888888;0,18888888888888888;0,0;0,0;0,0;0,07555555555555556;0,09253627917180894;15;0,3177570093457944;0,3177570093457944;0,0;0,0;0,0;0,12710280373831775;0,15566850701799634;14
7,528344011306762;0,32132033557805406;3,8607826232910156;0,10982770151855722;1;{0.0: 1.0, 1.0: 4.202312138728324};0.001;rbf;{'C': 1, 'class_weight': {0.0: 1.0, 1.0: 4.202312138728324}, 'gamma': 0.001, 'kernel': 'rbf'};34,0;34,0;0,0;0,0;0,0;13,6;16,65653025092561;8;0,0;0,0;145,0;145,0;145,0;87,0;71,03520254071216;15;146,0;146,0;0,0;0,0;0,0;58,4;71,5251004892688;1;0,0;0,0;35,0;35,0;35,0;21,0;17,146428199482248;8;0,8116438356164383;0,6899677679290894;0,7286699507389163;0,74935960591133;0,7688669950738916;0,7497016310539332;0,040533272372137816;12;0,18888888888888888;0,18888888888888888;0,8055555555555556;0,8055555555555556;0,8055555555555556;0,5588888888888889;0,30210373494325865;15;0,553953175106249;0,3623059530991106;0,46188807970118023;0,42288053431467537;0,4551638232654708;0,45123831309733714;0,06227728046189363;12;1,0;1,0;0,0;0,0;0,0;0,4;0,48989794855663565;8;0,18888888888888888;0,18888888888888888;0,0;0,0;0,0;0,07555555555555556;0,09253627917180894;15;0,3177570093457944;0,3177570093457944;0,0;0,0;0,0;0,12710280373831775;0,15566850701799634;14
7,5407881259918215;0,3390900784764546;3,6119214057922364;0,1641211998840992;1;{0.0: 1.0, 1.0: 4.202312138728324};0.0001;poly;{'C': 1, 'class_weight': {0.0: 1.0, 1.0: 4.202312138728324}, 'gamma': 0.0001, 'kernel': 'poly'};34,0;34,0;0,0;0,0;0,0;13,6;16,65653025092561;8;0,0;0,0;145,0;145,0;145,0;87,0;71,03520254071216;15;146,0;146,0;0,0;0,0;0,0;58,4;71,5251004892688;1;0,0;0,0;35,0;35,0;35,0;21,0;17,146428199482248;8;0,83883964544722;0,7036663980660758;0,7006896551724138;0,7446305418719212;0,7568472906403941;0,748934706239605;0,05008160858857891;31;0,18888888888888888;0,18888888888888888;0,8055555555555556;0,8055555555555556;0,8055555555555556;0,5588888888888889;0,30210373494325865;15;0,5605516217051987;0,38680834830902633;0,41054010344910535;0,4307384553457063;0,433872752067494;0,44450225617530614;0,06041837242664861;30;1,0;1,0;0,0;0,0;0,0;0,4;0,48989794855663565;8;0,18888888888888888;0,18888888888888888;0,0;0,0;0,0;0,07555555555555556;0,09253627917180894;15;0,3177570093457944;0,3177570093457944;0,0;0,0;0,0;0,12710280373831775;0,15566850701799634;14
7,606671380996704;0,19769502745422546;3,8765918731689455;0,17934437592615093;1;{0.0: 1.0, 1.0: 4.202312138728324};0.0001;rbf;{'C': 1, 'class_weight': {0.0: 1.0, 1.0: 4.202312138728324}, 'gamma': 0.0001, 'kernel': 'rbf'};34,0;34,0;0,0;0,0;0,0;13,6;16,65653025092561;8;0,0;0,0;145,0;145,0;145,0;87,0;71,03520254071216;15;146,0;146,0;0,0;0,0;0,0;58,4;71,5251004892688;1;0,0;0,0;35,0;35,0;35,0;21,0;17,146428199482248;8;0,8112409347300563;0,6901692183722804;0,7286699507389163;0,74935960591133;0,7686699507389163;0,7496219320982999;0,04033214104598473;16;0,18888888888888888;0,18888888888888888;0,8055555555555556;0,8055555555555556;0,8055555555555556;0,5588888888888889;0,30210373494325865;15;0,5523352929689376;0,3623438791160559;0,46188807970118023;0,42288053431467537;0,4547579791096266;0,45084115304209516;0,06172843793018665;17;1,0;1,0;0,0;0,0;0,0;0,4;0,48989794855663565;8;0,18888888888888888;0,18888888888888888;0,0;0,0;0,0;0,07555555555555556;0,09253627917180894;15;0,3177570093457944;0,3177570093457944;0,0;0,0;0,0;0,12710280373831775;0,15566850701799634;14
7,539650630950928;0,31639819579939776;3,7827868461608887;0,19510102001712748;10;{0.0: 1.0, 1.0: 4.202312138728324};0.1;poly;{'C': 10, 'class_weight': {0.0: 1.0, 1.0: 4.202312138728324}, 'gamma': 0.1, 'kernel': 'poly'};34,0;34,0;0,0;0,0;0,0;13,6;16,65653025092561;8;0,0;0,0;145,0;145,0;145,0;87,0;71,03520254071216;15;146,0;146,0;0,0;0,0;0,0;58,4;71,5251004892688;1;0,0;0,0;35,0;35,0;35,0;21,0;17,146428199482248;8;0,83883964544722;0,7040692989524576;0,7010837438423646;0,7446305418719212;0,7570443349753694;0,7491335130178667;0,04993918652875563;19;0,18888888888888888;0,18888888888888888;0,8055555555555556;0,8055555555555556;0,8055555555555556;0,5588888888888889;0,30210373494325865;15;0,5644959325726155;0,3879535848272715;0,41073895397503496;0,43058200855144396;0,4344421102455478;0,4456425180343828;0,06168415359967004;19;1,0;1,0;0,0;0,0;0,0;0,4;0,48989794855663565;8;0,18888888888888888;0,18888888888888888;0,0;0,0;0,0;0,07555555555555556;0,09253627917180894;15;0,3177570093457944;0,3177570093457944;0,0;0,0;0,0;0,12710280373831775;0,15566850701799634;14
6,778616094589234;0,2622084167183782;2,7602706432342528;0,13320141640975613;10;{0.0: 1.0, 1.0: 4.202312138728324};0.1;rbf;{'C': 10, 'class_weight': {0.0: 1.0, 1.0: 4.202312138728324}, 'gamma': 0.1, 'kernel': 'rbf'};11,0;13,0;12,0;11,0;15,0;12,4;1,4966629547095764;29;136,0;132,0;138,0;138,0;134,0;135,6;2,33238075793812;4;10,0;14,0;7,0;7,0;11,0;9,8;2,6381811916545836;29;23,0;21,0;23,0;24,0;20,0;22,2;1,469693845669907;2;0,8041901692183723;0,7556406124093473;0,7773399014778325;0,8094581280788178;0,8642364532019704;0,802173052877268;0,03658130714782599;1;0,8166666666666667;0,8055555555555556;0,8333333333333334;0,8277777777777777;0,8277777777777777;0,8222222222222222;0,009938079899999055;4;0,5610536942453035;0,46208514816128604;0,5691496365773069;0,5531490618719445;0,656804798456832;0,5604484678625345;0,061788741809556805;3;0,3235294117647059;0,38235294117647056;0,34285714285714286;0,3142857142857143;0,42857142857142855;0,35831932773109243;0,042193243001229556;29;0,5238095238095238;0,48148148148148145;0,631578947368421;0,6111111111111112;0,5769230769230769;0,5649808281387229;0,05544934082642788;4;0,39999999999999997;0,4262295081967213;0,4444444444444445;0,41509433962264153;0,4918032786885245;0,4355143141904664;0,031662735973784474;10
7,472925662994385;0,3031078532677294;3,804493808746338;0,25774914581737407;10;{0.0: 1.0, 1.0: 4.202312138728324};0.01;poly;{'C': 10, 'class_weight': {0.0: 1.0, 1.0: 4.202312138728324}, 'gamma': 0.01, 'kernel': 'poly'};34,0;34,0;0,0;0,0;0,0;13,6;16,65653025092561;8;0,0;0,0;145,0;145,0;145,0;87,0;71,03520254071216;15;146,0;146,0;0,0;0,0;0,0;58,4;71,5251004892688;1;0,0;0,0;35,0;35,0;35,0;21,0;17,146428199482248;8;0,838436744560838;0,7036663980660758;0,70128078817734;0,7446305418719212;0,7570443349753694;0,7490117615303089;0,04982969539698391;27;0,18888888888888888;0,18888888888888888;0,8055555555555556;0,8055555555555556;0,8055555555555556;0,5588888888888889;0,30210373494325865;15;0,5557446639570645;0,38680834830902633;0,411101728068495;0,43073845534570626;0,4344421102455478;0,44376706118516795;0,05849273760530784;32;1,0;1,0;0,0;0,0;0,0;0,4;0,48989794855663565;8;0,18888888888888888;0,18888888888888888;0,0;0,0;0,0;0,07555555555555556;0,09253627917180894;15;0,3177570093457944;0,3177570093457944;0,0;0,0;0,0;0,12710280373831775;0,15566850701799634;14
6,502830219268799;0,413708831145994;3,0529027938842774;0,08933664454069412;10;{0.0: 1.0, 1.0: 4.202312138728324};0.01;rbf;{'C': 10, 'class_weight': {0.0: 1.0, 1.0: 4.202312138728324}, 'gamma': 0.01, 'kernel': 'rbf'};26,0;18,0;20,0;21,0;26,0;22,2;3,249615361854384;1;115,0;112,0;117,0;110,0;106,0;112,0;3,847076812334269;8;31,0;34,0;28,0;35,0;39,0;33,4;3,7202150475476548;23;8,0;16,0;15,0;14,0;9,0;12,4;3,2619012860600183;31;0,8325946817082998;0,7401289282836422;0,7666995073891626;0,8045320197044334;0,8222660098522168;0,7932442293875509;0,03476778257742447;9;0,7833333333333333;0,7222222222222222;0,7611111111111111;0,7277777777777777;0,7333333333333333;0,7455555555555555;0,02314740739555518;8;0,6438378306018302;0,42361109332545477;0,5483207968573036;0,5186321664137289;0,582120515829545;0,5433044806055725;0,07290271946489432;9;0,7647058823529411;0,5294117647058824;0,5714285714285714;0,6;0,7428571428571429;0,6416806722689075;0,09449743301865568;1;0,45614035087719296;0,34615384615384615;0,4166666666666667;0,375;0,4;0,39879217273954115;0,03727366583785461;10;0,5714285714285713;0,41860465116279066;0,48192771084337344;0,4615384615384615;0,52;0,4906998789946394;0,0519628327774283;1
7,598646545410157;0,17931101754744458;3,6268422603607178;0,05156114793569561;10;{0.0: 1.0, 1.0: 4.202312138728324};0.001;poly;{'C': 10, 'class_weight': {0.0: 1.0, 1.0: 4.202312138728324}, 'gamma': 0.001, 'kernel': 'poly'};34,0;34,0;0,0;0,0;0,0;13,6;16,65653025092561;8;0,0;0,0;145,0;145,0;145,0;87,0;71,03520254071216;15;146,0;146,0;0,0;0,0;0,0;58,4;71,5251004892688;1;0,0;0,0;35,0;35,0;35,0;21,0;17,146428199482248;8;0,839242546333602;0,7034649476228848;0,7004926108374385;0,7448275862068965;0,7570443349753694;0,7490144051952382;0,0503035670537104;24;0,18888888888888888;0,18888888888888888;0,8055555555555556;0,8055555555555556;0,8055555555555556;0,5588888888888889;0,30210373494325865;15;0,5607215890480135;0,3866722375266852;0,41039883606094074;0,43079747935515006;0,4344421102455478;0,4446064504472675;0,06050332357046293;26;1,0;1,0;0,0;0,0;0,0;0,4;0,48989794855663565;8;0,18888888888888888;0,18888888888888888;0,0;0,0;0,0;0,07555555555555556;0,09253627917180894;15;0,3177570093457944;0,3177570093457944;0,0;0,0;0,0;0,12710280373831775;0,15566850701799634;14
7,93944091796875;0,3879122461474285;4,017047500610351;0,22073926619156925;10;{0.0: 1.0, 1.0: 4.202312138728324};0.001;rbf;{'C': 10, 'class_weight': {0.0: 1.0, 1.0: 4.202312138728324}, 'gamma': 0.001, 'kernel': 'rbf'};34,0;32,0;6,0;7,0;9,0;17,6;12,626955294131678;5;26,0;34,0;140,0;137,0;138,0;95,0;53,14132102234569;13;120,0;112,0;5,0;8,0;7,0;50,4;53,63058828690955;19;0,0;2,0;29,0;28,0;26,0;17,0;13,114877048604;27;0,8116438356164383;0,6899677679290894;0,7286699507389163;0,74935960591133;0,7688669950738916;0,7497016310539332;0,040533272372137816;12;0,3333333333333333;0,36666666666666664;0,8111111111111111;0,8;0,8166666666666667;0,6255555555555554;0,22530089619697588;12;0,553953175106249;0,3623059530991106;0,46188807970118023;0,42288053431467537;0,4551638232654708;0,45123831309733714;0,06227728046189363;12;1,0;0,9411764705882353;0,17142857142857143;0,2;0,2571428571428571;0,5139495798319328;0,3743267288942799;5;0,22077922077922077;0,2222222222222222;0,5454545454545454;0,4666666666666667;0,5625;0,403524531024531;0,15209906878033588;8;0,3617021276595745;0,3595505617977528;0,26086956521739124;0,27999999999999997;0,3529411764705882;0,3230126862290613;0,04344988474812382;11
7,034636211395264;0,32414068136019564;3,849676418304443;0,3180248002935874;10;{0.0: 1.0, 1.0: 4.202312138728324};0.0001;poly;{'C': 10, 'class_weight': {0.0: 1.0, 1.0: 4.202312138728324}, 'gamma': 0.0001, 'kernel': 'poly'};34,0;34,0;0,0;0,0;0,0;13,6;16,65653025092561;8;0,0;0,0;145,0;145,0;145,0;87,0;71,03520254071216;15;146,0;146,0;0,0;0,0;0,0;58,4;71,5251004892688;1;0,0;0,0;35,0;35,0;35,0;21,0;17,146428199482248;8;0,839041095890411;0,7034649476228848;0,7002955665024632;0,7447290640394089;0,7566502463054187;0,7488361840721173;0,050258521209185406;32;0,18888888888888888;0,18888888888888888;0,8055555555555556;0,8055555555555556;0,8055555555555556;0,5588888888888889;0,30210373494325865;15;0,5606832484299626;0,3866722375266852;0,41036268633535;0,4307384553457063;0,43383596389164647;0,4444585183058701;0,06051619070362059;31;1,0;1,0;0,0;0,0;0,0;0,4;0,48989794855663565;8;0,18888888888888888;0,18888888888888888;0,0;0,0;0,0;0,07555555555555556;0,09253627917180894;15;0,3177570093457944;0,3177570093457944;0,0;0,0;0,0;0,12710280373831775;0,15566850701799634;14
7,4785728931427;0,132258053947755;3,8488559246063234;0,2759738085612456;10;{0.0: 1.0, 1.0: 4.202312138728324};0.0001;rbf;{'C': 10, 'class_weight': {0.0: 1.0, 1.0: 4.202312138728324}, 'gamma': 0.0001, 'kernel': 'rbf'};34,0;34,0;0,0;0,0;0,0;13,6;16,65653025092561;8;0,0;0,0;145,0;145,0;145,0;87,0;71,03520254071216;15;146,0;146,0;0,0;0,0;0,0;58,4;71,5251004892688;1;0,0;0,0;35,0;35,0;35,0;21,0;17,146428199482248;8;0,8116438356164383;0,6899677679290894;0,7286699507389163;0,74935960591133;0,7686699507389163;0,749662222186938;0,04051471104260715;14;0,18888888888888888;0,18888888888888888;0,8055555555555556;0,8055555555555556;0,8055555555555556;0,5588888888888889;0,30210373494325865;15;0,553953175106249;0,3621828444949383;0,46188807970118023;0,42288053431467537;0,4547579791096266;0,45113252254533387;0,06230751576228819;16;1,0;1,0;0,0;0,0;0,0;0,4;0,48989794855663565;8;0,18888888888888888;0,18888888888888888;0,0;0,0;0,0;0,07555555555555556;0,09253627917180894;15;0,3177570093457944;0,3177570093457944;0,0;0,0;0,0;0,12710280373831775;0,15566850701799634;14
7,275369882583618;0,2762608032600129;3,54051194190979;0,10239642013351143;100;{0.0: 1.0, 1.0: 4.202312138728324};0.1;poly;{'C': 100, 'class_weight': {0.0: 1.0, 1.0: 4.202312138728324}, 'gamma': 0.1, 'kernel': 'poly'};34,0;34,0;0,0;0,0;0,0;13,6;16,65653025092561;8;0,0;0,0;145,0;145,0;145,0;87,0;71,03520254071216;15;146,0;146,0;0,0;0,0;0,0;58,4;71,5251004892688;1;0,0;0,0;35,0;35,0;35,0;21,0;17,146428199482248;8;0,83883964544722;0,7040692989524576;0,70128078817734;0,7448275862068965;0,7570443349753694;0,7492123307518568;0,04989779134991374;18;0,18888888888888888;0,18888888888888888;0,8055555555555556;0,8055555555555556;0,8055555555555556;0,5588888888888889;0,30210373494325865;15;0,5644959325726155;0,3879535848272715;0,4107819665180475;0,43079747935515006;0,4344421102455478;0,4456942147037265;0,06166881895948814;18;1,0;1,0;0,0;0,0;0,0;0,4;0,48989794855663565;8;0,18888888888888888;0,18888888888888888;0,0;0,0;0,0;0,07555555555555556;0,09253627917180894;15;0,3177570093457944;0,3177570093457944;0,0;0,0;0,0;0,12710280373831775;0,15566850701799634;14
6,959437704086303;0,26463497996493957;2,6327601432800294;0,04801385781937613;100;{0.0: 1.0, 1.0: 4.202312138728324};0.1;rbf;{'C': 100, 'class_weight': {0.0: 1.0, 1.0: 4.202312138728324}, 'gamma': 0.1, 'kernel': 'rbf'};11,0;13,0;12,0;10,0;16,0;12,4;2,0591260281974;29;136,0;133,0;140,0;138,0;138,0;137,0;2,3664319132398464;2;10,0;13,0;5,0;7,0;7,0;8,4;2,8000000000000003;30;23,0;21,0;23,0;25,0;19,0;22,2;2,039607805437114;2;0,8007655116841257;0,7572522159548751;0,7800985221674878;0,81064039408867;0,8620689655172414;0,80216512188248;0,035117982777311915;2;0,8166666666666667;0,8111111111111111;0,8444444444444444;0,8222222222222222;0,8555555555555555;0,8299999999999998;0,017069212773041343;1;0,5444504566857804;0,4709337075113956;0,5778817333354318;0,5560573234228512;0,6646949183345053;0,5628036278579929;0,06234038517663503;1;0,3235294117647059;0,38235294117647056;0,34285714285714286;0,2857142857142857;0,45714285714285713;0,3583193277310924;0,058420226088104946;30;0,5238095238095238;0,5;0,7058823529411765;0,5882352941176471;0,6956521739130435;0,6027158689562782;0,08516681077079544;1;0,39999999999999997;0,4333333333333333;0,46153846153846156;0,3846153846153846;0,5517241379310345;0,4462422634836427;0,0590986617794798;5
7,588401937484742;0,2555229744937945;3,759494495391846;0,22193113239563692;100;{0.0: 1.0, 1.0: 4.202312138728324};0.01;poly;{'C': 100, 'class_weight': {0.0: 1.0, 1.0: 4.202312138728324}, 'gamma': 0.01, 'kernel': 'poly'};34,0;34,0;0,0;0,0;0,0;13,6;16,65653025092561;8;0,0;0,0;145,0;145,0;145,0;87,0;71,03520254071216;15;146,0;146,0;0,0;0,0;0,0;58,4;71,5251004892688;1;0,0;0,0;35,0;35,0;35,0;21,0;17,146428199482248;8;0,8380338436744561;0,7038678485092666;0,701871921182266;0,7442364532019705;0,7570443349753694;0,7490108803086657;0,04954269742770961;28;0,18888888888888888;0,18888888888888888;0,8055555555555556;0,8055555555555556;0,8055555555555556;0,5588888888888889;0,30210373494325865;15;0,5608062786207553;0,38694391614458895;0,4114600255066335;0,4304855761924565;0,4344421102455478;0,4448275813419963;0,0603796684707596;22;1,0;1,0;0,0;0,0;0,0;0,4;0,48989794855663565;8;0,18888888888888888;0,18888888888888888;0,0;0,0;0,0;0,07555555555555556;0,09253627917180894;15;0,3177570093457944;0,3177570093457944;0,0;0,0;0,0;0,12710280373831775;0,15566850701799634;14
6,648297834396362;0,24012153637939704;2,6217920780181885;0,10640926638442895;100;{0.0: 1.0, 1.0: 4.202312138728324};0.01;rbf;{'C': 100, 'class_weight': {0.0: 1.0, 1.0: 4.202312138728324}, 'gamma': 0.01, 'kernel': 'rbf'};12,0;13,0;11,0;11,0;17,0;12,8;2,2271057451320084;26;134,0;132,0;137,0;137,0;134,0;134,8;1,9390719429665317;6;12,0;14,0;8,0;8,0;11,0;10,6;2,33238075793812;27;22,0;21,0;24,0;24,0;18,0;21,8;2,227105745132009;5;0,8013698630136986;0,7487912973408541;0,7739901477832513;0,8043349753694581;0,865615763546798;0,798820409410812;0,03903327665605037;5;0,8111111111111111;0,8055555555555556;0,8222222222222222;0,8222222222222222;0,8388888888888889;0,82;0,011439589045541107;5;0,5587548563862272;0,45402553604030826;0,5578426052382774;0,5436698545464411;0,657857527718625;0,5544300759859759;0,06469071163690608;5;0,35294117647058826;0,38235294117647056;0,3142857142857143;0,3142857142857143;0,4857142857142857;0,36991596638655466;0,06331117198622922;26;0,5;0,48148148148148145;0,5789473684210527;0,5789473684210527;0,6071428571428571;0,5493038150932887;0,049261689805178616;5;0,41379310344827586;0,4262295081967213;0,40740740740740744;0,40740740740740744;0,5396825396825397;0,4389039932284703;0,05085584453833261;8
7,161443281173706;0,185295930347697;3,7184661388397218;0,21233453764740992;100;{0.0: 1.0, 1.0: 4.202312138728324};0.001;poly;{'C': 100, 'class_weight': {0.0: 1.0, 1.0: 4.202312138728324}, 'gamma': 0.001, 'kernel': 'poly'};34,0;34,0;0,0;0,0;0,0;13,6;16,65653025092561;8;0,0;0,0;145,0;145,0;145,0;87,0;71,03520254071216;15;146,0;146,0;0,0;0,0;0,0;58,4;71,5251004892688;1;0,0;0,0;35,0;35,0;35,0;21,0;17,146428199482248;8;0,839242546333602;0,7036663980660758;0,7006896551724139;0,7448275862068965;0,7570443349753694;0,7490941041508715;0,05022911134897142;20;0,18888888888888888;0,18888888888888888;0,8055555555555556;0,8055555555555556;0,8055555555555556;0,5588888888888889;0,30210373494325865;15;0,5607215890480135;0,38680834830902633;0,41058465283063483;0,43079747935515006;0,4344421102455478;0,44467083595767454;0,06045628090283028;23;1,0;1,0;0,0;0,0;0,0;0,4;0,48989794855663565;8;0,18888888888888888;0,18888888888888888;0,0;0,0;0,0;0,07555555555555556;0,09253627917180894;15;0,3177570093457944;0,3177570093457944;0,0;0,0;0,0;0,12710280373831775;0,15566850701799634;14
6,642811918258667;0,4076402016422084;3,2814467430114744;0,1655258072364042;100;{0.0: 1.0, 1.0: 4.202312138728324};0.001;rbf;{'C': 100, 'class_weight': {0.0: 1.0, 1.0: 4.202312138728324}, 'gamma': 0.001, 'kernel': 'rbf'};26,0;18,0;19,0;21,0;26,0;22,0;3,40587727318528;3;115,0;112,0;117,0;110,0;106,0;112,0;3,847076812334269;8;31,0;34,0;28,0;35,0;39,0;33,4;3,7202150475476548;23;8,0;16,0;16,0;14,0;9,0;12,6;3,4409301068170506;29;0,8325946817082998;0,7399274778404512;0,7661083743842364;0,8057142857142857;0,8230541871921183;0,7934798013678782;0,035132170836588074;8;0,7833333333333333;0,7222222222222222;0,7555555555555555;0,7277777777777777;0,7333333333333333;0,7444444444444445;0,022498285257018438;9;0,6437756108802963;0,423052714835349;0,5445236165606169;0,5227967565154058;0,5828376309120281;0,5433972659407391;0,07285576868983432;8;0,7647058823529411;0,5294117647058824;0,5428571428571428;0,6;0,7428571428571429;0,6359663865546218;0,09931393781576814;3;0,45614035087719296;0,34615384615384615;0,40425531914893614;0,375;0,4;0,3963099032359951;0,03640376615422836;12;0,5714285714285713;0,41860465116279066;0,46341463414634143;0,4615384615384615;0,52;0,486997263655233;0,05310304473732995;3
7,592946004867554;0,4013763953189677;3,7740222930908205;0,2307506814394486;100;{0.0: 1.0, 1.0: 4.202312138728324};0.0001;poly;{'C': 100, 'class_weight': {0.0: 1.0, 1.0: 4.202312138728324}, 'gamma': 0.0001, 'kernel': 'poly'};34,0;34,0;0,0;0,0;0,0;13,6;16,65653025092561;8;0,0;0,0;145,0;145,0;145,0;87,0;71,03520254071216;15;146,0;146,0;0,0;0,0;0,0;58,4;71,5251004892688;1;0,0;0,0;35,0;35,0;35,0;21,0;17,146428199482248;8;0,839242546333602;0,7034649476228848;0,7004926108374385;0,7448275862068966;0,7570443349753694;0,7490144051952383;0,0503035670537104;23;0,18888888888888888;0,18888888888888888;0,8055555555555556;0,8055555555555556;0,8055555555555556;0,5588888888888889;0,30210373494325865;15;0,5607215890480135;0,3866722375266852;0,41039883606094074;0,43079747935515006;0,4344421102455478;0,4446064504472675;0,06050332357046293;26;1,0;1,0;0,0;0,0;0,0;0,4;0,48989794855663565;8;0,18888888888888888;0,18888888888888888;0,0;0,0;0,0;0,07555555555555556;0,09253627917180894;15;0,3177570093457944;0,3177570093457944;0,0;0,0;0,0;0,12710280373831775;0,15566850701799634;14
8,056870365142823;0,40597455161595697;3,839955472946167;0,10969795936378833;100;{0.0: 1.0, 1.0: 4.202312138728324};0.0001;rbf;{'C': 100, 'class_weight': {0.0: 1.0, 1.0: 4.202312138728324}, 'gamma': 0.0001, 'kernel': 'rbf'};34,0;32,0;6,0;7,0;9,0;17,6;12,626955294131678;5;26,0;34,0;140,0;137,0;138,0;95,0;53,14132102234569;13;120,0;112,0;5,0;8,0;7,0;50,4;53,63058828690955;19;0,0;2,0;29,0;28,0;26,0;17,0;13,114877048604;27;0,8116438356164383;0,6899677679290894;0,7286699507389163;0,74935960591133;0,7686699507389163;0,749662222186938;0,04051471104260715;14;0,3333333333333333;0,36666666666666664;0,8111111111111111;0,8;0,8166666666666667;0,6255555555555554;0,22530089619697588;12;0,553953175106249;0,3623059530991106;0,46188807970118023;0,42288053431467537;0,4547579791096266;0,4511571442661683;0,062272375553705954;15;1,0;0,9411764705882353;0,17142857142857143;0,2;0,2571428571428571;0,5139495798319328;0,3743267288942799;5;0,22077922077922077;0,2222222222222222;0,5454545454545454;0,4666666666666667;0,5625;0,403524531024531;0,15209906878033588;8;0,3617021276595745;0,3595505617977528;0,26086956521739124;0,27999999999999997;0,3529411764705882;0,3230126862290613;0,04344988474812382;11
7,176392889022827;0,4391144020349934;3,8729105949401856;0,14750364179708453;1000;{0.0: 1.0, 1.0: 4.202312138728324};0.1;poly;{'C': 1000, 'class_weight': {0.0: 1.0, 1.0: 4.202312138728324}, 'gamma': 0.1, 'kernel': 'poly'};0,0;1,0;0,0;1,0;1,0;0,6;0,48989794855663565;32;146,0;145,0;145,0;144,0;144,0;144,8;0,7483314773547882;1;0,0;1,0;0,0;1,0;1,0;0,6;0,48989794855663565;32;34,0;33,0;35,0;34,0;34,0;34,0;0,6324555320336759;1;0,838638195004029;0,7280419016921837;0,7142857142857142;0,7503448275862069;0,7609852216748768;0,7584591720486021;0,043306821498514;11;0,8111111111111111;0,8111111111111111;0,8055555555555556;0,8055555555555556;0,8055555555555556;0,8077777777777777;0,002721655269759077;7;0,5578719121578425;0,4037217843560557;0,43683597683779646;0,45172880745852434;0,457703962887222;0,4615724887394882;0,05166051010754765;11;0,0;0,029411764705882353;0,0;0,02857142857142857;0,02857142857142857;0,017310924369747897;0,014137640904076028;32;0,0;0,5;0,0;0,5;0,5;0,3;0,24494897427831783;14;0,0;0,05555555555555555;0,0;0,05405405405405405;0,05405405405405405;0,032732732732732736;0,026731787488610072;32
6,815041255950928;0,1868409087515425;2,620857048034668;0,26551726283767135;1000;{0.0: 1.0, 1.0: 4.202312138728324};0.1;rbf;{'C': 1000, 'class_weight': {0.0: 1.0, 1.0: 4.202312138728324}, 'gamma': 0.1, 'kernel': 'rbf'};11,0;13,0;12,0;10,0;16,0;12,4;2,0591260281974;29;136,0;133,0;140,0;138,0;138,0;137,0;2,3664319132398464;2;10,0;13,0;5,0;7,0;7,0;8,4;2,8000000000000003;30;23,0;21,0;23,0;25,0;19,0;22,2;2,039607805437114;2;0,8007655116841257;0,7572522159548751;0,7800985221674878;0,81064039408867;0,8620689655172414;0,80216512188248;0,035117982777311915;2;0,8166666666666667;0,8111111111111111;0,8444444444444444;0,8222222222222222;0,8555555555555555;0,8299999999999998;0,017069212773041343;1;0,5444504566857804;0,4709337075113956;0,5778817333354318;0,5560573234228512;0,6646949183345053;0,5628036278579929;0,06234038517663503;1;0,3235294117647059;0,38235294117647056;0,34285714285714286;0,2857142857142857;0,45714285714285713;0,3583193277310924;0,058420226088104946;30;0,5238095238095238;0,5;0,7058823529411765;0,5882352941176471;0,6956521739130435;0,6027158689562782;0,08516681077079544;1;0,39999999999999997;0,4333333333333333;0,46153846153846156;0,3846153846153846;0,5517241379310345;0,4462422634836427;0,0590986617794798;5
7,441014575958252;0,509534728553484;3,825771522521973;0,1328510611480788;1000;{0.0: 1.0, 1.0: 4.202312138728324};0.01;poly;{'C': 1000, 'class_weight': {0.0: 1.0, 1.0: 4.202312138728324}, 'gamma': 0.01, 'kernel': 'poly'};34,0;34,0;0,0;0,0;0,0;13,6;16,65653025092561;8;0,0;0,0;145,0;145,0;145,0;87,0;71,03520254071216;15;146,0;146,0;0,0;0,0;0,0;58,4;71,5251004892688;1;0,0;0,0;35,0;35,0;35,0;21,0;17,146428199482248;8;0,83883964544722;0,7040692989524577;0,7004926108374385;0,7446305418719212;0,7568472906403941;0,7489758775498864;0,050047109445678986;29;0,18888888888888888;0,18888888888888888;0,8055555555555556;0,8055555555555556;0,8055555555555556;0,5588888888888889;0,30210373494325865;15;0,5644959325726155;0,3881036569773436;0,41040510560190724;0,43058200855144396;0,433872752067494;0,4454918911541609;0,06171509184727903;20;1,0;1,0;0,0;0,0;0,0;0,4;0,48989794855663565;8;0,18888888888888888;0,18888888888888888;0,0;0,0;0,0;0,07555555555555556;0,09253627917180894;15;0,3177570093457944;0,3177570093457944;0,0;0,0;0,0;0,12710280373831775;0,15566850701799634;14
7,077526235580445;0,16712448769619928;2,563942384719849;0,21089263609507236;1000;{0.0: 1.0, 1.0: 4.202312138728324};0.01;rbf;{'C': 1000, 'class_weight': {0.0: 1.0, 1.0: 4.202312138728324}, 'gamma': 0.01, 'kernel': 'rbf'};12,0;12,0;12,0;11,0;17,0;12,8;2,1354156504062622;26;133,0;133,0;140,0;136,0;135,0;135,4;2,576819745345025;5;13,0;13,0;5,0;9,0;10,0;10,0;2,9664793948382653;28;22,0;22,0;23,0;24,0;18,0;21,8;2,039607805437114;5;0,798146655922643;0,7514101531023368;0,7743842364532019;0,8053201970443349;0,8654187192118227;0,7989359923468677;0,03826964386134034;4;0,8055555555555556;0,8055555555555556;0,8444444444444444;0,8166666666666667;0,8444444444444444;0,8233333333333333;0,017708197167232466;3;0,5343941649473543;0,4723607719971159;0,5638199251475753;0,544530528103745;0,6660919671529958;0,5562394714697573;0,06288877019440815;4;0,35294117647058826;0,35294117647058826;0,34285714285714286;0,3142857142857143;0,4857142857142857;0,3697478991596639;0,05968634917825799;28;0,48;0,48;0,7058823529411765;0,55;0,6296296296296297;0,5691023965141613;0,08788137244093122;3;0,4067796610169491;0,4067796610169491;0,46153846153846156;0,4;0,5483870967741936;0,4446969760693107;0,05640663435430522;7
7,42977204322815;0,33447706340782796;3,636681652069092;0,19318143779290328;1000;{0.0: 1.0, 1.0: 4.202312138728324};0.001;poly;{'C': 1000, 'class_weight': {0.0: 1.0, 1.0: 4.202312138728324}, 'gamma': 0.001, 'kernel': 'poly'};34,0;34,0;0,0;0,0;0,0;13,6;16,65653025092561;8;0,0;0,0;145,0;145,0;145,0;87,0;71,03520254071216;15;146,0;146,0;0,0;0,0;0,0;58,4;71,5251004892688;1;0,0;0,0;35,0;35,0;35,0;21,0;17,146428199482248;8;0,8392425463336018;0,7036663980660758;0,7006896551724139;0,7446305418719212;0,7568472906403941;0,7490152864168813;0,05022631385397737;21;0,18888888888888888;0,18888888888888888;0,8055555555555556;0,8055555555555556;0,8055555555555556;0,5588888888888889;0,30210373494325865;15;0,5608212708176092;0,38677316569636905;0,41058465283063483;0,43073845534570626;0,4341268621951081;0,44460888137708554;0,06051478999448158;24;1,0;1,0;0,0;0,0;0,0;0,4;0,48989794855663565;8;0,18888888888888888;0,18888888888888888;0,0;0,0;0,0;0,07555555555555556;0,09253627917180894;15;0,3177570093457944;0,3177570093457944;0,0;0,0;0,0;0,12710280373831775;0,15566850701799634;14
6,659115791320801;0,4610978543162261;2,4888124465942383;0,036109521895287405;1000;{0.0: 1.0, 1.0: 4.202312138728324};0.001;rbf;{'C': 1000, 'class_weight': {0.0: 1.0, 1.0: 4.202312138728324}, 'gamma': 0.001, 'kernel': 'rbf'};12,0;13,0;11,0;11,0;17,0;12,8;2,2271057451320084;26;133,0;132,0;137,0;136,0;134,0;134,4;1,8547236990991407;7;13,0;14,0;8,0;9,0;11,0;11,0;2,280350850198276;26;22,0;21,0;24,0;24,0;18,0;21,8;2,227105745132009;5;0,8007655116841257;0,7481869460112813;0,7735960591133005;0,803743842364532;0,8660098522167486;0,7984604422779977;0,039349237404441025;6;0,8055555555555556;0,8055555555555556;0,8222222222222222;0,8166666666666667;0,8388888888888889;0,8177777777777777;0,01237280969517782;6;0,5541399051243096;0,45164351298396044;0,5565008661806222;0,5429000291936141;0,6582333617832478;0,5526835350531508;0,06551681005684035;6;0,35294117647058826;0,38235294117647056;0,3142857142857143;0,3142857142857143;0,4857142857142857;0,36991596638655466;0,06331117198622922;26;0,48;0,48148148148148145;0,5789473684210527;0,55;0,6071428571428571;0,5395143414090783;0,051280207605856755;6;0,4067796610169491;0,4262295081967213;0,40740740740740744;0,4;0,5396825396825397;0,4360198232607234;0,05256023999515489;9
7,460364055633545;0,40352878614740617;3,6136178970336914;0,10770976611520286;1000;{0.0: 1.0, 1.0: 4.202312138728324};0.0001;poly;{'C': 1000, 'class_weight': {0.0: 1.0, 1.0: 4.202312138728324}, 'gamma': 0.0001, 'kernel': 'poly'};34,0;34,0;0,0;0,0;0,0;13,6;16,65653025092561;8;0,0;0,0;145,0;145,0;145,0;87,0;71,03520254071216;15;146,0;146,0;0,0;0,0;0,0;58,4;71,5251004892688;1;0,0;0,0;35,0;35,0;35,0;21,0;17,146428199482248;8;0,839242546333602;0,7034649476228848;0,7004926108374385;0,7448275862068965;0,7570443349753694;0,7490144051952382;0,0503035670537104;24;0,18888888888888888;0,18888888888888888;0,8055555555555556;0,8055555555555556;0,8055555555555556;0,5588888888888889;0,30210373494325865;15;0,5607215890480135;0,3866722375266852;0,41039883606094074;0,43079747935515006;0,4344421102455478;0,4446064504472675;0,06050332357046293;26;1,0;1,0;0,0;0,0;0,0;0,4;0,48989794855663565;8;0,18888888888888888;0,18888888888888888;0,0;0,0;0,0;0,07555555555555556;0,09253627917180894;15;0,3177570093457944;0,3177570093457944;0,0;0,0;0,0;0,12710280373831775;0,15566850701799634;14
6,645872497558594;0,18862037653248773;3,334769296646118;0,2257574215911812;1000;{0.0: 1.0, 1.0: 4.202312138728324};0.0001;rbf;{'C': 1000, 'class_weight': {0.0: 1.0, 1.0: 4.202312138728324}, 'gamma': 0.0001, 'kernel': 'rbf'};26,0;18,0;19,0;21,0;26,0;22,0;3,40587727318528;3;115,0;112,0;117,0;110,0;106,0;112,0;3,847076812334269;8;31,0;34,0;28,0;35,0;39,0;33,4;3,7202150475476548;23;8,0;16,0;16,0;14,0;9,0;12,6;3,4409301068170506;29;0,8325946817082998;0,7403303787268332;0,765911330049261;0,8059113300492611;0,823448275862069;0,7936391992791447;0,03512087963693898;7;0,7833333333333333;0,7222222222222222;0,7555555555555555;0,7277777777777777;0,7333333333333333;0,7444444444444445;0,022498285257018438;9;0,6437756108802963;0,4232257252159719;0,5444801521950049;0,5229115012084637;0,5853167668963188;0,5439419512792112;0,07306656100029622;7;0,7647058823529411;0,5294117647058824;0,5428571428571428;0,6;0,7428571428571429;0,6359663865546218;0,09931393781576814;3;0,45614035087719296;0,34615384615384615;0,40425531914893614;0,375;0,4;0,3963099032359951;0,03640376615422836;12;0,5714285714285713;0,41860465116279066;0,46341463414634143;0,4615384615384615;0,52;0,486997263655233;0,05310304473732995;3
