mean_fit_time;std_fit_time;mean_score_time;std_score_time;param_C;param_class_weight;param_gamma;param_kernel;params;split0_test_tp;split1_test_tp;split2_test_tp;split3_test_tp;split4_test_tp;mean_test_tp;std_test_tp;rank_test_tp;split0_test_tn;split1_test_tn;split2_test_tn;split3_test_tn;split4_test_tn;mean_test_tn;std_test_tn;rank_test_tn;split0_test_fp;split1_test_fp;split2_test_fp;split3_test_fp;split4_test_fp;mean_test_fp;std_test_fp;rank_test_fp;split0_test_fn;split1_test_fn;split2_test_fn;split3_test_fn;split4_test_fn;mean_test_fn;std_test_fn;rank_test_fn;split0_test_AUC;split1_test_AUC;split2_test_AUC;split3_test_AUC;split4_test_AUC;mean_test_AUC;std_test_AUC;rank_test_AUC;split0_test_Accuracy;split1_test_Accuracy;split2_test_Accuracy;split3_test_Accuracy;split4_test_Accuracy;mean_test_Accuracy;std_test_Accuracy;rank_test_Accuracy;split0_test_Average_Precision;split1_test_Average_Precision;split2_test_Average_Precision;split3_test_Average_Precision;split4_test_Average_Precision;mean_test_Average_Precision;std_test_Average_Precision;rank_test_Average_Precision;split0_test_Recall;split1_test_Recall;split2_test_Recall;split3_test_Recall;split4_test_Recall;mean_test_Recall;std_test_Recall;rank_test_Recall;split0_test_Precision;split1_test_Precision;split2_test_Precision;split3_test_Precision;split4_test_Precision;mean_test_Precision;std_test_Precision;rank_test_Precision;split0_test_F1;split1_test_F1;split2_test_F1;split3_test_F1;split4_test_F1;mean_test_F1;std_test_F1;rank_test_F1
41,61766686439514;3,6956846257492826;20,8135066986084;1,9778097143101578;1;{0.0: 1.0, 1.0: 4.202312138728324};0.1;poly;{'C': 1, 'class_weight': {0.0: 1.0, 1.0: 4.202312138728324}, 'gamma': 0.1, 'kernel': 'poly'};34,0;34,0;0,0;0,0;0,0;13,6;16,65653025092561;5;0,0;0,0;145,0;145,0;145,0;87,0;71,03520254071216;12;146,0;146,0;0,0;0,0;0,0;58,4;71,5251004892688;1;0,0;0,0;35,0;35,0;35,0;21,0;17,146428199482248;8;0,8207091055600323;0,6718372280419016;0,6945812807881773;0,7379310344827587;0,7369458128078817;0,7324008923361504;0,050887836950368984;31;0,18888888888888888;0,18888888888888888;0,8055555555555556;0,8055555555555556;0,8055555555555556;0,5588888888888889;0,30210373494325865;12;0,5286065635706939;0,331921132057732;0,40146662707177594;0,43425782140805935;0,41581003267019;0,4224124353556903;0,06338533050560731;31;1,0;1,0;0,0;0,0;0,0;0,4;0,48989794855663565;5;0,18888888888888888;0,18888888888888888;0,0;0,0;0,0;0,07555555555555556;0,09253627917180894;12;0,3177570093457944;0,3177570093457944;0,0;0,0;0,0;0,12710280373831775;0,15566850701799634;11
40,06545085906983;3,8295084025168222;20,805660247802734;1,9411326537015858;1;{0.0: 1.0, 1.0: 4.202312138728324};0.1;rbf;{'C': 1, 'class_weight': {0.0: 1.0, 1.0: 4.202312138728324}, 'gamma': 0.1, 'kernel': 'rbf'};20,0;16,0;18,0;22,0;27,0;20,6;3,7735924528226414;4;123,0;122,0;126,0;117,0;112,0;120,0;4,9396356140913875;8;23,0;24,0;19,0;28,0;33,0;25,4;4,758150901348127;25;14,0;18,0;17,0;13,0;8,0;14,0;3,521363372331802;29;0,8239323126510878;0,7131345688960515;0,752512315270936;0,7830541871921182;0,7992118226600985;0,7743690413340584;0,03840960946220122;10;0,7944444444444444;0,7666666666666667;0,8;0,7722222222222223;0,7722222222222223;0,7811111111111111;0,013425606637327286;9;0,6144728256778498;0,4056408990625854;0,5268170259679704;0,4808591998994396;0,516701434970683;0,5088982771157056;0,06778824693202427;10;0,5882352941176471;0,47058823529411764;0,5142857142857142;0,6285714285714286;0,7714285714285715;0,5946218487394959;0,10420384925908245;4;0,46511627906976744;0,4;0,4864864864864865;0,44;0,45;0,44832055311125085;0,028794662282384916;10;0,5194805194805194;0,4324324324324324;0,5;0,5176470588235295;0,5684210526315789;0,5075962126736121;0,04392997546015566;4
45,40841641426086;4,823187788411604;23,099111986160278;2,7085856023455235;1;{0.0: 1.0, 1.0: 4.202312138728324};0.01;poly;{'C': 1, 'class_weight': {0.0: 1.0, 1.0: 4.202312138728324}, 'gamma': 0.01, 'kernel': 'poly'};34,0;34,0;0,0;0,0;0,0;13,6;16,65653025092561;5;0,0;0,0;145,0;145,0;145,0;87,0;71,03520254071216;12;146,0;146,0;0,0;0,0;0,0;58,4;71,5251004892688;1;0,0;0,0;35,0;35,0;35,0;21,0;17,146428199482248;8;0,8211120064464141;0,6726430298146656;0,6963546798029557;0,7373399014778325;0,7369458128078816;0,7328790860699499;0,05056461233900623;22;0,18888888888888888;0,18888888888888888;0,8055555555555556;0,8055555555555556;0,8055555555555556;0,5588888888888889;0,30210373494325865;12;0,5298685042443994;0,33322069380476615;0,4022391261550778;0,4348898403681053;0,4158244434039633;0,42320852159526245;0,0634111258586394;19;1,0;1,0;0,0;0,0;0,0;0,4;0,48989794855663565;5;0,18888888888888888;0,18888888888888888;0,0;0,0;0,0;0,07555555555555556;0,09253627917180894;12;0,3177570093457944;0,3177570093457944;0,0;0,0;0,0;0,12710280373831775;0,15566850701799634;11
44,881089544296266;4,0148992044305825;21,574100923538207;2,492916035975995;1;{0.0: 1.0, 1.0: 4.202312138728324};0.01;rbf;{'C': 1, 'class_weight': {0.0: 1.0, 1.0: 4.202312138728324}, 'gamma': 0.01, 'kernel': 'rbf'};34,0;34,0;0,0;0,0;0,0;13,6;16,65653025092561;5;0,0;0,0;145,0;145,0;145,0;87,0;71,03520254071216;12;146,0;146,0;0,0;0,0;0,0;58,4;71,5251004892688;1;0,0;0,0;35,0;35,0;35,0;21,0;17,146428199482248;8;0,8150684931506849;0,6853344077356969;0,7412807881773399;0,7694581280788177;0,7852216748768472;0,7592726984038773;0,044001915252902125;12;0,18888888888888888;0,18888888888888888;0,8055555555555556;0,8055555555555556;0,8055555555555556;0,5588888888888889;0,30210373494325865;12;0,59080591091732;0,39186108048830853;0,4928080837472189;0,46913619771417503;0,4974573610089219;0,4884137267751889;0,06368562427808168;12;1,0;1,0;0,0;0,0;0,0;0,4;0,48989794855663565;5;0,18888888888888888;0,18888888888888888;0,0;0,0;0,0;0,07555555555555556;0,09253627917180894;12;0,3177570093457944;0,3177570093457944;0,0;0,0;0,0;0,12710280373831775;0,15566850701799634;11
39,97015228271484;0,3989675179193371;19,831413125991823;0,3751905322693879;1;{0.0: 1.0, 1.0: 4.202312138728324};0.001;poly;{'C': 1, 'class_weight': {0.0: 1.0, 1.0: 4.202312138728324}, 'gamma': 0.001, 'kernel': 'poly'};34,0;34,0;0,0;0,0;0,0;13,6;16,65653025092561;5;0,0;0,0;145,0;145,0;145,0;87,0;71,03520254071216;12;146,0;146,0;0,0;0,0;0,0;58,4;71,5251004892688;1;0,0;0,0;35,0;35,0;35,0;21,0;17,146428199482248;8;0,8213134568896051;0,6728444802578566;0,6959605911330049;0,7371428571428571;0,7371428571428571;0,7328808485132361;0,0506441044499441;20;0,18888888888888888;0,18888888888888888;0,8055555555555556;0,8055555555555556;0,8055555555555556;0,5588888888888889;0,30210373494325865;12;0,5301561192904177;0,3325317405589577;0,40215501139866844;0,4347083521648385;0,4158081170630226;0,423071868095181;0,06370280415012067;27;1,0;1,0;0,0;0,0;0,0;0,4;0,48989794855663565;5;0,18888888888888888;0,18888888888888888;0,0;0,0;0,0;0,07555555555555556;0,09253627917180894;12;0,3177570093457944;0,3177570093457944;0,0;0,0;0,0;0,12710280373831775;0,15566850701799634;11
40,00206322669983;0,8368165786922666;20,307127475738525;0,49477888158472316;1;{0.0: 1.0, 1.0: 4.202312138728324};0.001;rbf;{'C': 1, 'class_weight': {0.0: 1.0, 1.0: 4.202312138728324}, 'gamma': 0.001, 'kernel': 'rbf'};34,0;34,0;0,0;0,0;0,0;13,6;16,65653025092561;5;0,0;0,0;145,0;145,0;145,0;87,0;71,03520254071216;12;146,0;146,0;0,0;0,0;0,0;58,4;71,5251004892688;1;0,0;0,0;35,0;35,0;35,0;21,0;17,146428199482248;8;0,8150684931506849;0,6853344077356969;0,7410837438423644;0,7698522167487684;0,7852216748768472;0,7593121072708724;0,04403668341170039;11;0,18888888888888888;0,18888888888888888;0,8055555555555556;0,8055555555555556;0,8055555555555556;0,5588888888888889;0,30210373494325865;12;0,59080591091732;0,39186108048830853;0,4909899019290371;0,46938830767719625;0,4974573610089219;0,4881005124041568;0,06364978072643382;13;1,0;1,0;0,0;0,0;0,0;0,4;0,48989794855663565;5;0,18888888888888888;0,18888888888888888;0,0;0,0;0,0;0,07555555555555556;0,09253627917180894;12;0,3177570093457944;0,3177570093457944;0,0;0,0;0,0;0,12710280373831775;0,15566850701799634;11
39,765329933166505;0,8700507364964294;19,704351806640624;0,38201948802088764;1;{0.0: 1.0, 1.0: 4.202312138728324};0.0001;poly;{'C': 1, 'class_weight': {0.0: 1.0, 1.0: 4.202312138728324}, 'gamma': 0.0001, 'kernel': 'poly'};34,0;34,0;0,0;0,0;0,0;13,6;16,65653025092561;5;0,0;0,0;145,0;145,0;145,0;87,0;71,03520254071216;12;146,0;146,0;0,0;0,0;0,0;58,4;71,5251004892688;1;0,0;0,0;35,0;35,0;35,0;21,0;17,146428199482248;8;0,8214141821112007;0,672945205479452;0,6956650246305418;0,7367487684729064;0,7372413793103448;0,7328029120008891;0,050693973358292906;25;0,18888888888888888;0,18888888888888888;0,8055555555555556;0,8055555555555556;0,8055555555555556;0,5588888888888889;0,30210373494325865;12;0,5303114944303953;0,33365449572037337;0,40235250557458624;0,4338216678490001;0,4157946661244259;0,4231869659397562;0,06339328915254747;21;1,0;1,0;0,0;0,0;0,0;0,4;0,48989794855663565;5;0,18888888888888888;0,18888888888888888;0,0;0,0;0,0;0,07555555555555556;0,09253627917180894;12;0,3177570093457944;0,3177570093457944;0,0;0,0;0,0;0,12710280373831775;0,15566850701799634;11
40,17707080841065;0,33939556780467905;20,201251554489136;0,412084138896249;1;{0.0: 1.0, 1.0: 4.202312138728324};0.0001;rbf;{'C': 1, 'class_weight': {0.0: 1.0, 1.0: 4.202312138728324}, 'gamma': 0.0001, 'kernel': 'rbf'};34,0;34,0;0,0;0,0;0,0;13,6;16,65653025092561;5;0,0;0,0;145,0;145,0;145,0;87,0;71,03520254071216;12;146,0;146,0;0,0;0,0;0,0;58,4;71,5251004892688;1;0,0;0,0;35,0;35,0;35,0;21,0;17,146428199482248;8;0,8144641418211119;0,6857373086220789;0,7412807881773399;0,7700492610837438;0,7848275862068965;0,7592718171822342;0,04369541028614754;15;0,18888888888888888;0,18888888888888888;0,8055555555555556;0,8055555555555556;0,8055555555555556;0,5588888888888889;0,30210373494325865;12;0,5782978564309145;0,3918014496394593;0,4910336895590316;0,4713246971486468;0,49666309735751546;0,48582415802711354;0,059576019973448;16;1,0;1,0;0,0;0,0;0,0;0,4;0,48989794855663565;5;0,18888888888888888;0,18888888888888888;0,0;0,0;0,0;0,07555555555555556;0,09253627917180894;12;0,3177570093457944;0,3177570093457944;0,0;0,0;0,0;0,12710280373831775;0,15566850701799634;11
39,819872045516966;0,21553154281745482;19,773788070678712;0,41019862384939443;10;{0.0: 1.0, 1.0: 4.202312138728324};0.1;poly;{'C': 10, 'class_weight': {0.0: 1.0, 1.0: 4.202312138728324}, 'gamma': 0.1, 'kernel': 'poly'};34,0;34,0;0,0;0,0;0,0;13,6;16,65653025092561;5;0,0;0,0;145,0;145,0;145,0;87,0;71,03520254071216;12;146,0;146,0;0,0;0,0;0,0;58,4;71,5251004892688;1;0,0;0,0;35,0;35,0;35,0;21,0;17,146428199482248;8;0,8209105560032233;0,6728444802578566;0,6951724137931036;0,7373399014778325;0,7371428571428571;0,7326820417349745;0,05062286284542858;29;0,18888888888888888;0,18888888888888888;0,8055555555555556;0,8055555555555556;0,8055555555555556;0,5588888888888889;0,30210373494325865;12;0,530745880002629;0,33318102327404603;0,40195886513874085;0,4347589563481177;0,41586895387646783;0,42330273572800026;0,06373071351004306;18;1,0;1,0;0,0;0,0;0,0;0,4;0,48989794855663565;5;0,18888888888888888;0,18888888888888888;0,0;0,0;0,0;0,07555555555555556;0,09253627917180894;12;0,3177570093457944;0,3177570093457944;0,0;0,0;0,0;0,12710280373831775;0,15566850701799634;11
38,55955352783203;0,5330410944741877;17,67137770652771;0,1740377053448992;10;{0.0: 1.0, 1.0: 4.202312138728324};0.1;rbf;{'C': 10, 'class_weight': {0.0: 1.0, 1.0: 4.202312138728324}, 'gamma': 0.1, 'kernel': 'rbf'};6,0;7,0;8,0;9,0;8,0;7,6;1,0198039027185568;29;145,0;141,0;141,0;144,0;139,0;142,0;2,1908902300206643;2;1,0;5,0;4,0;1,0;6,0;3,4;2,0591260281974;29;28,0;27,0;27,0;26,0;27,0;27,0;0,6324555320336759;2;0,7798146655922643;0,7725624496373892;0,7574384236453202;0,8090640394088671;0,8348768472906405;0,7907512851148961;0,02772223774899355;1;0,8388888888888889;0,8222222222222222;0,8277777777777777;0,85;0,8166666666666667;0,8311111111111111;0,011967032904743349;2;0,5690701323151635;0,46681819009675585;0,5578553265634006;0,5741196739657717;0,5635513262041876;0,5462829298290559;0,04010212877527518;4;0,17647058823529413;0,20588235294117646;0,22857142857142856;0,2571428571428571;0,22857142857142856;0,21932773109243694;0,026901258453400793;29;0,8571428571428571;0,5833333333333334;0,6666666666666666;0,9;0,5714285714285714;0,7157142857142856;0,13763140494857237;1;0,29268292682926833;0,3043478260869565;0,3404255319148936;0,39999999999999997;0,32653061224489793;0,33279737941520326;0,037502532409519944;8
39,618243837356566;0,7959629530307767;20,002171897888182;0,22630646746739225;10;{0.0: 1.0, 1.0: 4.202312138728324};0.01;poly;{'C': 10, 'class_weight': {0.0: 1.0, 1.0: 4.202312138728324}, 'gamma': 0.01, 'kernel': 'poly'};34,0;34,0;0,0;0,0;0,0;13,6;16,65653025092561;5;0,0;0,0;145,0;145,0;145,0;87,0;71,03520254071216;12;146,0;146,0;0,0;0,0;0,0;58,4;71,5251004892688;1;0,0;0,0;35,0;35,0;35,0;21,0;17,146428199482248;8;0,8213134568896051;0,6732473811442385;0,6965517241379311;0,7373399014778326;0,7369458128078816;0,7330796552914978;0,05046284058583372;18;0,18888888888888888;0,18888888888888888;0,8055555555555556;0,8055555555555556;0,8055555555555556;0,5588888888888889;0,30210373494325865;12;0,5301561192904177;0,3334351174094146;0,4015777175939116;0,4347536148883232;0,4158244434039633;0,4231494025172061;0,06348659818919106;23;1,0;1,0;0,0;0,0;0,0;0,4;0,48989794855663565;5;0,18888888888888888;0,18888888888888888;0,0;0,0;0,0;0,07555555555555556;0,09253627917180894;12;0,3177570093457944;0,3177570093457944;0,0;0,0;0,0;0,12710280373831775;0,15566850701799634;11
38,61223940849304;0,496020855318567;19,428995895385743;0,5646207774110333;10;{0.0: 1.0, 1.0: 4.202312138728324};0.01;rbf;{'C': 10, 'class_weight': {0.0: 1.0, 1.0: 4.202312138728324}, 'gamma': 0.01, 'kernel': 'rbf'};21,0;16,0;18,0;22,0;27,0;20,8;3,7629775444453557;1;123,0;122,0;126,0;117,0;111,0;119,8;5,2687759489277965;9;23,0;24,0;19,0;28,0;34,0;25,6;5,083306010855534;24;13,0;18,0;17,0;13,0;8,0;13,8;3,54400902933387;30;0,8241337630942788;0,7195809830781628;0,754088669950739;0,7883743842364532;0,8023645320197045;0,7777084664758677;0,03691528314918889;9;0,8;0,7666666666666667;0,8;0,7722222222222223;0,7666666666666667;0,7811111111111112;0,015555555555555555;8;0,6099637640412263;0,41164442540722557;0,5291157595923488;0,4893431218802344;0,5129416186106882;0,5106017379063446;0,06397739402433206;8;0,6176470588235294;0,47058823529411764;0,5142857142857142;0,6285714285714286;0,7714285714285715;0,6005042016806723;0,10450700726831776;1;0,4772727272727273;0,4;0,4864864864864865;0,44;0,4426229508196721;0,4492764329157771;0,030746929788202416;7;0,5384615384615384;0,4324324324324324;0,5;0,5176470588235295;0,5625;0,5102082059435;0,04413909258247789;1
40,81734657287598;0,8979434001493981;20,33715271949768;0,20845225835244574;10;{0.0: 1.0, 1.0: 4.202312138728324};0.001;poly;{'C': 10, 'class_weight': {0.0: 1.0, 1.0: 4.202312138728324}, 'gamma': 0.001, 'kernel': 'poly'};34,0;34,0;0,0;0,0;0,0;13,6;16,65653025092561;5;0,0;0,0;145,0;145,0;145,0;87,0;71,03520254071216;12;146,0;146,0;0,0;0,0;0,0;58,4;71,5251004892688;1;0,0;0,0;35,0;35,0;35,0;21,0;17,146428199482248;8;0,8213134568896051;0,6728444802578566;0,6957635467980294;0,7371428571428571;0,7369458128078816;0,732802030779246;0,050669603146780665;26;0,18888888888888888;0,18888888888888888;0,8055555555555556;0,8055555555555556;0,8055555555555556;0,5588888888888889;0,30210373494325865;12;0,5301561192904177;0,3325317405589577;0,4020233169298361;0,4347083521648385;0,4158244434039633;0,42304879446960264;0,06371110314329452;29;1,0;1,0;0,0;0,0;0,0;0,4;0,48989794855663565;5;0,18888888888888888;0,18888888888888888;0,0;0,0;0,0;0,07555555555555556;0,09253627917180894;12;0,3177570093457944;0,3177570093457944;0,0;0,0;0,0;0,12710280373831775;0,15566850701799634;11
42,24667468070984;0,7742319759558679;20,611917543411256;0,269031308775519;10;{0.0: 1.0, 1.0: 4.202312138728324};0.001;rbf;{'C': 10, 'class_weight': {0.0: 1.0, 1.0: 4.202312138728324}, 'gamma': 0.001, 'kernel': 'rbf'};34,0;34,0;0,0;0,0;0,0;13,6;16,65653025092561;5;0,0;0,0;145,0;145,0;145,0;87,0;71,03520254071216;12;146,0;146,0;0,0;0,0;0,0;58,4;71,5251004892688;1;0,0;0,0;35,0;35,0;35,0;21,0;17,146428199482248;8;0,8150684931506849;0,6853344077356969;0,7410837438423644;0,769655172413793;0,7852216748768472;0,7592726984038772;0,04402732050207534;13;0,18888888888888888;0,18888888888888888;0,8055555555555556;0,8055555555555556;0,8055555555555556;0,5588888888888889;0,30210373494325865;12;0,59080591091732;0,39186108048830853;0,4909899019290371;0,46923607287023;0,4974573610089219;0,4880700654427635;0,06365876023095918;14;1,0;1,0;0,0;0,0;0,0;0,4;0,48989794855663565;5;0,18888888888888888;0,18888888888888888;0,0;0,0;0,0;0,07555555555555556;0,09253627917180894;12;0,3177570093457944;0,3177570093457944;0,0;0,0;0,0;0,12710280373831775;0,15566850701799634;11
42,35399990081787;1,404828052927888;20,881632471084593;1,3026513046639867;10;{0.0: 1.0, 1.0: 4.202312138728324};0.0001;poly;{'C': 10, 'class_weight': {0.0: 1.0, 1.0: 4.202312138728324}, 'gamma': 0.0001, 'kernel': 'poly'};34,0;34,0;0,0;0,0;0,0;13,6;16,65653025092561;5;0,0;0,0;145,0;145,0;145,0;87,0;71,03520254071216;12;146,0;146,0;0,0;0,0;0,0;58,4;71,5251004892688;1;0,0;0,0;35,0;35,0;35,0;21,0;17,146428199482248;8;0,8211120064464141;0,6728444802578565;0,6956650246305419;0,7370443349753694;0,7369458128078816;0,7327223318236127;0,050611961446530275;27;0,18888888888888888;0,18888888888888888;0,8055555555555556;0,8055555555555556;0,8055555555555556;0,5588888888888889;0,30210373494325865;12;0,5298685042443994;0,33311489386076426;0,40218129955631277;0,4347004920091133;0,4158244434039633;0,42313792661491056;0,06343803717049197;24;1,0;1,0;0,0;0,0;0,0;0,4;0,48989794855663565;5;0,18888888888888888;0,18888888888888888;0,0;0,0;0,0;0,07555555555555556;0,09253627917180894;12;0,3177570093457944;0,3177570093457944;0,0;0,0;0,0;0,12710280373831775;0,15566850701799634;11
39,92943077087402;0,49691754907556407;20,24282851219177;0,14406971864300325;10;{0.0: 1.0, 1.0: 4.202312138728324};0.0001;rbf;{'C': 10, 'class_weight': {0.0: 1.0, 1.0: 4.202312138728324}, 'gamma': 0.0001, 'kernel': 'rbf'};34,0;34,0;0,0;0,0;0,0;13,6;16,65653025092561;5;0,0;0,0;145,0;145,0;145,0;87,0;71,03520254071216;12;146,0;146,0;0,0;0,0;0,0;58,4;71,5251004892688;1;0,0;0,0;35,0;35,0;35,0;21,0;17,146428199482248;8;0,8150684931506849;0,685132957292506;0,7412807881773399;0,769655172413793;0,7852216748768472;0,7592718171822341;0,044078851844773316;16;0,18888888888888888;0,18888888888888888;0,8055555555555556;0,8055555555555556;0,8055555555555556;0,5588888888888889;0,30210373494325865;12;0,59080591091732;0,39179601021241056;0,4928080837472189;0,46923607287023;0,4974573610089219;0,4884206877512202;0,06369932870537191;11;1,0;1,0;0,0;0,0;0,0;0,4;0,48989794855663565;5;0,18888888888888888;0,18888888888888888;0,0;0,0;0,0;0,07555555555555556;0,09253627917180894;12;0,3177570093457944;0,3177570093457944;0,0;0,0;0,0;0,12710280373831775;0,15566850701799634;11
39,81247978210449;0,3129573134101671;20,051476621627806;0,16135655924352854;100;{0.0: 1.0, 1.0: 4.202312138728324};0.1;poly;{'C': 100, 'class_weight': {0.0: 1.0, 1.0: 4.202312138728324}, 'gamma': 0.1, 'kernel': 'poly'};34,0;34,0;0,0;0,0;0,0;13,6;16,65653025092561;5;0,0;0,0;145,0;145,0;145,0;87,0;71,03520254071216;12;146,0;146,0;0,0;0,0;0,0;58,4;71,5251004892688;1;0,0;0,0;35,0;35,0;35,0;21,0;17,146428199482248;8;0,8207091055600322;0,6728444802578566;0,6951724137931036;0,7377339901477832;0,7371428571428571;0,7327205693803266;0,050560228544771886;28;0,18888888888888888;0,18888888888888888;0,8055555555555556;0,8055555555555556;0,8055555555555556;0,5588888888888889;0,30210373494325865;12;0,5301711673589509;0,33318102327404603;0,40195886513874085;0,43473152517069324;0,41586895387646783;0,42318230696377973;0,06353605491676163;22;1,0;1,0;0,0;0,0;0,0;0,4;0,48989794855663565;5;0,18888888888888888;0,18888888888888888;0,0;0,0;0,0;0,07555555555555556;0,09253627917180894;12;0,3177570093457944;0,3177570093457944;0,0;0,0;0,0;0,12710280373831775;0,15566850701799634;11
39,28879551887512;0,5172631671275479;17,619474697113038;0,1779642181912418;100;{0.0: 1.0, 1.0: 4.202312138728324};0.1;rbf;{'C': 100, 'class_weight': {0.0: 1.0, 1.0: 4.202312138728324}, 'gamma': 0.1, 'kernel': 'rbf'};6,0;7,0;8,0;9,0;8,0;7,6;1,0198039027185568;29;145,0;141,0;141,0;144,0;139,0;142,0;2,1908902300206643;2;1,0;5,0;4,0;1,0;6,0;3,4;2,0591260281974;29;28,0;27,0;27,0;26,0;27,0;27,0;0,6324555320336759;2;0,7788074133763094;0,7731668009669621;0,756847290640394;0,8100492610837439;0,8336945812807881;0,7905130694696394;0,027631886742679492;2;0,8388888888888889;0,8222222222222222;0,8277777777777777;0,85;0,8166666666666667;0,8311111111111111;0,011967032904743349;2;0,5633034238977661;0,467181060476483;0,5565708202072931;0,5818780301702878;0,5632265801913297;0,5464319829886319;0,040513284274490975;1;0,17647058823529413;0,20588235294117646;0,22857142857142856;0,2571428571428571;0,22857142857142856;0,21932773109243694;0,026901258453400793;29;0,8571428571428571;0,5833333333333334;0,6666666666666666;0,9;0,5714285714285714;0,7157142857142856;0,13763140494857237;1;0,29268292682926833;0,3043478260869565;0,3404255319148936;0,39999999999999997;0,32653061224489793;0,33279737941520326;0,037502532409519944;8
42,63010363578796;1,8157345798351943;20,977785682678224;1,1926569772227706;100;{0.0: 1.0, 1.0: 4.202312138728324};0.01;poly;{'C': 100, 'class_weight': {0.0: 1.0, 1.0: 4.202312138728324}, 'gamma': 0.01, 'kernel': 'poly'};34,0;34,0;0,0;0,0;0,0;13,6;16,65653025092561;5;0,0;0,0;145,0;145,0;145,0;87,0;71,03520254071216;12;146,0;146,0;0,0;0,0;0,0;58,4;71,5251004892688;1;0,0;0,0;35,0;35,0;35,0;21,0;17,146428199482248;8;0,8213134568896051;0,6726430298146656;0,6967487684729063;0,7369458128078817;0,7371428571428571;0,7329587850255832;0,05057490784099723;19;0,18888888888888888;0,18888888888888888;0,8055555555555556;0,8055555555555556;0,8055555555555556;0,5588888888888889;0,30210373494325865;12;0,5297709965146713;0,33312674467284176;0,4020279314943399;0,4345724530563366;0,41586895387646783;0,4230734159229315;0,06340634339923883;26;1,0;1,0;0,0;0,0;0,0;0,4;0,48989794855663565;5;0,18888888888888888;0,18888888888888888;0,0;0,0;0,0;0,07555555555555556;0,09253627917180894;12;0,3177570093457944;0,3177570093457944;0,0;0,0;0,0;0,12710280373831775;0,15566850701799634;11
39,98532586097717;1,408228741079843;19,65165219306946;3,738906769615631;100;{0.0: 1.0, 1.0: 4.202312138728324};0.01;rbf;{'C': 100, 'class_weight': {0.0: 1.0, 1.0: 4.202312138728324}, 'gamma': 0.01, 'kernel': 'rbf'};6,0;7,0;9,0;9,0;9,0;8,0;1,2649110640673518;27;144,0;139,0;141,0;143,0;138,0;141,0;2,280350850198276;5;2,0;7,0;4,0;2,0;7,0;4,4;2,244994432064365;26;28,0;27,0;26,0;26,0;26,0;26,6;0,7999999999999999;5;0,7735697018533441;0,774375503626108;0,754679802955665;0,8061083743842364;0,8327093596059114;0,7882885484850529;0,027678582677536562;4;0,8333333333333334;0,8111111111111111;0,8333333333333334;0,8444444444444444;0,8166666666666667;0,8277777777777778;0,012171612389003699;5;0,5583187625051992;0,47283172893736036;0,5541368377061664;0,5814429941039253;0,5605229039891877;0,5454506454483677;0,03751577680663151;5;0,17647058823529413;0,20588235294117646;0,2571428571428571;0,2571428571428571;0,2571428571428571;0,23075630252100837;0,033628568026740725;27;0,75;0,5;0,6923076923076923;0,8181818181818182;0,5625;0,664597902097902;0,11761447280589651;5;0,2857142857142857;0,2916666666666667;0,37499999999999994;0,39130434782608686;0,3529411764705882;0,33932529533552547;0,043140199139556606;6
47,46810851097107;8,299641287134298;24,834671449661254;5,046446913706324;100;{0.0: 1.0, 1.0: 4.202312138728324};0.001;poly;{'C': 100, 'class_weight': {0.0: 1.0, 1.0: 4.202312138728324}, 'gamma': 0.001, 'kernel': 'poly'};34,0;34,0;0,0;0,0;0,0;13,6;16,65653025092561;5;0,0;0,0;145,0;145,0;145,0;87,0;71,03520254071216;12;146,0;146,0;0,0;0,0;0,0;58,4;71,5251004892688;1;0,0;0,0;35,0;35,0;35,0;21,0;17,146428199482248;8;0,8209105560032232;0,6728444802578566;0,6953694581280788;0,7371428571428571;0,7371428571428571;0,7326820417349745;0,050590179159869374;29;0,18888888888888888;0,18888888888888888;0,8055555555555556;0,8055555555555556;0,8055555555555556;0,5588888888888889;0,30210373494325865;12;0,5290389427201233;0,3325317405589577;0,40207794647658146;0,4346230572396158;0,41591529553428913;0,4228373965059135;0,06332716946242035;30;1,0;1,0;0,0;0,0;0,0;0,4;0,48989794855663565;5;0,18888888888888888;0,18888888888888888;0,0;0,0;0,0;0,07555555555555556;0,09253627917180894;12;0,3177570093457944;0,3177570093457944;0,0;0,0;0,0;0,12710280373831775;0,15566850701799634;11
47,42241544723511;10,02875599175535;23,89292550086975;4,985278384911769;100;{0.0: 1.0, 1.0: 4.202312138728324};0.001;rbf;{'C': 100, 'class_weight': {0.0: 1.0, 1.0: 4.202312138728324}, 'gamma': 0.001, 'kernel': 'rbf'};21,0;16,0;18,0;22,0;27,0;20,8;3,7629775444453557;1;123,0;121,0;127,0;117,0;110,0;119,6;5,782732917920384;10;23,0;25,0;18,0;28,0;35,0;25,8;5,635601121442148;22;13,0;18,0;17,0;13,0;8,0;13,8;3,54400902933387;30;0,8249395648670427;0,7197824335213537;0,7544827586206896;0,788768472906404;0,8031527093596059;0,7782251878550193;0,037132286995848175;7;0,8;0,7611111111111111;0,8055555555555556;0,7722222222222223;0,7611111111111111;0,78;0,01911627837120587;10;0,6103908550289383;0,41158602936560323;0,529298194380037;0,48989970679719264;0,5133246160130246;0,5108998803169591;0,06410472623972048;7;0,6176470588235294;0,47058823529411764;0,5142857142857142;0,6285714285714286;0,7714285714285715;0,6005042016806723;0,10450700726831776;1;0,4772727272727273;0,3902439024390244;0,5;0,44;0,43548387096774194;0,44860010013589874;0,03772403014669299;8;0,5384615384615384;0,4266666666666667;0,5070422535211268;0,5176470588235295;0,5567010309278351;0,5093037096801393;0,0447220115325794;2
50,247900581359865;10,712244547874985;25,031282663345337;5,297575961126312;100;{0.0: 1.0, 1.0: 4.202312138728324};0.0001;poly;{'C': 100, 'class_weight': {0.0: 1.0, 1.0: 4.202312138728324}, 'gamma': 0.0001, 'kernel': 'poly'};34,0;34,0;0,0;0,0;0,0;13,6;16,65653025092561;5;0,0;0,0;145,0;145,0;145,0;87,0;71,03520254071216;12;146,0;146,0;0,0;0,0;0,0;58,4;71,5251004892688;1;0,0;0,0;35,0;35,0;35,0;21,0;17,146428199482248;8;0,8213134568896051;0,6728444802578566;0,6955665024630542;0,7375369458128078;0,7369458128078816;0,7328414396462412;0,05070551758967134;24;0,18888888888888888;0,18888888888888888;0,8055555555555556;0,8055555555555556;0,8055555555555556;0,5588888888888889;0,30210373494325865;12;0,5301561192904177;0,3325317405589577;0,4020914084000598;0,435040479609642;0,4158244434039633;0,4231288382526081;0,06371889489874023;25;1,0;1,0;0,0;0,0;0,0;0,4;0,48989794855663565;5;0,18888888888888888;0,18888888888888888;0,0;0,0;0,0;0,07555555555555556;0,09253627917180894;12;0,3177570093457944;0,3177570093457944;0,0;0,0;0,0;0,12710280373831775;0,15566850701799634;11
52,24239282608032;9,700714983106012;25,71522898674011;5,55917995808783;100;{0.0: 1.0, 1.0: 4.202312138728324};0.0001;rbf;{'C': 100, 'class_weight': {0.0: 1.0, 1.0: 4.202312138728324}, 'gamma': 0.0001, 'kernel': 'rbf'};34,0;34,0;0,0;0,0;0,0;13,6;16,65653025092561;5;0,0;0,0;145,0;145,0;145,0;87,0;71,03520254071216;12;146,0;146,0;0,0;0,0;0,0;58,4;71,5251004892688;1;0,0;0,0;35,0;35,0;35,0;21,0;17,146428199482248;8;0,8150684931506849;0,6853344077356969;0,7410837438423644;0,769655172413793;0,7852216748768472;0,7592726984038772;0,04402732050207534;13;0,18888888888888888;0,18888888888888888;0,8055555555555556;0,8055555555555556;0,8055555555555556;0,5588888888888889;0,30210373494325865;12;0,59080591091732;0,39186108048830853;0,4909899019290371;0,46923607287023;0,4974573610089219;0,4880700654427635;0,06365876023095918;14;1,0;1,0;0,0;0,0;0,0;0,4;0,48989794855663565;5;0,18888888888888888;0,18888888888888888;0,0;0,0;0,0;0,07555555555555556;0,09253627917180894;12;0,3177570093457944;0,3177570093457944;0,0;0,0;0,0;0,12710280373831775;0,15566850701799634;11
50,3806321144104;10,817421034642106;25,0765287399292;5,372600414405692;1000;{0.0: 1.0, 1.0: 4.202312138728324};0.1;poly;{'C': 1000, 'class_weight': {0.0: 1.0, 1.0: 4.202312138728324}, 'gamma': 0.1, 'kernel': 'poly'};0,0;0,0;0,0;0,0;1,0;0,2;0,4;32;146,0;146,0;145,0;145,0;145,0;145,4;0,4898979485566356;1;0,0;0,0;0,0;0,0;0,0;0,0;0,0;32;34,0;34,0;35,0;35,0;34,0;34,4;0,4898979485566356;1;0,8205076551168412;0,676873489121676;0,7060098522167487;0,7393103448275862;0,7363546798029555;0,7358112042171616;0,048057887984086146;17;0,8111111111111111;0,8111111111111111;0,8055555555555556;0,8055555555555556;0,8111111111111111;0,8088888888888889;0,0027216552697590774;7;0,5238091383171639;0,34461209270742177;0,40342703522319;0,43930561249349864;0,41609909202993206;0,4254505941542413;0,058264424478696515;17;0,0;0,0;0,0;0,0;0,02857142857142857;0,005714285714285714;0,011428571428571429;32;0,0;0,0;0,0;0,0;1,0;0,2;0,4;11;0,0;0,0;0,0;0,0;0,05555555555555556;0,011111111111111112;0,022222222222222223;32
49,12742013931275;10,31391777271045;21,906860685348512;4,431917437801633;1000;{0.0: 1.0, 1.0: 4.202312138728324};0.1;rbf;{'C': 1000, 'class_weight': {0.0: 1.0, 1.0: 4.202312138728324}, 'gamma': 0.1, 'kernel': 'rbf'};6,0;7,0;8,0;9,0;8,0;7,6;1,0198039027185568;29;145,0;141,0;141,0;144,0;139,0;142,0;2,1908902300206643;2;1,0;5,0;4,0;1,0;6,0;3,4;2,0591260281974;29;28,0;27,0;27,0;26,0;27,0;27,0;0,6324555320336759;2;0,7788074133763094;0,7731668009669621;0,756847290640394;0,8100492610837439;0,8336945812807881;0,7905130694696394;0,027631886742679492;2;0,8388888888888889;0,8222222222222222;0,8277777777777777;0,85;0,8166666666666667;0,8311111111111111;0,011967032904743349;2;0,5633034238977661;0,467181060476483;0,5565708202072931;0,5818780301702878;0,5632265801913297;0,5464319829886319;0,040513284274490975;1;0,17647058823529413;0,20588235294117646;0,22857142857142856;0,2571428571428571;0,22857142857142856;0,21932773109243694;0,026901258453400793;29;0,8571428571428571;0,5833333333333334;0,6666666666666666;0,9;0,5714285714285714;0,7157142857142856;0,13763140494857237;1;0,29268292682926833;0,3043478260869565;0,3404255319148936;0,39999999999999997;0,32653061224489793;0,33279737941520326;0,037502532409519944;8
50,406605863571166;10,85390579963499;25,112202882766724;5,356264554388377;1000;{0.0: 1.0, 1.0: 4.202312138728324};0.01;poly;{'C': 1000, 'class_weight': {0.0: 1.0, 1.0: 4.202312138728324}, 'gamma': 0.01, 'kernel': 'poly'};34,0;34,0;0,0;0,0;0,0;13,6;16,65653025092561;5;0,0;0,0;145,0;145,0;145,0;87,0;71,03520254071216;12;146,0;146,0;0,0;0,0;0,0;58,4;71,5251004892688;1;0,0;0,0;35,0;35,0;35,0;21,0;17,146428199482248;8;0,8207091055600323;0,6718372280419016;0,6945812807881773;0,7379310344827587;0,7369458128078817;0,7324008923361504;0,050887836950368984;31;0,18888888888888888;0,18888888888888888;0,8055555555555556;0,8055555555555556;0,8055555555555556;0,5588888888888889;0,30210373494325865;12;0,5286065635706939;0,331921132057732;0,40146662707177594;0,43425782140805935;0,41581003267019;0,4224124353556903;0,06338533050560731;31;1,0;1,0;0,0;0,0;0,0;0,4;0,48989794855663565;5;0,18888888888888888;0,18888888888888888;0,0;0,0;0,0;0,07555555555555556;0,09253627917180894;12;0,3177570093457944;0,3177570093457944;0,0;0,0;0,0;0,12710280373831775;0,15566850701799634;11
48,89093165397644;10,384880260274425;21,522642850875854;4,499177599735485;1000;{0.0: 1.0, 1.0: 4.202312138728324};0.01;rbf;{'C': 1000, 'class_weight': {0.0: 1.0, 1.0: 4.202312138728324}, 'gamma': 0.01, 'kernel': 'rbf'};6,0;7,0;9,0;9,0;9,0;8,0;1,2649110640673518;27;144,0;139,0;141,0;143,0;138,0;141,0;2,280350850198276;5;2,0;7,0;4,0;2,0;7,0;4,4;2,244994432064365;26;28,0;27,0;26,0;26,0;26,0;26,6;0,7999999999999999;5;0,7735697018533441;0,7739726027397259;0,7542857142857143;0,8065024630541872;0,8317241379310345;0,7880109239728011;0,027552840942237502;6;0,8333333333333334;0,8111111111111111;0,8333333333333334;0,8444444444444444;0,8166666666666667;0,8277777777777778;0,012171612389003699;5;0,5610053737470574;0,4720475295683221;0,5541223987736308;0,5851353146283439;0,5592017577700822;0,5463024748974872;0,038640663270798806;3;0,17647058823529413;0,20588235294117646;0,2571428571428571;0,2571428571428571;0,2571428571428571;0,23075630252100837;0,033628568026740725;27;0,75;0,5;0,6923076923076923;0,8181818181818182;0,5625;0,664597902097902;0,11761447280589651;5;0,2857142857142857;0,2916666666666667;0,37499999999999994;0,39130434782608686;0,3529411764705882;0,33932529533552547;0,043140199139556606;6
50,33609504699707;10,772475917508451;25,04889645576477;5,299581184029423;1000;{0.0: 1.0, 1.0: 4.202312138728324};0.001;poly;{'C': 1000, 'class_weight': {0.0: 1.0, 1.0: 4.202312138728324}, 'gamma': 0.001, 'kernel': 'poly'};34,0;34,0;0,0;0,0;0,0;13,6;16,65653025092561;5;0,0;0,0;145,0;145,0;145,0;87,0;71,03520254071216;12;146,0;146,0;0,0;0,0;0,0;58,4;71,5251004892688;1;0,0;0,0;35,0;35,0;35,0;21,0;17,146428199482248;8;0,8211120064464141;0,6726430298146656;0,6963546798029557;0,7373399014778325;0,7369458128078816;0,7328790860699499;0,05056461233900623;22;0,18888888888888888;0,18888888888888888;0,8055555555555556;0,8055555555555556;0,8055555555555556;0,5588888888888889;0,30210373494325865;12;0,5298685042443994;0,33322069380476615;0,4022391261550778;0,4348898403681053;0,4158244434039633;0,42320852159526245;0,0634111258586394;19;1,0;1,0;0,0;0,0;0,0;0,4;0,48989794855663565;5;0,18888888888888888;0,18888888888888888;0,0;0,0;0,0;0,07555555555555556;0,09253627917180894;12;0,3177570093457944;0,3177570093457944;0,0;0,0;0,0;0,12710280373831775;0,15566850701799634;11
48,73147101402283;10,26180885702363;21,52133502960205;4,490109332496112;1000;{0.0: 1.0, 1.0: 4.202312138728324};0.001;rbf;{'C': 1000, 'class_weight': {0.0: 1.0, 1.0: 4.202312138728324}, 'gamma': 0.001, 'kernel': 'rbf'};8,0;7,0;9,0;9,0;11,0;8,8;1,32664991614216;26;144,0;139,0;141,0;143,0;138,0;141,0;2,280350850198276;5;2,0;7,0;4,0;2,0;7,0;4,4;2,244994432064365;26;26,0;27,0;26,0;26,0;24,0;25,8;0,9797958971132713;7;0,7733682514101531;0,7743755036261079;0,7538916256157635;0,8059113300492611;0,8325123152709359;0,7880118051944442;0,02780380344295941;5;0,8444444444444444;0,8111111111111111;0,8333333333333334;0,8444444444444444;0,8277777777777777;0,8322222222222223;0,012372809695177829;1;0,5580345908655289;0,4713335539097736;0,5542804331596409;0,5814126234392003;0,5601180456895926;0,5450358494127473;0,03804523703046719;6;0,23529411764705882;0,20588235294117646;0,2571428571428571;0,2571428571428571;0,3142857142857143;0,2539495798319328;0,03555088671493986;26;0,8;0,5;0,6923076923076923;0,8181818181818182;0,6111111111111112;0,6843201243201243;0,11891009697045321;4;0,3636363636363636;0,2916666666666667;0,37499999999999994;0,39130434782608686;0,41509433962264153;0,3673403435503517;0,04160195384600573;5
50,456256580352786;10,81259562812911;25,132784271240233;5,369676173580549;1000;{0.0: 1.0, 1.0: 4.202312138728324};0.0001;poly;{'C': 1000, 'class_weight': {0.0: 1.0, 1.0: 4.202312138728324}, 'gamma': 0.0001, 'kernel': 'poly'};34,0;34,0;0,0;0,0;0,0;13,6;16,65653025092561;5;0,0;0,0;145,0;145,0;145,0;87,0;71,03520254071216;12;146,0;146,0;0,0;0,0;0,0;58,4;71,5251004892688;1;0,0;0,0;35,0;35,0;35,0;21,0;17,146428199482248;8;0,8213134568896051;0,6728444802578566;0,6959605911330049;0,7371428571428571;0,7371428571428571;0,7328808485132361;0,0506441044499441;20;0,18888888888888888;0,18888888888888888;0,8055555555555556;0,8055555555555556;0,8055555555555556;0,5588888888888889;0,30210373494325865;12;0,5301561192904177;0,3325317405589577;0,40215501139866844;0,4347083521648385;0,4158081170630226;0,423071868095181;0,06370280415012067;27;1,0;1,0;0,0;0,0;0,0;0,4;0,48989794855663565;5;0,18888888888888888;0,18888888888888888;0,0;0,0;0,0;0,07555555555555556;0,09253627917180894;12;0,3177570093457944;0,3177570093457944;0,0;0,0;0,0;0,12710280373831775;0,15566850701799634;11
44,04770560264588;7,702848265545332;21,094119262695312;3,856662964449879;1000;{0.0: 1.0, 1.0: 4.202312138728324};0.0001;rbf;{'C': 1000, 'class_weight': {0.0: 1.0, 1.0: 4.202312138728324}, 'gamma': 0.0001, 'kernel': 'rbf'};21,0;16,0;18,0;22,0;27,0;20,8;3,7629775444453557;1;123,0;121,0;127,0;117,0;110,0;119,6;5,782732917920384;10;23,0;25,0;18,0;28,0;35,0;25,8;5,635601121442148;22;13,0;18,0;17,0;13,0;8,0;13,8;3,54400902933387;30;0,8249395648670427;0,7195809830781628;0,7542857142857142;0,7889655172413793;0,8027586206896552;0,7781060800323908;0,03717969132986136;8;0,8;0,7611111111111111;0,8055555555555556;0,7722222222222223;0,7611111111111111;0,78;0,01911627837120587;10;0,6103737403535892;0,4113950438805001;0,5291848490125042;0,4903317344469622;0,5116125465698628;0,5105795828526837;0,0641149669740537;9;0,6176470588235294;0,47058823529411764;0,5142857142857142;0,6285714285714286;0,7714285714285715;0,6005042016806723;0,10450700726831776;1;0,4772727272727273;0,3902439024390244;0,5;0,44;0,43548387096774194;0,44860010013589874;0,03772403014669299;8;0,5384615384615384;0,4266666666666667;0,5070422535211268;0,5176470588235295;0,5567010309278351;0,5093037096801393;0,0447220115325794;2
