mean_fit_time;std_fit_time;mean_score_time;std_score_time;param_C;param_class_weight;param_gamma;param_kernel;params;split0_test_tp;split1_test_tp;split2_test_tp;split3_test_tp;split4_test_tp;mean_test_tp;std_test_tp;rank_test_tp;split0_test_tn;split1_test_tn;split2_test_tn;split3_test_tn;split4_test_tn;mean_test_tn;std_test_tn;rank_test_tn;split0_test_fp;split1_test_fp;split2_test_fp;split3_test_fp;split4_test_fp;mean_test_fp;std_test_fp;rank_test_fp;split0_test_fn;split1_test_fn;split2_test_fn;split3_test_fn;split4_test_fn;mean_test_fn;std_test_fn;rank_test_fn;split0_test_AUC;split1_test_AUC;split2_test_AUC;split3_test_AUC;split4_test_AUC;mean_test_AUC;std_test_AUC;rank_test_AUC;split0_test_Accuracy;split1_test_Accuracy;split2_test_Accuracy;split3_test_Accuracy;split4_test_Accuracy;mean_test_Accuracy;std_test_Accuracy;rank_test_Accuracy;split0_test_Average_Precision;split1_test_Average_Precision;split2_test_Average_Precision;split3_test_Average_Precision;split4_test_Average_Precision;mean_test_Average_Precision;std_test_Average_Precision;rank_test_Average_Precision;split0_test_Recall;split1_test_Recall;split2_test_Recall;split3_test_Recall;split4_test_Recall;mean_test_Recall;std_test_Recall;rank_test_Recall;split0_test_Precision;split1_test_Precision;split2_test_Precision;split3_test_Precision;split4_test_Precision;mean_test_Precision;std_test_Precision;rank_test_Precision;split0_test_F1;split1_test_F1;split2_test_F1;split3_test_F1;split4_test_F1;mean_test_F1;std_test_F1;rank_test_F1
1,9901849269866942;0,18905677117830813;0,972578763961792;0,12401931765008149;1;{0.0: 1.0, 1.0: 4.202312138728324};0.1;poly;{'C': 1, 'class_weight': {0.0: 1.0, 1.0: 4.202312138728324}, 'gamma': 0.1, 'kernel': 'poly'};34,0;34,0;0,0;0,0;0,0;13,6;16,65653025092561;15;0,0;0,0;145,0;145,0;145,0;87,0;71,03520254071216;16;146,0;146,0;0,0;0,0;0,0;58,4;71,5251004892688;1;0,0;0,0;35,0;35,0;35,0;21,0;17,146428199482248;2;0,8642224012892827;0,7151490733279613;0,6979310344827586;0,76;0,7720197044334975;0,7618644427067001;0,05805783942907483;23;0,18888888888888888;0,18888888888888888;0,8055555555555556;0,8055555555555556;0,8055555555555556;0,5588888888888889;0,30210373494325865;16;0,6398556222947239;0,4079727601085598;0,38557737439647843;0,4442413198154905;0,46095868694919206;0,4677211527128889;0,09004974164228484;21;1,0;1,0;0,0;0,0;0,0;0,4;0,48989794855663565;15;0,18888888888888888;0,18888888888888888;0,0;0,0;0,0;0,07555555555555556;0,09253627917180894;16;0,3177570093457944;0,3177570093457944;0,0;0,0;0,0;0,12710280373831775;0,15566850701799634;16
1,6194281101226806;0,10607417097812531;0,7988119125366211;0,11177610959782804;1;{0.0: 1.0, 1.0: 4.202312138728324};0.1;rbf;{'C': 1, 'class_weight': {0.0: 1.0, 1.0: 4.202312138728324}, 'gamma': 0.1, 'kernel': 'rbf'};25,0;21,0;21,0;24,0;28,0;23,8;2,6381811916545836;7;114,0;110,0;109,0;112,0;106,0;110,2;2,7129319932501073;8;32,0;36,0;36,0;33,0;39,0;35,2;2,481934729198171;25;9,0;13,0;14,0;11,0;7,0;10,8;2,5612496949731396;26;0,8438759065269943;0,7425463336019339;0,7544827586206897;0,8059113300492611;0,8094581280788178;0,7912548913755394;0,03752293593088565;4;0,7722222222222223;0,7277777777777777;0,7222222222222222;0,7555555555555555;0,7444444444444445;0,7444444444444445;0,018257418583505554;8;0,6333083924903002;0,4742563281813642;0,5116458033776045;0,49464061497549927;0,5377743382966299;0,5303250954642797;0,055546476846626565;7;0,7352941176470589;0,6176470588235294;0,6;0,6857142857142857;0,8;0,6877310924369748;0,07413384224441957;7;0,43859649122807015;0,3684210526315789;0,3684210526315789;0,42105263157894735;0,417910447761194;0,40288033516627386;0,02900573995252834;8;0,5494505494505495;0,4615384615384615;0,4565217391304348;0,5217391304347826;0,5490196078431372;0,5076538976794731;0,040981964195845565;1
2,187781476974487;0,19234098234530989;0,9671601772308349;0,09736751344017185;1;{0.0: 1.0, 1.0: 4.202312138728324};0.01;poly;{'C': 1, 'class_weight': {0.0: 1.0, 1.0: 4.202312138728324}, 'gamma': 0.01, 'kernel': 'poly'};34,0;34,0;0,0;0,0;0,0;13,6;16,65653025092561;15;0,0;0,0;145,0;145,0;145,0;87,0;71,03520254071216;16;146,0;146,0;0,0;0,0;0,0;58,4;71,5251004892688;1;0,0;0,0;35,0;35,0;35,0;21,0;17,146428199482248;2;0,8648267526188558;0,7155519742143432;0,6979310344827586;0,76;0,7722167487684729;0,7621053020168861;0,058213261390851756;12;0,18888888888888888;0,18888888888888888;0,8055555555555556;0,8055555555555556;0,8055555555555556;0,5588888888888889;0,30210373494325865;16;0,6403929228837247;0,40825512591065205;0,38557737439647843;0,4442413198154905;0,4612152467159559;0,4679363979444603;0,09021390866917585;17;1,0;1,0;0,0;0,0;0,0;0,4;0,48989794855663565;15;0,18888888888888888;0,18888888888888888;0,0;0,0;0,0;0,07555555555555556;0,09253627917180894;16;0,3177570093457944;0,3177570093457944;0,0;0,0;0,0;0,12710280373831775;0,15566850701799634;16
1,856577491760254;0,24166345169152317;1,0433156490325928;0,12796544250112307;1;{0.0: 1.0, 1.0: 4.202312138728324};0.01;rbf;{'C': 1, 'class_weight': {0.0: 1.0, 1.0: 4.202312138728324}, 'gamma': 0.01, 'kernel': 'rbf'};28,0;25,0;25,0;23,0;28,0;25,8;1,9390719429665317;1;91,0;87,0;82,0;101,0;84,0;89,0;6,723094525588644;15;55,0;59,0;63,0;44,0;61,0;56,4;6,740919818541087;18;6,0;9,0;10,0;12,0;7,0;8,8;2,1354156504062622;32;0,8209105560032232;0,7141418211120064;0,7249261083743842;0,752512315270936;0,7716256157635467;0,7568232833048192;0,03790516850506467;29;0,6611111111111111;0,6222222222222222;0,5944444444444444;0,6888888888888889;0,6222222222222222;0,6377777777777778;0,033222036417169004;14;0,5878494566759086;0,4115420620672001;0,45494446379905645;0,4262360419581493;0,4783280195793482;0,47178000881593246;0,06245204863435426;14;0,8235294117647058;0,7352941176470589;0,7142857142857143;0,6571428571428571;0,8;0,7460504201680672;0,05990459189356293;1;0,3373493975903614;0,2976190476190476;0,2840909090909091;0,34328358208955223;0,3146067415730337;0,3153899355925808;0,02261114945473779;15;0,47863247863247865;0,42372881355932207;0,40650406504065045;0,45098039215686275;0,45161290322580644;0,442291730523024;0,024933375068677863;13
2,082066774368286;0,21263432940410346;1,0336146354675293;0,16950886842358073;1;{0.0: 1.0, 1.0: 4.202312138728324};0.001;poly;{'C': 1, 'class_weight': {0.0: 1.0, 1.0: 4.202312138728324}, 'gamma': 0.001, 'kernel': 'poly'};34,0;34,0;0,0;0,0;0,0;13,6;16,65653025092561;15;0,0;0,0;145,0;145,0;145,0;87,0;71,03520254071216;16;146,0;146,0;0,0;0,0;0,0;58,4;71,5251004892688;1;0,0;0,0;35,0;35,0;35,0;21,0;17,146428199482248;2;0,8642224012892828;0,7157534246575343;0,6977339901477833;0,76;0,7718226600985222;0,7619064952386245;0,057997803431316004;19;0,18888888888888888;0,18888888888888888;0,8055555555555556;0,8055555555555556;0,8055555555555556;0,5588888888888889;0,30210373494325865;16;0,6394022597964514;0,40833923642513925;0,3855696590438865;0,4442413198154905;0,46090158562028843;0,4676908121402512;0,08983015848695758;25;1,0;1,0;0,0;0,0;0,0;0,4;0,48989794855663565;15;0,18888888888888888;0,18888888888888888;0,0;0,0;0,0;0,07555555555555556;0,09253627917180894;16;0,3177570093457944;0,3177570093457944;0,0;0,0;0,0;0,12710280373831775;0,15566850701799634;16
1,9010541915893555;0,19366509938890028;1,0058546543121338;0,17167325331006114;1;{0.0: 1.0, 1.0: 4.202312138728324};0.001;rbf;{'C': 1, 'class_weight': {0.0: 1.0, 1.0: 4.202312138728324}, 'gamma': 0.001, 'kernel': 'rbf'};34,0;34,0;0,0;0,0;0,0;13,6;16,65653025092561;15;0,0;0,0;145,0;145,0;145,0;87,0;71,03520254071216;16;146,0;146,0;0,0;0,0;0,0;58,4;71,5251004892688;1;0,0;0,0;35,0;35,0;35,0;21,0;17,146428199482248;2;0,8209105560032233;0,7115229653505238;0,724729064039409;0,7515270935960592;0,7692610837438424;0,7555901525466114;0,03837833161249729;30;0,18888888888888888;0,18888888888888888;0,8055555555555556;0,8055555555555556;0,8055555555555556;0,5588888888888889;0,30210373494325865;16;0,5885716069824578;0,407616623788822;0,45484050771980916;0,4254526368803277;0,46515799528473284;0,4683278741312299;0,06352110572412059;15;1,0;1,0;0,0;0,0;0,0;0,4;0,48989794855663565;15;0,18888888888888888;0,18888888888888888;0,0;0,0;0,0;0,07555555555555556;0,09253627917180894;16;0,3177570093457944;0,3177570093457944;0,0;0,0;0,0;0,12710280373831775;0,15566850701799634;16
2,102888250350952;0,19081498802835398;0,9747160911560059;0,1279566150742158;1;{0.0: 1.0, 1.0: 4.202312138728324};0.0001;poly;{'C': 1, 'class_weight': {0.0: 1.0, 1.0: 4.202312138728324}, 'gamma': 0.0001, 'kernel': 'poly'};34,0;34,0;0,0;0,0;0,0;13,6;16,65653025092561;15;0,0;0,0;145,0;145,0;145,0;87,0;71,03520254071216;16;146,0;146,0;0,0;0,0;0,0;58,4;71,5251004892688;1;0,0;0,0;35,0;35,0;35,0;21,0;17,146428199482248;2;0,8640209508460919;0,7155519742143434;0,6975369458128079;0,7599999999999999;0,7720197044334975;0,7618259150613481;0,058009347204001374;25;0,18888888888888888;0,18888888888888888;0,8055555555555556;0,8055555555555556;0,8055555555555556;0,5588888888888889;0,30210373494325865;16;0,63891206371802;0,4082563288783027;0,3854930916203803;0,4442413198154905;0,460958686949192;0,4675722981962771;0,08966690584963637;30;1,0;1,0;0,0;0,0;0,0;0,4;0,48989794855663565;15;0,18888888888888888;0,18888888888888888;0,0;0,0;0,0;0,07555555555555556;0,09253627917180894;16;0,3177570093457944;0,3177570093457944;0,0;0,0;0,0;0,12710280373831775;0,15566850701799634;16
2,075881767272949;0,21495747900734302;1,1166503429412842;0,09331022350964102;1;{0.0: 1.0, 1.0: 4.202312138728324};0.0001;rbf;{'C': 1, 'class_weight': {0.0: 1.0, 1.0: 4.202312138728324}, 'gamma': 0.0001, 'kernel': 'rbf'};34,0;34,0;0,0;0,0;0,0;13,6;16,65653025092561;15;0,0;0,0;145,0;145,0;145,0;87,0;71,03520254071216;16;146,0;146,0;0,0;0,0;0,0;58,4;71,5251004892688;1;0,0;0,0;35,0;35,0;35,0;21,0;17,146428199482248;2;0,8209105560032233;0,7115229653505238;0,724729064039409;0,7515270935960592;0,7692610837438424;0,7555901525466114;0,03837833161249729;30;0,18888888888888888;0,18888888888888888;0,8055555555555556;0,8055555555555556;0,8055555555555556;0,5588888888888889;0,30210373494325865;16;0,578208660885502;0,407616623788822;0,45484050771980916;0,4254526368803277;0,46515799528473284;0,46625528491183876;0,05961276413563325;32;1,0;1,0;0,0;0,0;0,0;0,4;0,48989794855663565;15;0,18888888888888888;0,18888888888888888;0,0;0,0;0,0;0,07555555555555556;0,09253627917180894;16;0,3177570093457944;0,3177570093457944;0,0;0,0;0,0;0,12710280373831775;0,15566850701799634;16
2,02899112701416;0,08189852787536053;0,9839761257171631;0,05337626532451512;10;{0.0: 1.0, 1.0: 4.202312138728324};0.1;poly;{'C': 10, 'class_weight': {0.0: 1.0, 1.0: 4.202312138728324}, 'gamma': 0.1, 'kernel': 'poly'};34,0;34,0;0,0;0,0;0,0;13,6;16,65653025092561;15;0,0;0,0;145,0;145,0;145,0;87,0;71,03520254071216;16;146,0;146,0;0,0;0,0;0,0;58,4;71,5251004892688;1;0,0;0,0;35,0;35,0;35,0;21,0;17,146428199482248;2;0,8650282030620466;0,7149476228847703;0,6977339901477833;0,76;0,7720197044334975;0,7619459041056196;0,05841786830383155;15;0,18888888888888888;0,18888888888888888;0,8055555555555556;0,8055555555555556;0,8055555555555556;0,5588888888888889;0,30210373494325865;16;0,6405551866945739;0,40772168406838766;0,3855413019630321;0,4442413198154905;0,46095868694919206;0,4678036358981352;0,09035714347851989;19;1,0;1,0;0,0;0,0;0,0;0,4;0,48989794855663565;15;0,18888888888888888;0,18888888888888888;0,0;0,0;0,0;0,07555555555555556;0,09253627917180894;16;0,3177570093457944;0,3177570093457944;0,0;0,0;0,0;0,12710280373831775;0,15566850701799634;16
1,2457883834838868;0,15487700344266758;0,5584600925445556;0,09632370573770199;10;{0.0: 1.0, 1.0: 4.202312138728324};0.1;rbf;{'C': 10, 'class_weight': {0.0: 1.0, 1.0: 4.202312138728324}, 'gamma': 0.1, 'kernel': 'rbf'};18,0;17,0;17,0;13,0;20,0;17,0;2,280350850198276;10;136,0;126,0;129,0;125,0;126,0;128,4;4,029888335921977;5;10,0;20,0;16,0;20,0;19,0;17,0;3,794733192202055;28;16,0;17,0;18,0;22,0;15,0;17,6;2,4166091947189146;23;0,8203062046736502;0,7371071716357775;0,7548768472906404;0,7990147783251232;0,8396059113300492;0,7901821826510481;0,03870813843335113;5;0,8555555555555555;0,7944444444444444;0,8111111111111111;0,7666666666666667;0,8111111111111111;0,8077777777777777;0,028888888888888867;4;0,5926108621778511;0,4396313603500647;0,5504077849425594;0,48892077087799396;0,6257815285954281;0,5394704613887795;0,06769969700352985;1;0,5294117647058824;0,5;0,4857142857142857;0,37142857142857144;0,5714285714285714;0,4915966386554622;0,06685612041923666;10;0,6428571428571429;0,4594594594594595;0,5151515151515151;0,3939393939393939;0,5128205128205128;0,5048456048456049;0,08194764838521872;4;0,5806451612903226;0,47887323943661975;0,5;0,3823529411764706;0,5405405405405405;0,4964823764887907;0,06689167295375063;5
1,8450981616973876;0,15411225080653568;1,0004449844360352;0,14078713139098997;10;{0.0: 1.0, 1.0: 4.202312138728324};0.01;poly;{'C': 10, 'class_weight': {0.0: 1.0, 1.0: 4.202312138728324}, 'gamma': 0.01, 'kernel': 'poly'};34,0;34,0;0,0;0,0;0,0;13,6;16,65653025092561;15;0,0;0,0;145,0;145,0;145,0;87,0;71,03520254071216;16;146,0;146,0;0,0;0,0;0,0;58,4;71,5251004892688;1;0,0;0,0;35,0;35,0;35,0;21,0;17,146428199482248;2;0,8640209508460919;0,7153505237711524;0,6979310344827586;0,7592118226600985;0,7720197044334975;0,7617068072387198;0,05796036401930726;26;0,18888888888888888;0,18888888888888888;0,8055555555555556;0,8055555555555556;0,8055555555555556;0,5588888888888889;0,30210373494325865;16;0,63891206371802;0,4086342466272702;0,3856161834007557;0,4438008666771713;0,46095868694919206;0,4675844094744819;0,08961767013368875;29;1,0;1,0;0,0;0,0;0,0;0,4;0,48989794855663565;15;0,18888888888888888;0,18888888888888888;0,0;0,0;0,0;0,07555555555555556;0,09253627917180894;16;0,3177570093457944;0,3177570093457944;0,0;0,0;0,0;0,12710280373831775;0,15566850701799634;16
1,6432334423065185;0,19120353193223777;0,8194591045379639;0,13772841200579286;10;{0.0: 1.0, 1.0: 4.202312138728324};0.01;rbf;{'C': 10, 'class_weight': {0.0: 1.0, 1.0: 4.202312138728324}, 'gamma': 0.01, 'kernel': 'rbf'};25,0;22,0;21,0;24,0;28,0;24,0;2,449489742783178;4;115,0;108,0;107,0;110,0;106,0;109,2;3,1874754901018454;9;31,0;38,0;38,0;35,0;39,0;36,2;2,9257477676655586;24;9,0;12,0;14,0;11,0;7,0;10,6;2,4166091947189146;27;0,8418614020950846;0,741941982272361;0,7554679802955665;0,8078817733990148;0,8092610837438423;0,7912828443611738;0,037078719499603924;3;0,7777777777777778;0,7222222222222222;0,7111111111111111;0,7444444444444445;0,7444444444444445;0,74;0,02287917809108222;9;0,6268962799714312;0,4754959701869857;0,5278815997045013;0,4953098801619554;0,5328031589868649;0,5316773778023477;0,05207928588449805;4;0,7352941176470589;0,6470588235294118;0,6;0,6857142857142857;0,8;0,6936134453781513;0,06935212201445344;4;0,44642857142857145;0,36666666666666664;0,3559322033898305;0,4067796610169492;0,417910447761194;0,3987435100526423;0,03336929175651316;9;0,5555555555555557;0,46808510638297873;0,44680851063829785;0,5106382978723405;0,5490196078431372;0,506021415658462;0,04305606305793421;2
2,0408278942108153;0,2759709164007293;0,9546078681945801;0,15950709963942417;10;{0.0: 1.0, 1.0: 4.202312138728324};0.001;poly;{'C': 10, 'class_weight': {0.0: 1.0, 1.0: 4.202312138728324}, 'gamma': 0.001, 'kernel': 'poly'};34,0;34,0;0,0;0,0;0,0;13,6;16,65653025092561;15;0,0;0,0;145,0;145,0;145,0;87,0;71,03520254071216;16;146,0;146,0;0,0;0,0;0,0;58,4;71,5251004892688;1;0,0;0,0;35,0;35,0;35,0;21,0;17,146428199482248;2;0,8642224012892828;0,7157534246575343;0,6977339901477833;0,76;0,7718226600985222;0,7619064952386245;0,057997803431316004;19;0,18888888888888888;0,18888888888888888;0,8055555555555556;0,8055555555555556;0,8055555555555556;0,5588888888888889;0,30210373494325865;16;0,6394022597964514;0,40833923642513925;0,3855696590438865;0,4442413198154905;0,46090158562028843;0,4676908121402512;0,08983015848695758;25;1,0;1,0;0,0;0,0;0,0;0,4;0,48989794855663565;15;0,18888888888888888;0,18888888888888888;0,0;0,0;0,0;0,07555555555555556;0,09253627917180894;16;0,3177570093457944;0,3177570093457944;0,0;0,0;0,0;0,12710280373831775;0,15566850701799634;16
1,983059787750244;0,058714177406598345;1,1013093948364259;0,1587463048065374;10;{0.0: 1.0, 1.0: 4.202312138728324};0.001;rbf;{'C': 10, 'class_weight': {0.0: 1.0, 1.0: 4.202312138728324}, 'gamma': 0.001, 'kernel': 'rbf'};28,0;25,0;24,0;23,0;28,0;25,6;2,0591260281974;2;92,0;87,0;85,0;102,0;84,0;90,0;6,603029607687671;14;54,0;59,0;60,0;43,0;61,0;55,4;6,651315659326356;19;6,0;9,0;11,0;12,0;7,0;9,0;2,280350850198276;30;0,8209105560032233;0,7139403706688155;0,7249261083743842;0,752512315270936;0,7722167487684729;0,7569012198171663;0,037997540290075564;27;0,6666666666666666;0,6222222222222222;0,6055555555555555;0,6944444444444444;0,6222222222222222;0,6422222222222221;0,03307305792474937;13;0,5881907492772631;0,4115117348488494;0,45494446379905645;0,4262360419581493;0,4789743455828851;0,4719714670932406;0,06259870451541526;13;0,8235294117647058;0,7352941176470589;0,6857142857142857;0,6571428571428571;0,8;0,7403361344537815;0,06389207763812599;2;0,34146341463414637;0,2976190476190476;0,2857142857142857;0,3484848484848485;0,3146067415730337;0,3175776676050724;0,02428263066401423;13;0,48275862068965514;0,42372881355932207;0,40336134453781514;0,45544554455445546;0,45161290322580644;0,4433814453134109;0,027392319111106556;12
2,0381292343139648;0,2501916694908565;0,9581381320953369;0,16078557383273046;10;{0.0: 1.0, 1.0: 4.202312138728324};0.0001;poly;{'C': 10, 'class_weight': {0.0: 1.0, 1.0: 4.202312138728324}, 'gamma': 0.0001, 'kernel': 'poly'};34,0;34,0;0,0;0,0;0,0;13,6;16,65653025092561;15;0,0;0,0;145,0;145,0;145,0;87,0;71,03520254071216;16;146,0;146,0;0,0;0,0;0,0;58,4;71,5251004892688;1;0,0;0,0;35,0;35,0;35,0;21,0;17,146428199482248;2;0,8642224012892828;0,7157534246575343;0,6979310344827586;0,7598029556650246;0,7720197044334975;0,7619459041056196;0,057962408934789024;15;0,18888888888888888;0,18888888888888888;0,8055555555555556;0,8055555555555556;0,8055555555555556;0,5588888888888889;0,30210373494325865;16;0,6394022597964514;0,40833923642513925;0,3856161834007557;0,4441822958060466;0,46095868694919206;0,46769973247551705;0,08982387982128405;24;1,0;1,0;0,0;0,0;0,0;0,4;0,48989794855663565;15;0,18888888888888888;0,18888888888888888;0,0;0,0;0,0;0,07555555555555556;0,09253627917180894;16;0,3177570093457944;0,3177570093457944;0,0;0,0;0,0;0,12710280373831775;0,15566850701799634;16
2,07761869430542;0,2701102856005194;1,0338732242584228;0,11389550963946575;10;{0.0: 1.0, 1.0: 4.202312138728324};0.0001;rbf;{'C': 10, 'class_weight': {0.0: 1.0, 1.0: 4.202312138728324}, 'gamma': 0.0001, 'kernel': 'rbf'};34,0;34,0;0,0;0,0;0,0;13,6;16,65653025092561;15;0,0;0,0;145,0;145,0;145,0;87,0;71,03520254071216;16;146,0;146,0;0,0;0,0;0,0;58,4;71,5251004892688;1;0,0;0,0;35,0;35,0;35,0;21,0;17,146428199482248;2;0,8207091055600322;0,7115229653505238;0,724729064039409;0,7515270935960592;0,7692610837438424;0,7555498624579733;0,03830978074635088;32;0,18888888888888888;0,18888888888888888;0,8055555555555556;0,8055555555555556;0,8055555555555556;0,5588888888888889;0,30210373494325865;16;0,5787676854138304;0,407616623788822;0,45484050771980916;0,4254526368803277;0,46515799528473284;0,4663670898175044;0,05982278430930595;31;1,0;1,0;0,0;0,0;0,0;0,4;0,48989794855663565;15;0,18888888888888888;0,18888888888888888;0,0;0,0;0,0;0,07555555555555556;0,09253627917180894;16;0,3177570093457944;0,3177570093457944;0,0;0,0;0,0;0,12710280373831775;0,15566850701799634;16
2,0668050765991213;0,31024701985147624;1,1422747135162354;0,12565047643448943;100;{0.0: 1.0, 1.0: 4.202312138728324};0.1;poly;{'C': 100, 'class_weight': {0.0: 1.0, 1.0: 4.202312138728324}, 'gamma': 0.1, 'kernel': 'poly'};34,0;33,0;0,0;1,0;2,0;14,0;15,937377450509228;14;10,0;25,0;145,0;144,0;144,0;93,6;62,31725282776833;12;136,0;121,0;0,0;1,0;1,0;51,8;62,805732222465174;21;0,0;1,0;35,0;34,0;33,0;20,6;16,426807358704856;19;0,8650282030620466;0,7149476228847703;0,6977339901477833;0,76;0,7720197044334975;0,7619459041056196;0,05841786830383155;15;0,24444444444444444;0,32222222222222224;0,8055555555555556;0,8055555555555556;0,8111111111111111;0,5977777777777777;0,2579262024803334;15;0,6405551866945739;0,40772168406838766;0,3855413019630321;0,4442413198154905;0,46095868694919206;0,4678036358981352;0,09035714347851989;19;1,0;0,9705882352941176;0,0;0,02857142857142857;0,05714285714285714;0,41126050420168064;0,46913689762441574;14;0,2;0,21428571428571427;0,0;0,5;0,6666666666666666;0,3161904761904762;0,23684624785864045;14;0,33333333333333337;0,351063829787234;0,0;0,05405405405405405;0,10526315789473684;0,16874287501387167;0,14559416713996925;14
1,7625743389129638;0,16763823303445333;0,595773458480835;0,14418990553201844;100;{0.0: 1.0, 1.0: 4.202312138728324};0.1;rbf;{'C': 100, 'class_weight': {0.0: 1.0, 1.0: 4.202312138728324}, 'gamma': 0.1, 'kernel': 'rbf'};17,0;15,0;16,0;12,0;16,0;15,2;1,7204650534085253;11;137,0;129,0;134,0;129,0;131,0;132,0;3,0983866769659336;2;9,0;17,0;11,0;16,0;14,0;13,4;3,0066592756745814;30;17,0;19,0;19,0;23,0;19,0;19,4;1,9595917942265426;21;0,8112409347300564;0,7320709105560032;0,7406896551724139;0,7927093596059114;0,8429556650246306;0,783933305017803;0,04210958552793535;8;0,8555555555555555;0,8;0,8333333333333334;0,7833333333333333;0,8166666666666667;0,8177777777777777;0,02519063121945473;2;0,5489567170157374;0,4235388874804433;0,5173155329904652;0,4918057953912306;0,600391065927146;0,5164015997610045;0,05889539588964357;8;0,5;0,4411764705882353;0,45714285714285713;0,34285714285714286;0,45714285714285713;0,4396638655462185;0,05220212437651987;11;0,6538461538461539;0,46875;0,5925925925925926;0,42857142857142855;0,5333333333333333;0,5354187016687015;0,08143625672171759;2;0,5666666666666668;0,45454545454545453;0,5161290322580645;0,38095238095238093;0,4923076923076923;0,48212024534605175;0,06229572199536456;6
2,1100953102111815;0,17206724511972674;1,0535106658935547;0,12122577850338775;100;{0.0: 1.0, 1.0: 4.202312138728324};0.01;poly;{'C': 100, 'class_weight': {0.0: 1.0, 1.0: 4.202312138728324}, 'gamma': 0.01, 'kernel': 'poly'};34,0;34,0;0,0;0,0;0,0;13,6;16,65653025092561;15;0,0;0,0;145,0;145,0;145,0;87,0;71,03520254071216;16;146,0;146,0;0,0;0,0;0,0;58,4;71,5251004892688;1;0,0;0,0;35,0;35,0;35,0;21,0;17,146428199482248;2;0,8644238517324738;0,7159548751007252;0,6977339901477833;0,7592118226600985;0,7722167487684729;0,7619082576819107;0,05805692509605208;18;0,18888888888888888;0,18888888888888888;0,8055555555555556;0,8055555555555556;0,8055555555555556;0,5588888888888889;0,30210373494325865;16;0,640415919742779;0,4091789089366384;0,3855696590438865;0,4438008666771713;0,4612152467159559;0,4680361202232862;0,09012608462828345;16;1,0;1,0;0,0;0,0;0,0;0,4;0,48989794855663565;15;0,18888888888888888;0,18888888888888888;0,0;0,0;0,0;0,07555555555555556;0,09253627917180894;16;0,3177570093457944;0,3177570093457944;0,0;0,0;0,0;0,12710280373831775;0,15566850701799634;16
1,2385600090026856;0,23242173092530197;0,682859468460083;0,039987174562735484;100;{0.0: 1.0, 1.0: 4.202312138728324};0.01;rbf;{'C': 100, 'class_weight': {0.0: 1.0, 1.0: 4.202312138728324}, 'gamma': 0.01, 'kernel': 'rbf'};19,0;17,0;17,0;13,0;21,0;17,4;2,65329983228432;8;129,0;122,0;127,0;125,0;124,0;125,4;2,416609194718914;6;17,0;24,0;18,0;20,0;21,0;20,0;2,449489742783178;26;15,0;17,0;18,0;22,0;14,0;17,2;2,7856776554368237;25;0,8176873489121675;0,7286462530217567;0,7534975369458128;0,7931034482758621;0,8392118226600985;0,7864292819631395;0,040573356063586474;6;0,8222222222222222;0,7722222222222223;0,8;0,7666666666666667;0,8055555555555556;0,7933333333333333;0,020905430802474177;6;0,5859124413779985;0,43161758986105225;0,5445193893327669;0,48293817950094964;0,6335622072817553;0,5357099614709045;0,07182344995605645;2;0,5588235294117647;0,5;0,4857142857142857;0,37142857142857144;0,6;0,5031932773109243;0,07764523989284268;8;0,5277777777777778;0,4146341463414634;0,4857142857142857;0,3939393939393939;0,5;0,4644131207545842;0,0513414799700581;6;0,5428571428571428;0,45333333333333337;0,4857142857142857;0,3823529411764706;0,5454545454545454;0,4819424497071555;0,060819675506733305;8
2,0061429500579835;0,3086937667318912;1,0313727378845214;0,1758571185683895;100;{0.0: 1.0, 1.0: 4.202312138728324};0.001;poly;{'C': 100, 'class_weight': {0.0: 1.0, 1.0: 4.202312138728324}, 'gamma': 0.001, 'kernel': 'poly'};34,0;34,0;0,0;0,0;0,0;13,6;16,65653025092561;15;0,0;0,0;145,0;145,0;145,0;87,0;71,03520254071216;16;146,0;146,0;0,0;0,0;0,0;58,4;71,5251004892688;1;0,0;0,0;35,0;35,0;35,0;21,0;17,146428199482248;2;0,8640209508460919;0,7157534246575343;0,6977339901477833;0,7598029556650246;0,7720197044334975;0,7618662051499864;0,05793491544864343;22;0,18888888888888888;0,18888888888888888;0,8055555555555556;0,8055555555555556;0,8055555555555556;0,5588888888888889;0,30210373494325865;16;0,63891206371802;0,40833923642513925;0,3855696590438865;0,4441822958060466;0,46095868694919206;0,4675923883884569;0,089645004022812;28;1,0;1,0;0,0;0,0;0,0;0,4;0,48989794855663565;15;0,18888888888888888;0,18888888888888888;0,0;0,0;0,0;0,07555555555555556;0,09253627917180894;16;0,3177570093457944;0,3177570093457944;0,0;0,0;0,0;0,12710280373831775;0,15566850701799634;16
1,6742284297943115;0,2348750096294781;0,8469330310821533;0,09458751528502961;100;{0.0: 1.0, 1.0: 4.202312138728324};0.001;rbf;{'C': 100, 'class_weight': {0.0: 1.0, 1.0: 4.202312138728324}, 'gamma': 0.001, 'kernel': 'rbf'};25,0;22,0;21,0;24,0;28,0;24,0;2,449489742783178;4;115,0;107,0;107,0;109,0;106,0;108,8;3,249615361854384;10;31,0;39,0;38,0;36,0;39,0;36,6;3,0066592756745814;23;9,0;12,0;14,0;11,0;7,0;10,6;2,4166091947189146;27;0,8420628525382755;0,7421434327155519;0,7558620689655172;0,8076847290640394;0,8090640394088671;0,7913634245384502;0,03696777675294879;2;0,7777777777777778;0,7166666666666667;0,7111111111111111;0,7388888888888889;0,7444444444444445;0,7377777777777779;0,023674750836291687;10;0,6267665813480032;0,47563799882942864;0,5280183620977397;0,4946157496316143;0,5318006527212008;0,5313678689255973;0,052093872044975696;6;0,7352941176470589;0,6470588235294118;0,6;0,6857142857142857;0,8;0,6936134453781513;0,06935212201445344;4;0,44642857142857145;0,36065573770491804;0,3559322033898305;0,4;0,417910447761194;0,3961853920569028;0,034332439146457956;10;0,5555555555555557;0,4631578947368421;0,44680851063829785;0,5052631578947367;0,5490196078431372;0,5039609453337139;0,043875442694657;3
2,064355707168579;0,2957641036174035;1,0155514240264893;0,14225689194014898;100;{0.0: 1.0, 1.0: 4.202312138728324};0.0001;poly;{'C': 100, 'class_weight': {0.0: 1.0, 1.0: 4.202312138728324}, 'gamma': 0.0001, 'kernel': 'poly'};34,0;34,0;0,0;0,0;0,0;13,6;16,65653025092561;15;0,0;0,0;145,0;145,0;145,0;87,0;71,03520254071216;16;146,0;146,0;0,0;0,0;0,0;58,4;71,5251004892688;1;0,0;0,0;35,0;35,0;35,0;21,0;17,146428199482248;2;0,8642224012892828;0,7157534246575343;0,698128078817734;0,76;0,7718226600985222;0,7619853129726146;0,05791074329454659;14;0,18888888888888888;0,18888888888888888;0,8055555555555556;0,8055555555555556;0,8055555555555556;0,5588888888888889;0,30210373494325865;16;0,6394022597964514;0,40833923642513925;0,38566335844793076;0,4442413198154905;0,46090158562028843;0,46770955202106;0,0898130330034713;23;1,0;1,0;0,0;0,0;0,0;0,4;0,48989794855663565;15;0,18888888888888888;0,18888888888888888;0,0;0,0;0,0;0,07555555555555556;0,09253627917180894;16;0,3177570093457944;0,3177570093457944;0,0;0,0;0,0;0,12710280373831775;0,15566850701799634;16
1,933842420578003;0,2765740785467769;1,0267728805541991;0,15081406962465937;100;{0.0: 1.0, 1.0: 4.202312138728324};0.0001;rbf;{'C': 100, 'class_weight': {0.0: 1.0, 1.0: 4.202312138728324}, 'gamma': 0.0001, 'kernel': 'rbf'};28,0;25,0;24,0;23,0;28,0;25,6;2,0591260281974;2;93,0;87,0;85,0;102,0;84,0;90,2;6,675327707311454;13;53,0;59,0;60,0;43,0;61,0;55,2;6,705221845696084;20;6,0;9,0;11,0;12,0;7,0;9,0;2,280350850198276;30;0,8209105560032233;0,7139403706688155;0,724729064039409;0,752512315270936;0,7724137931034483;0,7569012198171663;0,03804675991196488;27;0,6722222222222223;0,6222222222222222;0,6055555555555555;0,6944444444444444;0,6222222222222222;0,6433333333333333;0,033957126199858065;12;0,5881907492772631;0,4115117348488494;0,4548511662919658;0,4262360419581493;0,4805327871413267;0,47226449590351083;0,06264184138065247;12;0,8235294117647058;0,7352941176470589;0,6857142857142857;0,6571428571428571;0,8;0,7403361344537815;0,06389207763812599;2;0,345679012345679;0,2976190476190476;0,2857142857142857;0,3484848484848485;0,3146067415730337;0,31842078714737887;0,025154853098776096;12;0,48695652173913045;0,42372881355932207;0,40336134453781514;0,45544554455445546;0,45161290322580644;0,4442210255233059;0,02862305574768367;11
2,0743642807006837;0,18681565618506257;1,1011445999145508;0,184606067493624;1000;{0.0: 1.0, 1.0: 4.202312138728324};0.1;poly;{'C': 1000, 'class_weight': {0.0: 1.0, 1.0: 4.202312138728324}, 'gamma': 0.1, 'kernel': 'poly'};2,0;4,0;1,0;5,0;4,0;3,2;1,469693845669907;32;146,0;145,0;144,0;144,0;144,0;144,6;0,8;1;0,0;1,0;1,0;1,0;1,0;0,8;0,4000000000000001;32;32,0;30,0;34,0;30,0;31,0;31,4;1,4966629547095764;1;0,8525382755842063;0,7514101531023368;0,7404926108374384;0,7838423645320197;0,7732019704433497;0,7802970748998701;0,039244235939494373;10;0,8222222222222222;0,8277777777777777;0,8055555555555556;0,8277777777777777;0,8222222222222222;0,821111111111111;0,00816496580927723;1;0,6310590726197137;0,44229023351546537;0,446194834442251;0,49403129336963614;0,4928947599264696;0,5012940387747071;0,068526827911301;10;0,058823529411764705;0,11764705882352941;0,02857142857142857;0,14285714285714285;0,11428571428571428;0,09243697478991596;0,042104110978478625;32;1,0;0,8;0,5;0,8333333333333334;0,8;0,7866666666666667;0,16138291249213607;1;0,1111111111111111;0,20512820512820512;0,05405405405405405;0,2439024390243902;0,19999999999999998;0,1628391618635521;0,06964271231230021;15
1,585338830947876;0,30373239727654233;0,6274372100830078;0,06187910879145961;1000;{0.0: 1.0, 1.0: 4.202312138728324};0.1;rbf;{'C': 1000, 'class_weight': {0.0: 1.0, 1.0: 4.202312138728324}, 'gamma': 0.1, 'kernel': 'rbf'};17,0;15,0;16,0;12,0;16,0;15,2;1,7204650534085253;11;137,0;129,0;134,0;129,0;131,0;132,0;3,0983866769659336;2;9,0;17,0;11,0;16,0;14,0;13,4;3,0066592756745814;30;17,0;19,0;19,0;23,0;19,0;19,4;1,9595917942265426;21;0,8112409347300564;0,7320709105560032;0,7406896551724139;0,7927093596059114;0,8429556650246306;0,783933305017803;0,04210958552793535;8;0,8555555555555555;0,8;0,8333333333333334;0,7833333333333333;0,8166666666666667;0,8177777777777777;0,02519063121945473;2;0,5489567170157374;0,4235388874804433;0,5173155329904652;0,4918057953912306;0,600391065927146;0,5164015997610045;0,05889539588964357;8;0,5;0,4411764705882353;0,45714285714285713;0,34285714285714286;0,45714285714285713;0,4396638655462185;0,05220212437651987;11;0,6538461538461539;0,46875;0,5925925925925926;0,42857142857142855;0,5333333333333333;0,5354187016687015;0,08143625672171759;2;0,5666666666666668;0,45454545454545453;0,5161290322580645;0,38095238095238093;0,4923076923076923;0,48212024534605175;0,06229572199536456;6
2,0722301483154295;0,2630667820614861;1,1278280735015869;0,1873544210023979;1000;{0.0: 1.0, 1.0: 4.202312138728324};0.01;poly;{'C': 1000, 'class_weight': {0.0: 1.0, 1.0: 4.202312138728324}, 'gamma': 0.01, 'kernel': 'poly'};34,0;34,0;0,0;0,0;0,0;13,6;16,65653025092561;15;0,0;0,0;145,0;145,0;145,0;87,0;71,03520254071216;16;146,0;146,0;0,0;0,0;0,0;58,4;71,5251004892688;1;0,0;0,0;35,0;35,0;35,0;21,0;17,146428199482248;2;0,8642224012892827;0,7151490733279613;0,6979310344827586;0,76;0,7720197044334975;0,7618644427067001;0,05805783942907483;23;0,18888888888888888;0,18888888888888888;0,8055555555555556;0,8055555555555556;0,8055555555555556;0,5588888888888889;0,30210373494325865;16;0,6398556222947239;0,4079727601085598;0,38557737439647843;0,4442413198154905;0,46095868694919206;0,4677211527128889;0,09004974164228484;21;1,0;1,0;0,0;0,0;0,0;0,4;0,48989794855663565;15;0,18888888888888888;0,18888888888888888;0,0;0,0;0,0;0,07555555555555556;0,09253627917180894;16;0,3177570093457944;0,3177570093457944;0,0;0,0;0,0;0,12710280373831775;0,15566850701799634;16
1,6110252380371093;0,2674239601512773;0,5059010505676269;0,08875180428275233;1000;{0.0: 1.0, 1.0: 4.202312138728324};0.01;rbf;{'C': 1000, 'class_weight': {0.0: 1.0, 1.0: 4.202312138728324}, 'gamma': 0.01, 'kernel': 'rbf'};16,0;14,0;15,0;12,0;16,0;14,6;1,4966629547095764;13;135,0;127,0;131,0;127,0;130,0;130,0;2,9664793948382653;4;11,0;19,0;14,0;18,0;15,0;15,4;2,870540018881465;29;18,0;20,0;20,0;23,0;19,0;20,0;1,6733200530681511;20;0,806809024979855;0,7228041901692184;0,732807881773399;0,7840394088669951;0,8370443349753695;0,7767009681529674;0,04343532071119345;11;0,8388888888888889;0,7833333333333333;0,8111111111111111;0,7722222222222223;0,8111111111111111;0,8033333333333333;0,023465235646603196;5;0,5050211253747089;0,40046087424591115;0,4934738393342137;0,4654559437624945;0,5985899547812691;0,4926003474997195;0,0642111154683371;11;0,47058823529411764;0,4117647058823529;0,42857142857142855;0,34285714285714286;0,45714285714285713;0,4221848739495798;0,04473746278266674;13;0,5925925925925926;0,42424242424242425;0,5172413793103449;0,4;0,5161290322580645;0,4900410856806852;0,0698199247460068;5;0,5245901639344261;0,41791044776119407;0,46875000000000006;0,36923076923076925;0,4848484848484849;0,4530659731549749;0,05410375032658055;10
1,8602859020233153;0,14653884872852632;1,0644614219665527;0,20649623667725792;1000;{0.0: 1.0, 1.0: 4.202312138728324};0.001;poly;{'C': 1000, 'class_weight': {0.0: 1.0, 1.0: 4.202312138728324}, 'gamma': 0.001, 'kernel': 'poly'};34,0;34,0;0,0;0,0;0,0;13,6;16,65653025092561;15;0,0;0,0;145,0;145,0;145,0;87,0;71,03520254071216;16;146,0;146,0;0,0;0,0;0,0;58,4;71,5251004892688;1;0,0;0,0;35,0;35,0;35,0;21,0;17,146428199482248;2;0,8648267526188558;0,7155519742143432;0,6979310344827586;0,76;0,7722167487684729;0,7621053020168861;0,058213261390851756;12;0,18888888888888888;0,18888888888888888;0,8055555555555556;0,8055555555555556;0,8055555555555556;0,5588888888888889;0,30210373494325865;16;0,6403929228837247;0,40825512591065205;0,38557737439647843;0,4442413198154905;0,4612152467159559;0,4679363979444603;0,09021390866917585;17;1,0;1,0;0,0;0,0;0,0;0,4;0,48989794855663565;15;0,18888888888888888;0,18888888888888888;0,0;0,0;0,0;0,07555555555555556;0,09253627917180894;16;0,3177570093457944;0,3177570093457944;0,0;0,0;0,0;0,12710280373831775;0,15566850701799634;16
1,133383846282959;0,13842979053039162;0,5591598510742187;0,08038309694971042;1000;{0.0: 1.0, 1.0: 4.202312138728324};0.001;rbf;{'C': 1000, 'class_weight': {0.0: 1.0, 1.0: 4.202312138728324}, 'gamma': 0.001, 'kernel': 'rbf'};19,0;17,0;17,0;13,0;20,0;17,2;2,4;9;129,0;123,0;126,0;125,0;124,0;125,4;2,0591260281974;6;17,0;23,0;19,0;20,0;21,0;20,0;2,0;26;15,0;17,0;18,0;22,0;15,0;17,4;2,5768197453450252;24;0,8186946011281224;0,7278404512489928;0,7542857142857142;0,7925123152709359;0,8386206896551724;0,7863907543177875;0,04066411134527558;7;0,8222222222222222;0,7777777777777778;0,7944444444444444;0,7666666666666667;0,8;0,7922222222222223;0,019116278371205813;7;0,5873352351621104;0,4326687238468867;0,5437086220778926;0,48074210953182245;0,6331579269256676;0,5355225235088759;0,07192223461407259;3;0,5588235294117647;0,5;0,4857142857142857;0,37142857142857144;0,5714285714285714;0,49747899159663866;0,07108468877259744;9;0,5277777777777778;0,425;0,4722222222222222;0,3939393939393939;0,4878048780487805;0,46134885439763484;0,04710886912676902;7;0,5428571428571428;0,45945945945945943;0,47887323943661975;0,3823529411764706;0,5263157894736842;0,4779717144806754;0,056628145906333485;9
2,100722646713257;0,14159942827607158;1,0923940181732177;0,0985197449638461;1000;{0.0: 1.0, 1.0: 4.202312138728324};0.0001;poly;{'C': 1000, 'class_weight': {0.0: 1.0, 1.0: 4.202312138728324}, 'gamma': 0.0001, 'kernel': 'poly'};34,0;34,0;0,0;0,0;0,0;13,6;16,65653025092561;15;0,0;0,0;145,0;145,0;145,0;87,0;71,03520254071216;16;146,0;146,0;0,0;0,0;0,0;58,4;71,5251004892688;1;0,0;0,0;35,0;35,0;35,0;21,0;17,146428199482248;2;0,8642224012892828;0,7157534246575343;0,6977339901477833;0,76;0,7718226600985222;0,7619064952386245;0,057997803431316004;19;0,18888888888888888;0,18888888888888888;0,8055555555555556;0,8055555555555556;0,8055555555555556;0,5588888888888889;0,30210373494325865;16;0,6394022597964514;0,40833923642513925;0,3855696590438865;0,4442413198154905;0,46090158562028843;0,4676908121402512;0,08983015848695758;25;1,0;1,0;0,0;0,0;0,0;0,4;0,48989794855663565;15;0,18888888888888888;0,18888888888888888;0,0;0,0;0,0;0,07555555555555556;0,09253627917180894;16;0,3177570093457944;0,3177570093457944;0,0;0,0;0,0;0,12710280373831775;0,15566850701799634;16
1,5933218002319336;0,18982656545244242;0,7855625629425049;0,06750521308686931;1000;{0.0: 1.0, 1.0: 4.202312138728324};0.0001;rbf;{'C': 1000, 'class_weight': {0.0: 1.0, 1.0: 4.202312138728324}, 'gamma': 0.0001, 'kernel': 'rbf'};25,0;22,0;21,0;24,0;28,0;24,0;2,449489742783178;4;115,0;107,0;107,0;109,0;105,0;108,6;3,4409301068170506;11;31,0;39,0;38,0;36,0;40,0;36,8;3,1874754901018454;22;9,0;12,0;14,0;11,0;7,0;10,6;2,4166091947189146;27;0,8422643029814666;0,7421434327155519;0,7558620689655172;0,8078817733990148;0,8090640394088671;0,7914431234940835;0,03704048899538238;1;0,7777777777777778;0,7166666666666667;0,7111111111111111;0,7388888888888889;0,7388888888888889;0,7366666666666667;0,023465235646603196;11;0,6268605583327365;0,47563799882942864;0,5280183620977397;0,4946898479208156;0,5318006527212008;0,5314014839803842;0,05211784766069191;5;0,7352941176470589;0,6470588235294118;0,6;0,6857142857142857;0,8;0,6936134453781513;0,06935212201445344;4;0,44642857142857145;0,36065573770491804;0,3559322033898305;0,4;0,4117647058823529;0,3949562436811346;0,03363559077523459;11;0,5555555555555557;0,4631578947368421;0,44680851063829785;0,5052631578947367;0,5436893203883495;0,5028948878427564;0,042819740033620476;4
