epoch;loss;acc;val_loss;val_acc
1;1,088470306330257;0,6111111111111112;0,6259756916099124;0,6458333333333334
2;0,9906280984481176;0,640625;0,5970749384827084;0,6694444444444444
3;0,9435501741038428;0,6791666666666667;0,6060210658444298;0,6569444444444444
4;0,8910691736472978;0,6864583333333333;0,5571098466714223;0,7027777777777777
5;0,9031989238328404;0,7104166666666667;0,5119876775476667;0,7333333333333333
6;0,8489177751872274;0,7302083333333333;0,5434538185596466;0,7013888888888888
7;0,8531557444069121;0,7225694444444445;0,5798960705598195;0,6708333333333333
8;0,8481849632329411;0,7177083333333333;0,5231255935298071;0,7222222222222222
9;0,8374304355846511;0,7256944444444444;0,5163788199424744;0,7208333333333333
10;0,8285400867462158;0,7253472222222223;0,48551356726222566;0,7583333333333333
11;0,7974513636695014;0,7513888888888889;0,5078007751040988;0,7375
12;0,7988778953750928;0,7381944444444445;0,4758512059847514;0,7722222222222223
13;0,7988868888881472;0,7482638888888888;0,48121520810657076;0,7666666666666667
14;0,8085479527711869;0,7388888888888889;0,47618888351652355;0,7666666666666667
15;0,7752546128299501;0,7597222222222222;0,4803962747255961;0,7625
16;0,791510117219554;0,7506944444444444;0,5039278904596964;0,7444444444444445
17;0,7675805219345623;0,7472222222222222;0,47109767198562624;0,7666666666666667
18;0,7617303212483724;0,7680555555555556;0,49459469583299426;0,75
19;0,7747355469399029;0,7555555555555555;0,4789567516909705;0,7694444444444445
20;0,7551332387659285;0,7618055555555555;0,49955753054883745;0,7402777777777778
21;0,7510172969765133;0,7715277777777778;0,5158398045433892;0,7291666666666666
22;0,7465277206566598;0,7677083333333333;0,47795036004649266;0,7611111111111111
23;0,7307652215162913;0,7864583333333334;0,5372188985347748;0,7055555555555556
24;0,7348719706137975;0,7677083333333333;0,47010597354835937;0,7666666666666667
25;0,737773919933372;0,7840277777777778;0,4707748505804274;0,7680555555555556
26;0,7641538858413697;0,7586805555555556;0,47655706140730114;0,7680555555555556
27;0,7270760436852773;0,7805555555555556;0,45147038797537486;0,7930555555555555
28;0,7256854504346848;0,7822916666666667;0,4754964729150136;0,7694444444444445
29;0,7390878761808077;0,7614583333333333;0,44664993981520335;0,7930555555555555
30;0,7201661109924317;0,7798611111111111;0,44908041258653003;0,7944444444444444
31;0,7195368448893229;0,775;0,45357685983181;0,7930555555555555
32;0,7176619832714398;0,78125;0,44363803532388474;0,7986111111111112
33;0,7135343720515569;0,7913194444444445;0,46841396225823295;0,7736111111111111
34;0,7173724290397432;0,784375;0,4785041040844388;0,7583333333333333
35;0,7145998638537195;0,7888888888888889;0,49784550997946;0,7347222222222223
36;0,7074160610636075;0,7826388888888889;0,4446342133813434;0,7944444444444444
37;0,6903009379903475;0,7892361111111111;0,44550425443384384;0,7986111111111112
38;0,7008418704072634;0,7940972222222222;0,49142642153633964;0,7430555555555556
39;0,7077494816647636;0,7875;0,4859423879120085;0,7486111111111111
40;0,7198111058937179;0,7770833333333333;0,5210024582015144;0,7194444444444444
41;0,7087485979000727;0,7798611111111111;0,4339432683255937;0,7986111111111112
42;0,6762956943776872;0,8038194444444444;0,48293448554144963;0,75
43;0,6997536609570185;0,7909722222222222;0,49001864658461675;0,7486111111111111
44;0,6636118880576558;0,803125;0,45757471952173445;0,7847222222222222
45;0,683639806177881;0,8017361111111111;0,4509501980410682;0,7902777777777777
46;0,6935913119051191;0,7833333333333333;0,4897212227185567;0,7569444444444444
47;0,6792256813910272;0,79375;0,49592068129115635;0,7444444444444445
48;0,6780710288219982;0,8006944444444445;0,49244293537404804;0,7458333333333333
49;0,6953492222560776;0,7888888888888889;0,46592886282338036;0,7819444444444444
50;0,6847207703524165;0,7996527777777778;0,4915700071387821;0,75
51;0,6747413458095657;0,7986111111111112;0,4591542214155197;0,7875
52;0,6723149879111184;0,8020833333333334;0,4408781932459937;0,8041666666666667
53;0,6806227241953214;0,8;0,44890044298436904;0,7986111111111112
54;0,6802425124579006;0,8038194444444444;0,4930859214729733;0,7569444444444444
55;0,673381450937854;0,7965277777777777;0,4550885657469432;0,8
56;0,6733262916405995;0,7916666666666666;0,4437254627545675;0,8041666666666667
57;0,6680585182375378;0,8027777777777778;0,4626392278406355;0,7930555555555555
58;0,6435440003871917;0,8163194444444445;0,4808522062169181;0,7666666666666667
59;0,6486750120090113;0,8142361111111112;0,46110825339953104;0,7944444444444444
60;0,6744047161605623;0,796875;0,4653364698092143;0,7888888888888889
61;0,6546319322453604;0,8024305555555555;0,4328005913231108;0,8083333333333333
62;0,6618418069349394;0,8065972222222222;0,45212320420477126;0,8013888888888889
63;0,6701709560222096;0,7986111111111112;0,4420613520675235;0,8055555555555556
64;0,6617859027451939;0,7975694444444444;0,4500822885168923;0,8
65;0,6614530651105774;0,8107638888888888;0,480353182554245;0,7680555555555556
66;0,6523650294376744;0,8017361111111111;0,4392234590318468;0,8111111111111111
67;0,6533009871840477;0,8125;0,4537000520361794;0,8041666666666667
68;0,6461225504676501;0,803125;0,4508243324028121;0,8
69;0,6449468296435145;0,8072916666666666;0,45938996738857696;0,7916666666666666
70;0,635573407345348;0,8121527777777777;0,4322538180483712;0,8111111111111111
71;0,6508058625790808;0,8038194444444444;0,4429781847529941;0,8027777777777778
72;0,6400871122876803;0,8135416666666667;0,44778295622931585;0,8013888888888889
73;0,6430692316757308;0,8159722222222222;0,46189624302917054;0,7888888888888889
74;0,6569549726115332;0,8024305555555555;0,4596210443311267;0,7930555555555555
75;0,6368904075688786;0,8118055555555556;0,4307283361752828;0,8166666666666667
76;0,660865999178754;0,8086805555555555;0,432168616188897;0,8097222222222222
77;0,6648619559076098;0,8097222222222222;0,466649580332968;0,7888888888888889
78;0,6585920774274402;0,8041666666666667;0,47296349505583446;0,7763888888888889
79;0,6468986653619342;0,8045138888888889;0,4521603779660331;0,7972222222222223
80;0,6431933821903335;0,8079861111111111;0,45559877157211304;0,7930555555555555
81;0,6497767332527372;0,8097222222222222;0,47067633966604866;0,7833333333333333
82;0,6507875084877014;0,809375;0,46856220530139076;0,7805555555555556
83;0,6424433100554678;0,8079861111111111;0,44350748591952854;0,8041666666666667
84;0,6358058793677224;0,8111111111111111;0,4436044812202454;0,8069444444444445
85;0,6125406460629569;0,825;0,4567223429679871;0,7916666666666666
86;0,6538804430100653;0,8059027777777777;0,45533504088719684;0,7958333333333333
87;0,6594808369874954;0,8020833333333334;0,46774802207946775;0,7833333333333333
88;0,6417024044526948;0,8107638888888888;0,4519410341978073;0,7958333333333333
89;0,6394508933855427;0,8125;0,4731869353188409;0,7819444444444444
90;0,6373201759325133;0,8079861111111111;0,48139089213477243;0,7736111111111111
91;0,6428863533669048;0,8065972222222222;0,45871965454684366;0,7861111111111111
92;0,6538579061627388;0,8065972222222222;0,4605060898595386;0,7833333333333333
93;0,6434587430622842;0,809375;0,4529242386420568;0,8
94;0,6330957381261719;0,8166666666666667;0,46984332733684114;0,7847222222222222
95;0,6172217900554339;0,8215277777777777;0,44564241766929624;0,8
96;0,6312256689700816;0,8180555555555555;0,4420934047963884;0,8027777777777778
97;0,6435224366684754;0,8211805555555556;0,45582305358515846;0,7944444444444444
98;0,6094851434230805;0,8236111111111111;0,46469302905930415;0,7888888888888889
99;0,6395147116647826;0,8159722222222222;0,47630295356114705;0,7777777777777778
100;0,6222769404451053;0,81875;0,4625627610418532;0,7875
