epoch;loss;acc;val_loss;val_acc
1;0,44595424036184944;0,8729166666666667;0,44104881087938946;0,8027777777777778
2;0,4493957309259309;0,8854166666666666;0,44291838539971246;0,7986111111111112
3;0,45873236854871113;0,8729166666666667;0,4402454323238797;0,8083333333333333
4;0,46007571551534865;0,88125;0,43911310566796197;0,8069444444444445
5;0,4488338243630197;0,8788194444444445;0,44296845661269296;0,8027777777777778
6;0,4527689781453874;0,8788194444444445;0,44276599056190913;0,8027777777777778
7;0,43870153460237715;0,8836805555555556;0,4420636256535848;0,8055555555555556
8;0,4588531489173571;0,8791666666666667;0,4419170717398326;0,8069444444444445
9;0,45199470453792145;0,8802083333333334;0,4417385266886817;0,8069444444444445
10;0,4543156643708547;0,8767361111111112;0,4454517761866252;0,8069444444444445
11;0,4387974394692315;0,8809027777777778;0,44310559696621366;0,8111111111111111
12;0,4414445850584242;0,8819444444444444;0,4414609240161048;0,8111111111111111
13;0,41944783247179457;0,8864583333333333;0,4438362353377872;0,8125
14;0,4272238966491487;0,8871527777777778;0,4442775977982415;0,8125
15;0,4167182793219884;0,8902777777777777;0,441563571161694;0,8111111111111111
16;0,43904928548468486;0,8885416666666667;0,4446829842196571;0,8125
17;0,42554694927401016;0,8819444444444444;0,4430260101954142;0,8097222222222222
18;0,4082252812054422;0,8920138888888889;0,44267741044362385;0,8097222222222222
19;0,44787245790163677;0,890625;0,44488388631078934;0,8097222222222222
20;0,40158461547560165;0,8961805555555555;0,4429227723015679;0,8097222222222222
21;0,4056362047791481;0,8913194444444444;0,4433883779578739;0,8083333333333333
22;0,40579592171642515;0,8940972222222222;0,4429850780301624;0,8111111111111111
23;0,39280693746275375;0,9013888888888889;0,4396958774990506;0,8152777777777778
24;0,3902936276462343;0,8996527777777777;0,44130681422021656;0,8152777777777778
25;0,40707407941420876;0,8972222222222223;0,4439826620949639;0,8125
26;0,4030683446261618;0,8958333333333334;0,44698175920380484;0,8097222222222222
27;0,40780518303314844;0,8993055555555556;0,445062796274821;0,8097222222222222
28;0,3882536803682645;0,8982638888888889;0,44461097684171463;0,8111111111111111
29;0,3918426742156347;0,9010416666666666;0,44566619131300184;0,8138888888888889
30;0,3824891414907243;0,9041666666666667;0,4438974274529351;0,8138888888888889
31;0,37401150084204143;0,9076388888888889;0,4473539776272244;0,8138888888888889
32;0,3743313257892927;0,9069444444444444;0,4446428431404961;0,8138888888888889
33;0,3800780995024575;0,9048611111111111;0,44616502987013923;0,8125
34;0,373701892958747;0,9076388888888889;0,44725292126337685;0,8111111111111111
35;0,3656884852382872;0,909375;0,4484500338633855;0,8138888888888889
36;0,36967115965154435;0,9097222222222222;0,4495564957459768;0,8138888888888889
37;0,36614778969022965;0,9;0,4489339669545492;0,8152777777777778
38;0,35607908103201125;0,9125;0,4510921458403269;0,8180555555555555
39;0,3713134639792972;0,9055555555555556;0,4507658123970032;0,8166666666666667
40;0,37102540516191057;0,903125;0,4508906364440918;0,8166666666666667
41;0,3412189374367396;0,9128472222222223;0,44940439661343895;0,8166666666666667
42;0,354118205110232;0,9166666666666666;0,45012582540512086;0,8180555555555555
43;0,3548286376727952;0,9149305555555556;0,45181198053889804;0,8180555555555555
44;0,3572400561637349;0,9131944444444444;0,4506730496883392;0,8194444444444444
45;0,36133084098498025;0,9111111111111111;0,45366881357298955;0,8166666666666667
46;0,36662567771143384;0,9052083333333333;0,45669598976771036;0,8138888888888889
47;0,3684514108631346;0,9114583333333334;0,45631859501202904;0,8152777777777778
48;0,3531522371702724;0,9121527777777778;0,4555799596839481;0,8152777777777778
49;0,3363119165102641;0,9190972222222222;0,4529265979925791;0,8194444444444444
50;0,33969483855697846;0,9107638888888889;0,4507639265722699;0,8194444444444444
51;0,36176972024970583;0,909375;0,45309679839346145;0,8180555555555555
52;0,33059050192435585;0,9166666666666666;0,45431950754589506;0,8180555555555555
53;0,3428858399391174;0,9177083333333333;0,45408977535035877;0,8166666666666667
54;0,31934369876980784;0,9295138888888889;0,453779137134552;0,8194444444444444
55;0,3445465995205773;0,9135416666666667;0,4553647047943539;0,8180555555555555
56;0,3431418745054139;0,9194444444444444;0,4567505809995863;0,8152777777777778
57;0,34446159303188323;0,9163194444444445;0,4558975610468123;0,8125
58;0,3246592500143581;0,9208333333333333;0,45650638937950133;0,8125
59;0,3193114889992608;0,9204861111111111;0,45581101841396754;0,8194444444444444
60;0,335870997607708;0,9152777777777777;0,45589486161867776;0,8208333333333333
61;0,3179779761367374;0,9166666666666666;0,4565800004535251;0,825
62;0,33730296095212303;0,9177083333333333;0,45784083637926315;0,8236111111111111
63;0,32071033947997624;0,9197916666666667;0,4588703817791409;0,8236111111111111
64;0,3150789451267984;0,9225694444444444;0,4572706116570367;0,8291666666666667
65;0,31346435927682453;0,925;0,4568407853444417;0,8277777777777777
66;0,30689545041984984;0,9222222222222223;0,4578658898671468;0,8277777777777777
67;0,31233817603853015;0,9291666666666667;0,4596252146694395;0,8236111111111111
68;0,30275094086925186;0,9263888888888889;0,45966256592008803;0,825
69;0,32825895961787965;0,9246527777777778;0,4617747598224216;0,8277777777777777
70;0,3026439572374026;0,9253472222222222;0,4631775789790683;0,8263888888888888
71;0,2987834473450979;0,9270833333333334;0,4622830132643382;0,8277777777777777
72;0,2981283830271827;0,9253472222222222;0,4616014156076643;0,8277777777777777
73;0,3049294203519821;0,9284722222222223;0,46252767046292625;0,8263888888888888
74;0,3054609316090743;0,9256944444444445;0,46211925745010374;0,8263888888888888
75;0,30326651102966734;0,928125;0,4630347655879127;0,8263888888888888
76;0,28418593605359393;0,9395833333333333;0,4624784721268548;0,8263888888888888
77;0,2897533643576834;0,9354166666666667;0,4651763978931639;0,8277777777777777
78;0,3018557174338235;0,93125;0,4649904833899604;0,825
79;0,3109200435380141;0,9239583333333333;0,46502156787448456;0,8277777777777777
80;0,290407776998149;0,9347222222222222;0,46552737024095325;0,825
81;0,2885854717757967;0,9291666666666667;0,4655139168103536;0,825
82;0,28529093944364126;0,9340277777777778;0,46819895174768233;0,8263888888888888
83;0,27503214329481124;0,9340277777777778;0,4664599206712511;0,8263888888888888
84;0,27535709490378696;0,934375;0,465656414296892;0,8263888888888888
85;0,28514930796292093;0,9315972222222222;0,46641657219992744;0,8277777777777777
86;0,281359520720111;0,9284722222222223;0,46679350601302255;0,8277777777777777
87;0,2802360394762622;0,9368055555555556;0,4667876429027981;0,8277777777777777
88;0,2718676906492975;0,9329861111111111;0,47006054123242696;0,8277777777777777
89;0,2841931336455875;0,9368055555555556;0,46972414255142214;0,8347222222222223
90;0,26925651613208984;0,9274305555555555;0,4691040880150265;0,8347222222222223
91;0,26337750520971087;0,9392361111111112;0,469553539239698;0,8333333333333334
92;0,26559853280584017;0,934375;0,46944828232129415;0,8333333333333334
93;0,27826430714792677;0,9350694444444444;0,47077427473333144;0,8319444444444445
94;0,2520084381931358;0,9395833333333333;0,47015772461891175;0,8333333333333334
95;0,26977801099419596;0,934375;0,469854027695126;0,8361111111111111
96;0,263639792551597;0,9392361111111112;0,4723665813604991;0,8347222222222223
97;0,2708030562433932;0,9364583333333333;0,47406997680664065;0,8347222222222223
98;0,2567988944550355;0,9423611111111111;0,47241374519136214;0,8333333333333334
99;0,2588056823445691;0,9413194444444445;0,47345615691608856;0,8347222222222223
100;0,2474852729174826;0,9420138888888889;0,47514425615469613;0,8333333333333334
